estate_church_disaster = {
	potential = {
		NOT = { government = theocracy }
		has_dlc = "The Cossacks"
		has_estate = estate_church
		estate_influence = {
			estate = estate_church
			influence = 60
		}
	}


	can_start = {
		has_any_disaster = no
		estate_influence = {
			estate = estate_church
			influence = 80
		}
	}
	
	can_stop = {
		NOT = {
			estate_influence = {
				estate = estate_church
				influence = 80
			}		
		}
	}
	
	progress = {
		modifier = {
			factor = 1
			estate_influence = {
				estate = estate_church
				influence = 80
			}
			hidden_trigger = {
				NOT = {
					estate_influence = {
						estate = estate_church
						influence = 85
					}			
				}			
			}
		}
		modifier = {
			factor = 2
			estate_influence = {
				estate = estate_church
				influence = 85
			}
			hidden_trigger = {
				NOT = {
					estate_influence = {
						estate = estate_church
						influence = 90
					}			
				}			
			}
		}
		modifier = {
			factor = 3
			estate_influence = {
				estate = estate_church
				influence = 90
			}
			hidden_trigger = {
				NOT = {
					estate_influence = {
						estate = estate_church
						influence = 95
					}			
				}			
			}
		}	
		modifier = {
			factor = 4
			estate_influence = {
				estate = estate_church
				influence = 95
			}
			hidden_trigger = {
				NOT = {
					estate_influence = {
						estate = estate_church
						influence = 100
					}			
				}			
			}
		}	
		modifier = {
			factor = 5
			estate_influence = {
				estate = estate_church
				influence = 100
			}
		}		
	}
	
	can_end = {
		custom_trigger_tooltip = {
			tooltip = EST_CRUSHED_CHURCH
			OR = {
				NOT = { has_country_flag = church_estate_in_power }
				has_country_flag = noble_estate_in_power
			}
		}
	}
	
	modifier = {	
		technology_cost = 0.2
		idea_cost = 0.2
		tolerance_heretic = -2
		tolerance_heathen = -2
	}

	on_start = estate_disasters.3
	on_end = estate_disasters.4
	
	on_monthly = {
	}
}

