#######################################
#########                   ###########
####				   			   ####
####       MEIOU and Taxes         ####
####				   			   ####
#########                   ###########
#######################################

#Table of Contents
# Y = Yes
# N = No
# G = Group


#Europe
	#British Isles
	#France
	#Iberia
	#Low Countries
	#Germany
	#Italy
	#Scandinavia
	#Baltics
	#Jagiellon
	#Russia
	#Balkans
#Asia
	#Anatolia
	#Middle-East
	#India
	#East-Asia
	#Central Asia
	#Indochina
	#Indonesia
#New World
	#Colonial Nations
	#Mesoamerica
	#Andes
#Africa

#Oceania



#Europe
	#British Isles
		#ASE	= AnglosaxonEmpire
		#CEL	= CelticEmpire
		#CNN	= Connacht					G
		#CRN	= Cornwall					Y
		#ENG	= England					Y
		#GBR	= GreatBritain				Y
		#LEI	= Leinster					G
		#IRE	= Ireland					G
		#LAN	= Lancaster
		#MEA	= Meath						G
		#MNS	= IreMunster				G
		#NOL	= Northumberland
		#SCO	= Scotland					Y
		#TYR	= Tyrone					G
		#UEF	= England-France
		#WLS	= Wales						Y
		#YOR	= York

	#France
		#ALS	= Alsace					G
		#AMG	= Armagnac
		#ANJ	= Anjou						G
		#ARS	= Artois					G
		#AUV	= Auvergne
		#BAR	= Bar
		#BER	= Berry
		#BLO	= Blois						Y
		#BOU	= Bourbonnais				G
		#BRI	= Brittany					Y
		#BUR	= Burgundy					Y
		#CHP	= Champagne					G
		#COR	= Corsica					Y - Serenissima
		#DAL	= Albret
		#DAU	= Dauphine
		#FOI	= Foix
		#FRA	= France					Y
		#GUY	= Guyenne
		#LOT	= Lotharingie
		#MNF	= Montfort					Y
		#NEV	= Nevers					G
		#NRM	= Normandy					G
		#OCC	= languedoc_region					Y
		#ORL	= Orleans					G
		#PRO	= Provence					Y
		#RFR	= RevolutionaryFrance		Y
		#TOU	= Toulouse
		#VLT	= Valentinois

	#Iberia
		#ARA	= Aragon					Y
		#BLE	= Baleares
		#CAS	= Castille					Y
		#CAT	= Catalunya
		#CNA	= Canarias
		#GAL	= Galicia					Y
		#GRA	= Granada					Y
		#LEO	= Leon
		#NAV	= Navarra					Y
		#POR	= Portugal					Y
		#RCA	= Trastamara
		#SPA	= Spain						Y

	#Low Countries
		#BRB	= Brabant
		#EBU	= EtatsBelgiques
		#FLA	= Flanders					Y
		#FRI	= Friesland
		#GEL	= Gelre
		#HAI	= Hainaut
		#HOL	= Holland					Y
		#LIE	= Liege
		#LUX	= Luxembourg
		#NAM	= Namur
		#NED	= Netherlands				Y
		#UTR	= Utrecht					Y

	#Germany
		#ANH	= Anhalt					G
		#ANS	= Ansbach					G
		#AUG	= Augsburg					G
		#AUH	= BistumAugsburg			G
		#BAD	= Baden						G
		#BAV	= Bavaria					Y
		#BAW	= BayernIngolstadt			Y
		#BAX	= BayernLandshut			Y
		#BAY	= BayernMunchen				Y
		#BAZ	= BayernStraubing			Y
		#BOH	= Bohemia					Y
		#BRA	= Brandenburg				Y
		#BRE	= Verden					G
		#BRU	= Brunswick					G
		#BSI	= Sion						G
		#BSL	= Basel						G
		#ERG	= HolyRomanEmpire
		#FRB	= Bremen					G
		#FRE	= Freiburg					G
		#FRF	= Frankfurt					G
		#FRK	= Koln						G
		#FRL	= Lubeck					G
		#FUR	= Furstemberg				G
		#GBN	= Graubungen				Y
		#GER	= Germany					G
		#GNV	= Geneva					G
		#GOR	= Gorizia					G
		#HOH	= Hohenzollern				G
		#HAB	= Austria					Y
		#HAM	= Hamburg					G
		#HAN	= Hannover					G
		#HES	= Hessen					Y
		#HDA	= Darmstadt					G
		#HKA	= Kassel					G
		#HOY	= Hoya						G
		#HSA	= Hansa						Y
		#HUS	= Hussites
		#JBC	= JulichClevesBerg			G
		#KLE	= Kleves					G
		#KOL	= Cologne					G
		#KUL	= Kulmbach					G
		#LGZ	= Liegnitz					Y
		#LOR	= Lorraine
		#LUN	= Luneburg					G
		#MAG	= Magdeburg					G
		#MAI	= Mainz						G
		#MEI	= Meissen					G
		#MKL	= Mecklenburg				G
		#MTV	= TroisEveches				G
		#MUN	= Munster					G
		#NAS	= Nassau					G
		#NUR	= Nurmberg					G
		#NUS	= NurmbergBurg				G
		#OLD	= Oldenburg					G
		#OPO	= Opole						Y
		#PAL	= Palatinate				Y
		#POM	= Pommerania				Y
		#SAX	= Saxony					Y
		#SIL	= Silesia					Y
		#SLZ	= Salzburg					G
		#STY	= Styria					Y
		#SWA	= Schwaben					G
		#SWI	= Schweiz					Y
		#SWR	= Weimar					G
		#TES	= Tessin					Y
		#THU	= Thuringia					G
		#TIR	= Tirol						Y
		#TRI	= Trier						G
		#ULM	= Ulm						G
		#WBG	= Wurzburg					G
		#WES	= Westfalia					G
		#WRO	= Wroclaw					Y
		#WUR	= Wurttemberg				G


	#Italy
		#ARB	= Arborea					G
		#ANC	= Ancona					G
		#AQU	= Aquileia					G
		#AVI	= Antipope
		#BLG	= Bologna					G
		#BRS	= Brescia					G
		#ETR	= Etruria					G
		#FER	= Ferrara					Y - Serenissima
		#FIR	= Firenze					Y - Serenissima
		#GEN	= Genoa						Y
		#ITA	= Italy						Y
		#ITE	= Cisalpine					Y
		#KNP	= KingdomOfNaples			Y
		#LUC	= Lucca						Y - Serenissima
		#MAN	= Mantua					Y - Serenissima
		#MAS	= Massa						G
		#MFT	= Monferrato				G
		#MLO	= Milan						Y
		#MOD	= Modena					G
		#NAP	= Naples					Y
		#NIC	= Nice						G
		#PAD	= Padoa						G
		#PAP	= Papal						Y
		#PAR	= Parma						G
		#PAV	= Pavia						G
		#PIS	= Pisa						Y - Serenissima
		#RIM	= Rimini					Y - Serenissima
		#SAL	= Saluzzo					G
		#SAR	= Sardinia
		#SAV	= Savoy						Y
		#SIC	= Sicily					Y - Serenissima
		#SIE	= Siena						Y - Serenissima
		#SPI	= SardiniaPiedmont
		#TNT	= Trento					Y - Serenissima
		#TRS	= Treviso
		#TUS	= Tuscany					Y
		#URB	= Urbino					Y - Serenissima
		#VEN	= Venice					Y
		#VER	= Verona					Y

	#Scandinavia
		#DAN	= DenmarkNorway				Y
		#DEN	= Denmark					Y
		#FIN	= Finland					Y
		#GOT	= Gotland
		#ICE	= Iceland
		#KAL	= KalmarDenmark
		#KRL	= Karelia
		#NOR	= Norway					Y
		#NSE	= NorthSeaEmpire
		#OST	= Ostergotland
		#RSW	= ErikMagnusson				Y
		#SHL	= Holstein					G
		#SKA	= Skane
		#SWE	= Sweden					Y
		#VAS	= Vastergotland

	#Baltics
		#DNZ	= Danzig					Y
		#EST	= Estland
		#JGL	= Jagiellon
		#KRA	= Krakow					Y
		#LIT	= Lithuania					Y
		#LIV	= Livland
		#LVO	= Livonianorder				Y
		#MAZ	= Mazovia
		#PIL	= Pilten
		#PLC	= PolLitCom					Y
		#POL	= Poland					Y
		#PRU	= Prussia					Y
		#KUR	= Kurland
		#RIG	= Riga
		#TEU	= Teutonicorder				Y

	#Russia
		#ABK	= Abkhazia
		#ARM	= Armenia					Y
		#AST	= Astrakhan					G
		#BLU	= BlueHorde					G
		#BOZ	= Beloozero
		#BRK	= Briansk
		#CIR	= Cherkessia
		#CRI	= Crimea					G
		#GEO	= Georgia
		#GOL	= GoldenHorde				G
		#GVO	= HalychVolhynia			Y
		#KAK	= Kakheti
		#KAM	= KingdomOfArmenia			Y
		#KAZ	= Kazan
		#KIE	= Kiev						G
		#KRC	= Karachev
		#MOS	= Muscowy					Y
		#MUR	= Murom
		#NOG	= Nogai						G
		#NOV	= Novgorod					Y
		#NZH	= NizhnyNovgorod
		#PLT	= Polotsk
		#PRM	= GreatPerm					Y
		#PSK	= Pskov
		#ROS	= Rostov
		#RUS	= Russia					Y
		#RYA	= Ryazan
		#SIB	= Sibir						G
		#SMO	= Smolensk
		#THD	= Theodoros
		#TVE	= Tver
		#UKR	= Ukraine
		#VLA	= Vladimir
		#WHI	= WhiteHorde				G
		#YAR	= Yaroslavl
		#ZAZ	= Zaporozhie

	#Balkans
		#ACH	= Achaia
		#ALB	= Albania				Y
		#ALC	= AnjouAlbania			Y
		#ATH	= Athens
		#BOS	= Bosnia
		#BUL	= Bulgaria				Y
		#BYZ	= Byzantium				Y
		#CAR	= Karantanija
		#CEP	= Corfu
		#CRO	= Croatia				Y
		#CRT	= Crete
		#CYP	= Cyprus				Y
		#DOB	= Dobrogea				Y
		#EPI	= Epirus
		#GRE	= Greece				Y
		#HUM	= Hum
		#HUN	= Hungary				Y
		#ILL	= Illyria
		#KNI	= Knights				Y
		#LAT 	= Latin_Empire
		#MOE	= Morea
		#MOL	= Moldavia				Y
		#MON	= Montenegro			Y
		#NAX	= Naxos
		#RAG	= Ragusa				Y
		#ROU	= Roumanie				Y
		#SER	= Serbia				Y
		#TAR	= Tarnovo				Y
		#TRA	= Transylvania			Y
		#TUR	= TurkishEmpire			Y
		#TUY	= TurkishRepublic		Y
		#VID	= Vidin					Y
		#WAL	= Wallachia				Y


#Asia
	#Middle-East
		#AHS	= Ahsaa
		#AKK	= AkKoyunlu
		#AYD	= Aydin					G
		#CND	= Candar				G
		#DUL	= Dulkadir				G
		#ERE	= Eretna				G
		#GRN	= Germiyanoglu
		#HAD	= Hadhramaut
		#HEJ	= Hejaz					Y
		#HMD	= Hamidoglu
		#IRQ	= Iraq
		#JAI	= Jalayirid				Y
		#KAR	= Karaman				G
		#KOJ	= KingdomOfJerusalem	Y
		#KRB	= KingdomOfArabia
		#KRD	= Kurdistan
		#MEN	= Mentesoglu
		#NAJ	= Najd					Y
		#OMA	= Oman					Y
		#OTT	= Ottomans
		#RAM	= Ramazan
		#SYR	= Syria
		#TRE	= Trebizond				Y
		#YEM	= Yemen


	#India
		#AHM	= Jaunpur
		#ALR	= Alwar
		#ASS	= Assam					Y
		#BAH	= Bahmani				G
		#BAL	= Baluchistan
		#BAS	= Ahmadnagar
		#BGA	= Baglana
		#BGL	= Bagelkhand
		#BHO	= Bhonsle				Y
		#BHU	= Bhutan
		#BHW	= Bahawalpur
		#BIJ	= Bijapur
		#BIK	= Bikaner
		#BND	= Bundelkhand
		#BNG	= Bengal				G
		#BRR	= Berar
		#BST	= Bastar
		#CHD	= Chanda
		#CMP	= RewaKantha
		#COC	= Kochin
		#DGA	= Deogarh
		#DLH	= Delhi					G
		#DMS	= Kachar
		#GAK	= Gakwar
		#GDW	= Kherla
		#GHR	= Garha
		#GNG	= GingeeNayaka
		#GOC	= Golcanda
		#GRJ	= Garjat
		#GRW	= Garhwal
		#GUJ	= Gujarat
		#GUP	= Gupta
		#GWA	= Gwalior				Y
		#HDT	= Hadoti
		#HYD	= Hyderabad
		#IDR	= Idar
		#JAF	= Jaffna
		#JAJ	= Janjira
		#JAU	= Jaipur
		#JSL	= Jaisalmer				G
		#KAT	= Kathiawar
		#KGR	= Kangra
		#KHD	= Khandesh
		#KLN	= KeladiNayaka
		#KMN	= Kumaon
		#KMT	= Kamata
		#KRK	= Carnatic
		#KSH	= Kashmir
		#KTH	= Ceylon				G
		#LDK	= Ladakh
		#MAD	= Madurai
		#MAR	= Maharasthra			Y
		#MAW	= Marwar				G
		#MEW	= Mewar					G
		#MLB	= Manipur
		#MLD	= Maldive				G
		#MLK	= Kalpi
		#MLW	= Malwa
		#MUG	= Mughal				Y
		#MUL	= Multan
		#MYS	= Mysore
		#NAG	= Nagaur				Y
		#NGP	= Kokrah
		#NPL	= Nepal					Y
		#ODH	= Oudh
		#ORI	= Orissa				Y
		#PTA	= Patiala
		#PUN	= Punjab				Y
		#RED	= Reddi
		#RMP	= Rohilkandh
		#SAM	= Samma
		#SKK	= Sikkim
		#SND	= Sind
		#SRG	= Surguja
		#TLG	= Telingana
		#TNJ	= TanjoreNayaka
		#TPR	= Tripura				G
		#TRT	= Tirhut
		#TRV	= Travanacore			G
		#VIJ	= Vijaynagara			Y
		#ZAM	= Zamorin

	#East-Asia
		#China
			#CCE	= CelestialEmpire	G
			#CHG	= ChagataiKhanate
			#DAA	= Dahan				G
			#DAX	= Daxia				G
			#DAZ	= Dazhou			G
			#DLI	= Dali				G
			#DSH	= Shun				G
			#DXI	= Daxi				G
			#GGK	= GengisKhan		G
			#JIN	= Jin
			#KAS	= Kashgar
			#KHA	= Khalkha
			#LNG	= Liang
			#MCH	= Manchu			Y
			#MIN	= Min				G
			#MNG	= Ming				Y
			#OIR	= OiratHorde
			#QII	= Qi				G
			#QIN	= Qin				G
			#QNG	= Qing				Y
			#SHU	= Shu				G
			#SNG	= Song				G
			#TIA	= Tianwan			G
			#TIB	= Tibet				Y
			#TNG	= Tungning
			#UIG	= Uighurustan
			#WUU	= Wu				G
			#XIA	= Xia				G
			#XNG	= Xiang				G
			#YDU	= Yidu				G
			#YUA	= Yuan
			#YUE	= Yue				G
			#YUU	= lateYue
			#ZHE	= HeZhen			G
			#ZHN	= Zhuang
			#ZOU	= WuZhou			G

		#Japan
			#AKG	= Ashikaga			G
			#AKM	= Akamtsu			G
			#ANG	= Amago				G
			#CSK	= Chosokabe			G
			#DTE	= Date				Y
			#HJO	= Hojo				G
			#HKW	= Hosokawa			Y
			#HKY	= Hatakayama		G
			#IGW	= Imagawa			G
			#ISK	= Ishikki			G
			#JAP	= Japan				Y
			#KTK	= Kitikatabe		G
			#MIY	= Miyoshi			G
			#MRI	= Mori				G
			#NNB	= Nanbu				G
			#ODA	= Oda				G
			#OTM	= Otomo				Y
			#OUC	= Ouchi				Y
			#RYU	= Ryukyu			Y
			#RZJ	= Ryuzoji			G
			#SBA	= Shiba				G
			#SHN	= Shoni				G
			#SMZ	= Shimazu			Y
			#SOO	= So				G
			#STO	= Saito				G
			#TKD	= Takeda			Y
			#TGW	= Tokugawa			G
			#TKI	= Toki				G
			#UKI	= Ukita				G
			#USG	= Uesugi			Y
			#YMN	= Yamana			G

		#Korea
			#KOR	= Korea				Y

	#Central Asia
		#BUK	= Bukhara				G
		#CHU	= Chupanid				G
		#DUR	= Durrani
		#HAZ	= Hazaraspid
		#ILK	= Ilkhanate				G
		#IME	= Imereti
		#KAB	= Kabulistan
		#KHI	= Khiva					G
		#KHO	= Khorasan
		#KKU	= Kara Kum				G
		#KOK	= Kokkand				G
		#KRT	= Kartli
		#KTD	= Kartid
		#KZH	= Kazakh
		#MZA	= Mazandaran
		#MIH	= Mihrabanid
		#MSS	= Mushashah
		#MUZ	= Muzaffarid
		#ORM	= Ormuz
		#PER	= Persia				Y
		#QAR	= QaraKoyunlu
		#SDB	= Sarbadar
		#SHI	= Shirvanshah
		#SHR	= Sharjah
		#SHY	= Shaybanid
		#TIM	= Timurid				Y

	#Indochina
		#ANN	= Annam
		#ARK	= Arakan
		#AVA	= Ava
		#AYU	= Ayutthaya				Y
		#BRM	= Burma
		#CHA	= Champa				G
		#DAI	= DaiViet				Y
		#KHM	= Khmer					Y
		#LNA	= LanNa
		#LUA	= LuangPrabang
		#LXA	= LanXang
		#NST	= Nakhon
		#PEG	= Pegu
		#SIA	= Siam
		#SST	= Shan
		#SUK	= Sukhothai
		#SUV	= Suvarnabhumi
		#TAU	= Taungu				Y
		#TOK	= Tonkin
		#VIE	= Vientiane

	#Indonesia
		#ARU	= Aru					G
		#ATJ	= Atjeh					G
		#BAC	= Bacan
		#BAN	= Banten				G
		#BAT	= Batak
		#BDG	= Bandung
		#BEI	= Brunei				G
		#BIM	= Bima
		#BKS	= Banjarmasin
		#BLI	= Bali					G
		#BNE	= Bone
		#BSM	= Bangkalan
		#CBT	= Cirebon
		#DEM	= Demak					G
		#IND	= Yavapeh
		#JMB	= Jambi					G
		#JOH	= Johor					G
		#KED	= Kedah					G
		#KEL	= Kelantan				G
		#KMA	= Kediri
		#KUT	= Kutai
		#LPG	= Lampung				G
		#LUS	= Lusong
		#MGD	= Maguindanao			G
		#MNH	= Minahasa
		#MKP	= Minangkabau
		#MKS	= Makassar
		#MLC	= Malacca				Y
		#MTR	= Mataram				G
		#MNL	= Maynila				G
		#MPH	= Majapahit				G
		#PAH	= Pahang				G
		#PAJ	= Pajang
		#PAT	= Pattani				G
		#PJJ	= Pajajaran				G
		#PLB	= Palembang				G
		#PRK	= Perak					G
		#PTN	= Pontianak
		#RAU	= Riau
		#SBT	= Surabaya				G
		#SIJ	= Siak					G
		#SKD	= Sukadana
		#SLB	= Selebar
		#SRK	= Surakarta
		#SRV	= Srivijaya				G
		#SUL	= Sulu					G
		#SUN	= Sunda					G
		#TER	= Ternate
		#TID	= Tidore
		#TRG	= Terengganu			G


#New World
	#Colonial Nations
		#BOL	= Bolivia				G
		#BRZ	= Brazil				Y
		#CAN	= Canada				G
		#CHL	= Chile                 G
		#COL	= Colombia              G
		#ECU	= Ecuador               G
		#HAT	= Haiti                 G
		#LAP	= LaPlata               G
		#LOU	= Louisiana             G
		#MEX	= Mexico                G
		#PEU	= Peru                  G
		#PRG	= Paraguay              G
		#QUE	= Quebec                G
		#TEX	= Texas                 G
		#CAM	= UPCA                  G
		#URU	= Uruguay               G
		#USA	= USA					Y
		#VNZ	= Venezuela				G

	#Special
		#HAW	= PaganHawai
		#TXX 	= Tahiti

	#Mesoamerica
		#ACO	= Acolhua				G
		#AZT	= Aztec					Y
		#CBS	= Chibchas				G
		#CHI	= Chichimecs			G
		#KKM	= Mayapan				G
		#MAY	= Maya					Y
		#MIX	= Mixtec				G
		#NAH	= Nahuas				G
		#OTO	= Otomis				G
		#PIP	= Pipil					G
		#PUR	= Purepecha				G
		#QUM	= Qumarkaj				G
		#TEN	= Tenochtitlan			G
		#TEO	= Teotitlan				G
		#TEP	= Tepanec				G
		#TXL	= Tlaxcala				G
		#TOT	= Totonacapan			G
		#XAL	= Xalisco				G
		#ZAP	= Zapotec				G

	#Andes
		#AYA	= Ayamarca				G
		#AYM	= Aymara				G
		#CBC	= Chibchaya				G
		#CHC	= Chancay				G
		#CHM	= Chimu					G
		#CZC	= Cuzco					G
		#HUA	= Huanca				G
		#INC	= Inca					Y
		#MAP	= Mapuche				G
		#NZC	= Nazca					G
		#QUI	= Quito					G

#Africa
	#North Africa
		#ALG	= Algiers			G
		#EGY	= Egypt
		#FEZ	= Fez				G
		#HAF	= Hafsid			G
		#KEG	= KingdomOfEgypt
		#MAM	= Mameluks			Y
		#MOR	= Morocco			G
		#TLE	= Tlemcen
		#TOG	= Toggourt
		#TRP	= Tripoli
		#TUA	= Tuareg
		#TUN	= Tunisia			G


		#ADA	= Adal
		#AFA	= AfarSultanate
		#ALM	= Almohad
		#ALW	= Alwa
		#DAM	= Damot
		#DAR	= Darfur
		#ETH	= Ethiopia			Y
		#MKU	= Makuria
		#MOG	= Mogadishio
		#SEM	= Semien			Y
		#SEN	= Sennar
		#SID	= Sidama
		#KIL	= Kilwa
		#KIT	= Kitara
		#QLM	= Quelimane
		#SOF	= Sofala
		#ZAN	= Zanzibar
		#ZIM	= Mutapa
		#KON	= Kongo				Y
		#LOA	= Loango			Y
		#NDO	= Ndongo			Y
		#YAO	= Yaosultanate
		#BAG	= Baguirmi
		#KBO	= KanemBornu
		#WAD	= Wadai
		#ASH	= Ashanti
		#BOR	= Borgu
		#CAY	= Cayor
		#DJO	= Djolof
		#FLO	= Fulo
		#GUR	= Gurma
		#KAA	= Kaabu
		#KBI	= Kabi
		#MAL	= Mali
		#MNE	= Mane
		#MSI	= Mossi
		#MSN	= Masina
		#SEG	= Segu
		#SOK	= Sokoto
		#SON	= Songhai			Y
		#UAG	= Wagadugu
		#HAU	= Hausa
		#KNO	= Kano
		#KTS	= Katsina
		#ZZZ	= Zazzau
		#BEN	= Benin				Y
		#CLB	= Calabar
		#DAH	= Dahomey
		#IFE	= IfeIle
		#IGB	= Igbo
		#JUK	= Jukun
		#NRI	= Nrikingdom
		#NUP	= Nupe
		#OYO	= Oyo				Y
		#ANT	= Antankarana
		#MER	= Merina
		#MNB	= Menabe
		#TAM	= Tamatave

#Oceania

