# Polotsk
# PLT

graphical_culture = easterngfx

color = { 131  101  85 }

historical_idea_groups = {
	trade_ideas
	plutocracy_ideas
	economic_ideas
	administrative_ideas
	naval_ideas
	spy_ideas
	logistic_ideas
	expansion_ideas
}

historical_units = { #Polish group
	eastern_hospite_infantry
	eastern_druzhina_cavalry
	eastern_bandiera_infantry
	eastern_balkan_feudal_cavalry
	eastern_hand_gunner
	eastern_hussar_horse_archer_cavalry
	eastern_draby_infantry
	eastern_medium_hussar_cavalry
	eastern_marauder_infantry
	eastern_light_cossack_cavalry
	eastern_slavic_western_infantry
	eastern_heavy_hussar
	eastern_regular_infantry
	eastern_carabinier_cavalry
	eastern_bayonet_infantry
	eastern_uhlan_cavalry
	eastern_drill_infantry
	eastern_columnar_infantry
	eastern_lancer_cavalry
	eastern_breech_infantry

}

monarch_names = {
	"Andrei #1" = 20
	"Lubko #1" = 20
	"Olgierd #1" = 20
	"Bryachislav #2" = 15
	"Vasiliy #2" = 15
	"Svyatoslav #1" = 15
	"Vladimir #1" = 15
	"Izyaslav #2" = 10
	"Vseslav #2" = 10
	"Boris #1" = 10
	"Aleksandr #0" = 1
	"Adrian #0" = 1
	"Afanasiy #0" = 1
	"Daniil #0" = 1
	"Dmitriy #0" = 1
	"Dorofey #0" = 1
	"Faddey #0" = 1
	"Feodosiy #0" = 1
	"Feofil #0" = 1
	"Foma #0" = 1
	"Fyodor #0" = 1
	"Gavriil #0" = 1
	"Grigoriy #0" = 1
	"Igor #0" = 1
	"Ivan #0" = 1
	"Mefodiy #0" = 1
	"Mikhail #0" = 1
	"Naum #0" = 1
	"Nikita #0" = 1
	"Nikolai #0" = 1
	"Pankrati #0" = 1
	"Prokhor #0" = 1
	"Pyotr #0" = 1
	"Radoslav #0" = 1
	"Ruslan #0" = 1
	"Semen #0" = 1
	"Serafim #0" = 1
	"Sevastian #0" = 1
	"Stanislav #0" = 1
	"Timofeiy #0" = 1
	"Varfolomeiy #0" = 1
	"Vikentiy #0" = 1
	"Yaroslav #0" = 1

	"Martha #0" = -1
	"Sofia #0" = -1
	"Maria #0" = -1
	"Anastasia #0" = -1
	"Elena #0" = -1
	"Anna #0" = -1
	"Irina #0" = -1
	"Evdokia #0" = -1
	"Natalia #0" = -1
	"Praskovya #0" = -1
	"Alexandra #0" = -1
	"Olga #0" = -1
	"Lydia #0" = -1
#	"Lyudmila #0" = -1
	"Daria #0" = -1
	"Zinaida #0" = -1
	"Agrippina #0" = -1
	"Varvara #0" = -1
	"Svetlana #0" = -1
	"Agatha #0" = -1
}

leader_names = { 
	Vitebsky Izyaslavsky Dursky Galisky Borovsky Vereisky Volotsky Galitsky
	Mozhaisky Uglisky Shemyakin Satin Aladyin Beznosov Bokeev Burukhin Vnukov Korobyin
	Zabolotsky Dalmatov Kisleevsky Travin Tsyplyatev Shukalovsky
}

ship_names = {
	Velikaya Chudskoye Pskovskoye Polotsk
	Rakovor Bolotovo Kulikovo Ostrov Izborsk
	Pechory Porhov "Velikiye Luki" Sebezh
}
