######################################
#
#	Auto Build Buildings
#
######################################

# Normal: 5 / 12 / 19 / 27 / 35 / 42
# For Naval: 5 / 18 / 28 / 45 / 60 / 73
# For Forts: 1 / 14 / 23 / 29 / 36 / 44

# Revmoved pending correction of the buildings
