namespace = DO_westernization

#### Reminding myself to add Chinese and indonesian tech groups ####

country_event = { ### Eastern Enlightenment
	id = DO_westernization.001
	title = DO_westernization.001.t
	desc = DO_westernization.001.d
	picture = RUSSIANSREN_eventPicture
	hidden = yes

	trigger = {	
		technology_group = eastern 
		OR = { 
			has_country_modifier = fair_development
			has_country_modifier = high_development
			has_country_modifier = advanced_development
			has_country_modifier = very_advanced_development
		}
	}
	
	mean_time_to_happen = {    
		days = 73000
	
		modifier = {
			factor = 0.8
			has_country_modifier = high_development 
		}
		modifier = {
			factor = 0.6
			has_country_modifier = advanced_development 
		}
		modifier = {
			factor = 0.4
			has_country_modifier = very_advanced_development 
		}
		modifier = {
			factor = 0.8
			has_country_modifier = regional_capital
		}
		modifier = {
			factor = 0.7
			has_country_modifier = imperial_capital
		}
		modifier = {
			factor = 0.6
			has_country_modifier = continental_capital
		}
		modifier = {
			factor = 0.5
			has_country_modifier = world_capital
		}
		modifier = {
			factor = 0.95
			full_idea_group = culture_ideas
		}
		modifier = {
			factor = 0.95
			full_idea_group = democracy_ideas
		}
		modifier = {
			factor = 0.95
			full_idea_group = economic_ideas
		}	
		modifier = {
			factor = 0.95
			full_idea_group = engineering_ideas
		}
		modifier = {
			factor = 0.95
			full_idea_group = humanist_ideas
		}
		modifier = {
			factor = 0.95
			full_idea_group = innovativeness_ideas
		}
		modifier = {
			factor = 0.95
			full_idea_group = scholasticism_ideas
		}
		modifier = {
			factor = 0.95
			NOT = { piety = -0.25 }
		}
		modifier = {
			factor = 0.95
			NOT = { piety = -0.5 }
		}
		modifier = {
			factor = 0.9
			NOT = { piety = -0.75 }
		}
		modifier = {
			factor = 0.9
			NOT = { piety = -0.95 }
		}
		modifier = {
			factor = 0.95
			check_variable = { which = university_score value = 5 }
		}
		modifier = {
			factor = 0.95
			check_variable = { which = university_score value = 10 }
		}
		modifier = {
			factor = 0.95
			check_variable = { which = university_score value = 15 }
		}
		modifier = {
			factor = 0.95
			check_variable = { which = university_score value = 20 }
		}
		modifier = {
			factor = 0.95
			check_variable = { which = university_score value = 25 }
		}
		modifier = {
			factor = 0.95
			check_variable = { which = university_score value = 30 }
		}
		modifier = {
			factor = 0.95
			check_variable = { which = university_score value = 35 }
		}
		modifier = {
			factor = 0.95
			check_variable = { which = university_score value = 40 }
		}
		modifier = {
			factor = 0.95
			check_variable = { which = university_score value = 45 }
		}
		modifier = {
			factor = 0.95
			check_variable = { which = university_score value = 50 }
		}
		modifier = {
			factor = 0.95
			check_variable = { which = university_score value = 55 }
		}
		modifier = {
			factor = 0.95
			check_variable = { which = university_score value = 60 }
		}
		modifier = {
			factor = 0.95
			check_variable = { which = university_score value = 65 }
		}
		modifier = {
			factor = 0.95
			check_variable = { which = university_score value = 70 }
		}
		modifier = {
			factor = 0.95
			check_variable = { which = university_score value = 75 }
		}
		modifier = {
			factor = 0.95
			check_variable = { which = university_score value = 80 }
		}
		modifier = {
			factor = 0.95
			check_variable = { which = university_score value = 85 }
		}
		modifier = {
			factor = 0.95
			check_variable = { which = university_score value = 90 }
		}
		modifier = {
			factor = 0.95
			check_variable = { which = university_score value = 95 }
		}
		modifier = {
			factor = 0.95
			check_variable = { which = university_score value = 100 }
		}
		modifier = {
			factor = 0.95
			has_country_modifier = uncommon_building_opportunities
		}
		modifier = {
			factor = 0.9
			has_country_modifier = infrequent_building_opportunities
		}
		modifier = {
			factor = 0.85
			has_country_modifier = rare_building_opportunities
		}
		modifier = {
			factor = 0.8
			has_country_modifier = miniscule_building_opportunities
		}
		modifier = {
			factor = 0.75
			has_country_modifier = non_existent_building_opportunities
		}
		modifier = {
			factor = 0.9
			advisor = philosopher
		}
		modifier = {
			factor = 0.9
			advisor = natural_scientist
		}
		modifier = {
			factor = 0.9
			advisor = statesman
		}
		modifier = {
			factor = 0.9
			advisor = artist
		}
		modifier = {
			factor = 0.9
			advisor = architect
		}
		modifier = {
			factor = 0.9
			advisor = astronomist
		}
		modifier = {
			factor = 0.9
			advisor = naval_reformer
		}
		modifier = {
			factor = 0.9
			advisor = army_reformer
		}
		modifier = {
			factor = 0.7
			has_active_policy = promote_renaissance
		}
		modifier = {
			factor = 0.95
			has_country_modifier = centralization1
		}
		modifier = {
			factor = 0.90
			has_country_modifier = centralization2
		}
		modifier = {
			factor = 0.85
			has_country_modifier = centralization3
		}
		modifier = {
			factor = 0.80
			has_country_modifier = centralization4
		}
		modifier = {
			factor = 0.75
			has_country_modifier = centralization5
		}
		modifier = {
			factor = 1.05
			has_country_modifier = decentralization1
		}
		modifier = {
			factor = 1.1
			has_country_modifier = decentralization2
		}
		modifier = {
			factor = 1.15
			has_country_modifier = decentralization3
		}
		modifier = {
			factor = 1.20
			has_country_modifier = decentralization4
		}
		modifier = {
			factor = 1.25
			has_country_modifier = decentralization5
		}
		modifier = { 
			factor = 1.25
			NOT = { num_of_cities = 5 }
		}
		modifier = { 
			factor = 1.25
			NOT = { num_of_cities = 10 }
		}
		modifier = { 
			factor = 1.25
			NOT = { num_of_cities = 15 }
		}
	}
	
	option = {
		name = DO_westernization.001.a
		
		if = {
			limit = {
				NOT = { 
					has_country_modifier  = westernizing1
					has_country_modifier = westernizing2
					has_country_modifier = westernizing3
					has_country_modifier = westernizing4
				}
			}
			country_event = {
				id = DO_westernization.002
			}
		}
		if = {
			limit = {
				has_country_modifier = westernizing1
			}
			country_event = {
				id = DO_westernization.003
			}
		}
		if = {
			limit = {
				has_country_modifier = westernizing2
			}
			country_event = {
				id = DO_westernization.004
			}
		}
		if = {
			limit = {
				has_country_modifier = westernizing3
			}
			country_event = {
				id = DO_westernization.005
			}
		}
	}
}
		
country_event = { ### Eastern Enlightenment Phase 1
	id = DO_westernization.002
	title = DO_westernization.002.t
	desc = DO_westernization.002.d
	picture = RUSSIANSREN_eventPicture
	hidden = no

	is_triggered_only = yes 
	
	option = {
		name = DO_westernization.002.a
	
		add_country_modifier = {
			name = westernizing1
			duration = -1
		}
	}	
	option = {
		name = DO_westernization.002.b
	
		add_country_modifier = {
			name = westernizing1
			duration = -1
		}
		country_event = {
			id = DO_westernization.0029
		}
	}
}

country_event = { ### Eastern Enlightenment Phase 2
	id = DO_westernization.003
	title = DO_westernization.003.t
	desc = DO_westernization.003.d
	picture = RUSSIANSREN_eventPicture
	hidden = no

	is_triggered_only = yes 
	
	option = {
		name = DO_westernization.003.a
	
		add_country_modifier = {
			name = westernizing2
			duration = -1
		}
		remove_country_modifier = westernizing1
	}	
	option = {
		name = DO_westernization.003.b
	
		add_country_modifier = {
			name = westernizing2
			duration = -1
		}
		remove_country_modifier = westernizing1
		country_event = {
			id = DO_westernization.0029
		}
	}
}

country_event = { ### Eastern Enlightenment Phase 3
	id = DO_westernization.004
	title = DO_westernization.004.t
	desc = DO_westernization.004.d
	picture = RUSSIANSREN_eventPicture
	hidden = no

	is_triggered_only = yes 
	
	option = {
		name = DO_westernization.004.a
	
		add_country_modifier = {
			name = westernizing3
			duration = -1
		}
		remove_country_modifier = westernizing2
	}	
	option = {
		name = DO_westernization.004.b
	
		add_country_modifier = {
			name = westernizing3
			duration = -1
		}
		remove_country_modifier = westernizing2
		country_event = {
			id = DO_westernization.0029
		}
	}
}

country_event = { ### Eastern Enlightenment Phase 4
	id = DO_westernization.005
	title = DO_westernization.005.t
	desc = DO_westernization.005.d
	picture = RUSSIANSREN_eventPicture
	hidden = no

	is_triggered_only = yes 
	
	option = {
		name = DO_westernization.005.a
	
		remove_country_modifier = westernizing3
		change_technology_group = western
	}	
}


##########################################


country_event = { ### Turkish Enlightenment
	id = DO_westernization.006
	title = DO_westernization.006.t
	desc = DO_westernization.006.d
	picture = TURKSREN_eventPicture
	hidden = no

	trigger = {	
		technology_group = turkishtech 
		OR = { 
			has_country_modifier = fair_development
			has_country_modifier = high_development
			has_country_modifier = advanced_development
			has_country_modifier = very_advanced_development
		}
	}
	
	mean_time_to_happen = {    
		days = 73000
	
		modifier = {
			factor = 0.8
			has_country_modifier = high_development 
		}
		modifier = {
			factor = 0.6
			has_country_modifier = advanced_development 
		}
		modifier = {
			factor = 0.4
			has_country_modifier = very_advanced_development 
		}
		modifier = {
			factor = 0.8
			has_country_modifier = regional_capital
		}
		modifier = {
			factor = 0.7
			has_country_modifier = imperial_capital
		}
		modifier = {
			factor = 0.6
			has_country_modifier = continental_capital
		}
		modifier = {
			factor = 0.5
			has_country_modifier = world_capital
		}
		modifier = {
			factor = 0.95
			full_idea_group = culture_ideas
		}
		modifier = {
			factor = 0.95
			full_idea_group = democracy_ideas
		}
		modifier = {
			factor = 0.95
			full_idea_group = economic_ideas
		}	
		modifier = {
			factor = 0.95
			full_idea_group = engineering_ideas
		}
		modifier = {
			factor = 0.95
			full_idea_group = humanist_ideas
		}
		modifier = {
			factor = 0.95
			full_idea_group = innovativeness_ideas
		}
		modifier = {
			factor = 0.95
			full_idea_group = scholasticism_ideas
		}
		modifier = {
			factor = 0.95
			piety = -0.25
		}
		modifier = {
			factor = 0.95
			piety = -0.5
		}
		modifier = {
			factor = 0.9
			piety = -0.75
		}
		modifier = {
			factor = 0.9
			piety = -1.0
		}
		modifier = {
			factor = 0.95
			check_variable = { which = university_score value = 5 }
		}
		modifier = {
			factor = 0.95
			check_variable = { which = university_score value = 10 }
		}
		modifier = {
			factor = 0.95
			check_variable = { which = university_score value = 15 }
		}
		modifier = {
			factor = 0.95
			check_variable = { which = university_score value = 20 }
		}
		modifier = {
			factor = 0.95
			check_variable = { which = university_score value = 25 }
		}
		modifier = {
			factor = 0.95
			check_variable = { which = university_score value = 30 }
		}
		modifier = {
			factor = 0.95
			check_variable = { which = university_score value = 35 }
		}
		modifier = {
			factor = 0.95
			check_variable = { which = university_score value = 40 }
		}
		modifier = {
			factor = 0.95
			check_variable = { which = university_score value = 45 }
		}
		modifier = {
			factor = 0.95
			check_variable = { which = university_score value = 50 }
		}
		modifier = {
			factor = 0.95
			check_variable = { which = university_score value = 55 }
		}
		modifier = {
			factor = 0.95
			check_variable = { which = university_score value = 60 }
		}
		modifier = {
			factor = 0.95
			check_variable = { which = university_score value = 65 }
		}
		modifier = {
			factor = 0.95
			check_variable = { which = university_score value = 70 }
		}
		modifier = {
			factor = 0.95
			check_variable = { which = university_score value = 75 }
		}
		modifier = {
			factor = 0.95
			check_variable = { which = university_score value = 80 }
		}
		modifier = {
			factor = 0.95
			check_variable = { which = university_score value = 85 }
		}
		modifier = {
			factor = 0.95
			check_variable = { which = university_score value = 90 }
		}
		modifier = {
			factor = 0.95
			check_variable = { which = university_score value = 95 }
		}
		modifier = {
			factor = 0.95
			check_variable = { which = university_score value = 100 }
		}
		modifier = {
			factor = 0.95
			has_country_modifier = uncommon_building_opportunities
		}
		modifier = {
			factor = 0.9
			has_country_modifier = infrequent_building_opportunities
		}
		modifier = {
			factor = 0.85
			has_country_modifier = rare_building_opportunities
		}
		modifier = {
			factor = 0.8
			has_country_modifier = miniscule_building_opportunities
		}
		modifier = {
			factor = 0.75
			has_country_modifier = non_existent_building_opportunities
		}
		modifier = {
			factor = 0.9
			advisor = philosopher
		}
		modifier = {
			factor = 0.9
			advisor = natural_scientist
		}
		modifier = {
			factor = 0.9
			advisor = statesman
		}
		modifier = {
			factor = 0.9
			advisor = artist
		}
		modifier = {
			factor = 0.9
			advisor = architect
		}
		modifier = {
			factor = 0.9
			advisor = astronomist
		}
		modifier = {
			factor = 0.9
			advisor = naval_reformer
		}
		modifier = {
			factor = 0.9
			advisor = army_reformer
		}
		modifier = {
			factor = 0.7
			has_active_policy = promote_renaissance
		}
		modifier = {
			factor = 0.95
			has_country_modifier = centralization1
		}
		modifier = {
			factor = 0.90
			has_country_modifier = centralization2
		}
		modifier = {
			factor = 0.85
			has_country_modifier = centralization3
		}
		modifier = {
			factor = 0.80
			has_country_modifier = centralization4
		}
		modifier = {
			factor = 0.75
			has_country_modifier = centralization5
		}
		modifier = {
			factor = 1.05
			has_country_modifier = decentralization1
		}
		modifier = {
			factor = 1.1
			has_country_modifier = decentralization2
		}
		modifier = {
			factor = 1.15
			has_country_modifier = decentralization3
		}
		modifier = {
			factor = 1.20
			has_country_modifier = decentralization4
		}
		modifier = {
			factor = 1.25
			has_country_modifier = decentralization5
		}
		modifier = { 
			factor = 1.25
			NOT = { num_of_cities = 5 }
		}
		modifier = { 
			factor = 1.25
			NOT = { num_of_cities = 10 }
		}
		modifier = { 
			factor = 1.25
			NOT = { num_of_cities = 15 }
		}
	}
	
	option = {
		name = DO_westernization.006.a
		
		if = {
			limit = {
				NOT = { 
					has_country_modifier = westernizing1
					has_country_modifier = westernizing2
					has_country_modifier = westernizing3
					has_country_modifier = westernizing4
					has_country_modifier = westernizing5
					has_country_modifier = westernizing6
				}
			}
			country_event = {
				id = DO_westernization.007
			}
		}
		if = {
			limit = {
				has_country_modifier = westernizing1
			}
			country_event = {
				id = DO_westernization.008
			}
		}
		if = {
			limit = {
				has_country_modifier = westernizing2
			}
			country_event = {
				id = DO_westernization.009
			}
		}
		if = {
			limit = {
				has_country_modifier = westernizing3
			}
			country_event = {
				id = DO_westernization.0010
			}
		}
		if = {
			limit = {
				has_country_modifier = westernizing4
			}
			country_event = {
				id = DO_westernization.0011
			}
		}
		if = {
			limit = {
				has_country_modifier = westernizing5
			}
			country_event = {
				id = DO_westernization.0012
			}
		}
	}
}

country_event = { ### Turkish Enlightenment Phase 1
	id = DO_westernization.007
	title = DO_westernization.007.t
	desc = DO_westernization.007.d
	picture = TURKSREN_eventPicture
	hidden = no

	is_triggered_only = yes 
	
	option = {
		name = DO_westernization.007.a
	
		add_country_modifier = {
			name = westernizing1
			duration = -1
		}
	}	
	option = {
		name = DO_westernization.007.b
	
		add_country_modifier = {
			name = westernizing1
			duration = -1
		}
		country_event = {
			id = DO_westernization.0029
		}
	}
}

country_event = { ### Turkish Enlightenment Phase 2
	id = DO_westernization.008
	title = DO_westernization.008.t
	desc = DO_westernization.008.d
	picture = TURKSREN_eventPicture
	hidden = no

	is_triggered_only = yes 
	
	option = {
		name = DO_westernization.008.a
	
		add_country_modifier = {
			name = westernizing2
			duration = -1
		}
		remove_country_modifier = westernizing1
	}	
	option = {
		name = DO_westernization.008.b
	
		add_country_modifier = {
			name = westernizing2
			duration = -1
		}
		remove_country_modifier = westernizing1
		country_event = {
			id = DO_westernization.0029
		}
	}
}

country_event = { ### Turkish Enlightenment Phase 3
	id = DO_westernization.009
	title = DO_westernization.009.t
	desc = DO_westernization.009.d
	picture = TURKSREN_eventPicture
	hidden = no

	is_triggered_only = yes 
	
	option = {
		name = DO_westernization.009.a
	
		add_country_modifier = {
			name = westernizing3
			duration = -1
		}
		remove_country_modifier = westernizing2
	}	
	option = {
		name = DO_westernization.009.b
	
		add_country_modifier = {
			name = westernizing3
			duration = -1
		}
		remove_country_modifier = westernizing2
		country_event = {
			id = DO_westernization.0029
		}
	}
}

country_event = { ### Turkish Enlightenment Phase 4
	id = DO_westernization.0010
	title = DO_westernization.0010.t
	desc = DO_westernization.0010.d
	picture = TURKSREN_eventPicture
	hidden = no

	is_triggered_only = yes 
	
	option = {
		name = DO_westernization.0010.a
	
		add_country_modifier = {
			name = westernizing4
			duration = -1
		}
		remove_country_modifier = westernizing3
		
	}	
	option = {
		name = DO_westernization.0010.b
	
		add_country_modifier = {
			name = westernizing4
			duration = -1
		}
		remove_country_modifier = westernizing3
		country_event = {
			id = DO_westernization.0029
		}
	}
}

country_event = { ### Turkish Enlightenment Phase 5
	id = DO_westernization.0011
	title = DO_westernization.0011.t
	desc = DO_westernization.0011.d
	picture = TURKSREN_eventPicture
	hidden = no

	is_triggered_only = yes 
	
	option = {
		name = DO_westernization.0011.a
	
		add_country_modifier = {
			name = westernizing5
			duration = -1
		}
		remove_country_modifier = westernizing4
		
	}	
	option = {
		name = DO_westernization.0011.b
	
		add_country_modifier = {
			name = westernizing5
			duration = -1
		}
		remove_country_modifier = westernizing4
		country_event = {
			id = DO_westernization.0029
		}
	}
}

country_event = { ### Turkish Enlightenment Phase 6
	id = DO_westernization.0012
	title = DO_westernization.0012.t
	desc = DO_westernization.0012.d
	picture = TURKSREN_eventPicture
	hidden = no

	is_triggered_only = yes 
	
	option = {
		name = DO_westernization.0012.a
	
		remove_country_modifier = westernizing5
		change_technology_group = high_turkishtech
	}	
}

##########################################

country_event = { ### Muslim Enlightenment
	id = DO_westernization.0013
	title = DO_westernization.0013.t
	desc = DO_westernization.0013.d
	picture = MUSLIMREN_eventPicture
	hidden = no

	trigger = {	
		technology_group = muslim 
		OR = { 
			has_country_modifier = fair_development
			has_country_modifier = high_development
			has_country_modifier = advanced_development
			has_country_modifier = very_advanced_development
		}
	}
	
	mean_time_to_happen = {    
		days = 73000
	
		modifier = {
			factor = 0.8
			has_country_modifier = high_development 
		}
		modifier = {
			factor = 0.6
			has_country_modifier = advanced_development 
		}
		modifier = {
			factor = 0.4
			has_country_modifier = very_advanced_development 
		}
		modifier = {
			factor = 0.8
			has_country_modifier = regional_capital
		}
		modifier = {
			factor = 0.7
			has_country_modifier = imperial_capital
		}
		modifier = {
			factor = 0.6
			has_country_modifier = continental_capital
		}
		modifier = {
			factor = 0.5
			has_country_modifier = world_capital
		}
		modifier = {
			factor = 0.95
			full_idea_group = culture_ideas
		}
		modifier = {
			factor = 0.95
			full_idea_group = democracy_ideas
		}
		modifier = {
			factor = 0.95
			full_idea_group = economic_ideas
		}	
		modifier = {
			factor = 0.95
			full_idea_group = engineering_ideas
		}
		modifier = {
			factor = 0.95
			full_idea_group = humanist_ideas
		}
		modifier = {
			factor = 0.95
			full_idea_group = innovativeness_ideas
		}
		modifier = {
			factor = 0.95
			full_idea_group = scholasticism_ideas
		}
		modifier = {
			factor = 0.95
			piety = -0.25
		}
		modifier = {
			factor = 0.95
			piety = -0.5
		}
		modifier = {
			factor = 0.9
			piety = -0.75
		}
		modifier = {
			factor = 0.9
			piety = -1.0
		}
		modifier = {
			factor = 0.95
			check_variable = { which = university_score value = 5 }
		}
		modifier = {
			factor = 0.95
			check_variable = { which = university_score value = 10 }
		}
		modifier = {
			factor = 0.95
			check_variable = { which = university_score value = 15 }
		}
		modifier = {
			factor = 0.95
			check_variable = { which = university_score value = 20 }
		}
		modifier = {
			factor = 0.95
			check_variable = { which = university_score value = 25 }
		}
		modifier = {
			factor = 0.95
			check_variable = { which = university_score value = 30 }
		}
		modifier = {
			factor = 0.95
			check_variable = { which = university_score value = 35 }
		}
		modifier = {
			factor = 0.95
			check_variable = { which = university_score value = 40 }
		}
		modifier = {
			factor = 0.95
			check_variable = { which = university_score value = 45 }
		}
		modifier = {
			factor = 0.95
			check_variable = { which = university_score value = 50 }
		}
		modifier = {
			factor = 0.95
			check_variable = { which = university_score value = 55 }
		}
		modifier = {
			factor = 0.95
			check_variable = { which = university_score value = 60 }
		}
		modifier = {
			factor = 0.95
			check_variable = { which = university_score value = 65 }
		}
		modifier = {
			factor = 0.95
			check_variable = { which = university_score value = 70 }
		}
		modifier = {
			factor = 0.95
			check_variable = { which = university_score value = 75 }
		}
		modifier = {
			factor = 0.95
			check_variable = { which = university_score value = 80 }
		}
		modifier = {
			factor = 0.95
			check_variable = { which = university_score value = 85 }
		}
		modifier = {
			factor = 0.95
			check_variable = { which = university_score value = 90 }
		}
		modifier = {
			factor = 0.95
			check_variable = { which = university_score value = 95 }
		}
		modifier = {
			factor = 0.95
			check_variable = { which = university_score value = 100 }
		}
		modifier = {
			factor = 0.95
			has_country_modifier = uncommon_building_opportunities
		}
		modifier = {
			factor = 0.9
			has_country_modifier = infrequent_building_opportunities
		}
		modifier = {
			factor = 0.85
			has_country_modifier = rare_building_opportunities
		}
		modifier = {
			factor = 0.8
			has_country_modifier = miniscule_building_opportunities
		}
		modifier = {
			factor = 0.75
			has_country_modifier = non_existent_building_opportunities
		}
		modifier = {
			factor = 0.9
			advisor = philosopher
		}
		modifier = {
			factor = 0.9
			advisor = natural_scientist
		}
		modifier = {
			factor = 0.9
			advisor = statesman
		}
		modifier = {
			factor = 0.9
			advisor = artist
		}
		modifier = {
			factor = 0.9
			advisor = architect
		}
		modifier = {
			factor = 0.9
			advisor = astronomist
		}
		modifier = {
			factor = 0.9
			advisor = naval_reformer
		}
		modifier = {
			factor = 0.9
			advisor = army_reformer
		}
		modifier = {
			factor = 0.7
			has_active_policy = promote_renaissance
		}
		modifier = {
			factor = 0.95
			has_country_modifier = centralization1
		}
		modifier = {
			factor = 0.90
			has_country_modifier = centralization2
		}
		modifier = {
			factor = 0.85
			has_country_modifier = centralization3
		}
		modifier = {
			factor = 0.80
			has_country_modifier = centralization4
		}
		modifier = {
			factor = 0.75
			has_country_modifier = centralization5
		}
		modifier = {
			factor = 1.05
			has_country_modifier = decentralization1
		}
		modifier = {
			factor = 1.1
			has_country_modifier = decentralization2
		}
		modifier = {
			factor = 1.15
			has_country_modifier = decentralization3
		}
		modifier = {
			factor = 1.20
			has_country_modifier = decentralization4
		}
		modifier = {
			factor = 1.25
			has_country_modifier = decentralization5
		}
		modifier = { 
			factor = 1.25
			NOT = { num_of_cities = 5 }
		}
		modifier = { 
			factor = 1.25
			NOT = { num_of_cities = 10 }
		}
		modifier = { 
			factor = 1.25
			NOT = { num_of_cities = 15 }
		}
	}
	
	option = {
		name = DO_westernization.0013.a
		
		if = {
			limit = {
				NOT = { 
					has_country_modifier  = westernizing1
					has_country_modifier = westernizing2
					has_country_modifier = westernizing3
					has_country_modifier = westernizing4
					has_country_modifier = westernizing5
					has_country_modifier = westernizing6
					has_country_modifier = westernizing7
					has_country_modifier = westernizing8
				}
			}
			country_event = {
				id = DO_westernization.0014
			}
		}
		if = {
			limit = {
				has_country_modifier = westernizing1
			}
			country_event = {
				id = DO_westernization.0015
			}
		}
		if = {
			limit = {
				has_country_modifier = westernizing2
			}
			country_event = {
				id = DO_westernization.0016
			}
		}
		if = {
			limit = {
				has_country_modifier = westernizing3
			}
			country_event = {
				id = DO_westernization.0017
			}
		}
		if = {
			limit = {
				has_country_modifier = westernizing4
			}
			country_event = {
				id = DO_westernization.0018
			}
		}
		if = {
			limit = {
				has_country_modifier = westernizing5
			}
			country_event = {
				id = DO_westernization.0019
			}
		}
		if = {
			limit = {
				has_country_modifier = westernizing6
			}
			country_event = {
				id = DO_westernization.0020
			}
		}
		if = {
			limit = {
				has_country_modifier = westernizing7
			}
			country_event = {
				id = DO_westernization.0021
			}
		}
	}	
}
	
country_event = { ### Muslim Enlightenment Phase 1
	id = DO_westernization.0014
	title = DO_westernization.0014.t
	desc = DO_westernization.0014.d
	picture = MUSLIMREN_eventPicture
	hidden = no

	is_triggered_only = yes 
	
	option = {
		name = DO_westernization.0014.a
 
		add_country_modifier = {
			name = westernizing1
			duration = -1
		}
	}	
	option = {
		name = DO_westernization.0014.b
 
		add_country_modifier = {
			name = westernizing1
			duration = -1
		}
		country_event = {
			id = DO_westernization.0029
		}
	}
}

country_event = { ### Muslim Enlightenment Phase 2
	id = DO_westernization.0015
	title = DO_westernization.0015.t
	desc = DO_westernization.0015.d
	picture = MUSLIMREN_eventPicture
	hidden = no

	is_triggered_only = yes 
	
	option = {
		name = DO_westernization.0015.a
	
		add_country_modifier = {
			name = westernizing2
			duration = -1
		}
		remove_country_modifier = westernizing1
	}	
	option = {
		name = DO_westernization.0015.b
	
		add_country_modifier = {
			name = westernizing2
			duration = -1
		}
		remove_country_modifier = westernizing1
		country_event = {
			id = DO_westernization.0029
		}
	}
}

country_event = { ### Muslim Enlightenment Phase 3
	id = DO_westernization.0016
	title = DO_westernization.0016.t
	desc = DO_westernization.0016.d
	picture = MUSLIMREN_eventPicture
	hidden = no

	is_triggered_only = yes 
	
	option = {
		name = DO_westernization.0016.a
	
		add_country_modifier = {
			name = westernizing3
			duration = -1
		}
		remove_country_modifier = westernizing2
	}	
	option = {
		name = DO_westernization.0016.b
	
		add_country_modifier = {
			name = westernizing3
			duration = -1
		}
		remove_country_modifier = westernizing2
		country_event = {
			id = DO_westernization.0029
		}
	}
}

country_event = { ### Muslim Enlightenment Phase 4
	id = DO_westernization.0017
	title = DO_westernization.0017.t
	desc = DO_westernization.0017.d
	picture = MUSLIMREN_eventPicture
	hidden = no

	is_triggered_only = yes 
	
	option = {
		name = DO_westernization.0017.a
	
		add_country_modifier = {
			name = westernizing4
			duration = -1
		}
		remove_country_modifier = westernizing3
	}	
	option = {
		name = DO_westernization.0017.b
	
		add_country_modifier = {
			name = westernizing4
			duration = -1
		}
		remove_country_modifier = westernizing3
		country_event = {
			id = DO_westernization.0029
		}
	}
}

country_event = { ### Muslim Enlightenment Phase 5
	id = DO_westernization.0018
	title = DO_westernization.0018.t
	desc = DO_westernization.0018.d
	picture = MUSLIMREN_eventPicture
	hidden = no

	is_triggered_only = yes 
	
	option = {
		name = DO_westernization.0018.a
	
		add_country_modifier = {
			name = westernizing5
			duration = -1
		}
		remove_country_modifier = westernizing4
		
	}	
	option = {
		name = DO_westernization.0018.b
	
		add_country_modifier = {
			name = westernizing5
			duration = -1
		}
		remove_country_modifier = westernizing4
		country_event = {
			id = DO_westernization.0029
		}
	}
}

country_event = { ### Muslim Enlightenment Phase 6
	id = DO_westernization.0019
	title = DO_westernization.0019.t
	desc = DO_westernization.0019.d
	picture = MUSLIMREN_eventPicture
	hidden = no

	is_triggered_only = yes 
	
	option = {
		name = DO_westernization.0019.a
	
		add_country_modifier = {
			name = westernizing6
			duration = -1
		}
		remove_country_modifier = westernizing5
	}	
	option = {
		name = DO_westernization.0019.b
	
		add_country_modifier = {
			name = westernizing6
			duration = -1
		}
		remove_country_modifier = westernizing5
		country_event = {
			id = DO_westernization.0029
		}
	}
}

country_event = { ### Muslim Enlightenment Phase 7
	id = DO_westernization.0020
	title = DO_westernization.0020.t
	desc = DO_westernization.0020.d
	picture = MUSLIMREN_eventPicture
	hidden = no

	is_triggered_only = yes 
	
	option = {
		name = DO_westernization.0020.a
	
		add_country_modifier = {
			name = westernizing7
			duration = -1
		}
		remove_country_modifier = westernizing6
		
	}	
	option = {
		name = DO_westernization.0020.b
	
		add_country_modifier = {
			name = westernizing7
			duration = -1
		}
		remove_country_modifier = westernizing6
		country_event = {
			id = DO_westernization.0029
		}
	}
}

country_event = { ### Muslim Enlightenment Phase 8
	id = DO_westernization.0021
	title = DO_westernization.0021.t
	desc = DO_westernization.0021.d
	picture = MUSLIMREN_eventPicture
	hidden = no

	is_triggered_only = yes 
	
	option = {
		name = DO_westernization.0021.a
	
		remove_country_modifier = westernizing7
		change_technology_group = western
	}	
}

##########################################


country_event = { ### Indian Enlightenment
	id = DO_westernization.0022
	title = DO_westernization.0022.t
	desc = DO_westernization.0022.d
	picture = INDIANREN_eventPicture
	hidden = no

	trigger = {	
		technology_group = indian
		OR = { 
			has_country_modifier = fair_development
			has_country_modifier = high_development
			has_country_modifier = advanced_development
			has_country_modifier = very_advanced_development
		}
	}
	
	mean_time_to_happen = {    
		days = 146000
	
		modifier = {
			factor = 0.8
			has_country_modifier = high_development 
		}
		modifier = {
			factor = 0.6
			has_country_modifier = advanced_development 
		}
		modifier = {
			factor = 0.4
			has_country_modifier = very_advanced_development 
		}
		modifier = {
			factor = 0.8
			has_country_modifier = regional_capital
		}
		modifier = {
			factor = 0.7
			has_country_modifier = imperial_capital
		}
		modifier = {
			factor = 0.6
			has_country_modifier = continental_capital
		}
		modifier = {
			factor = 0.5
			has_country_modifier = world_capital
		}
		modifier = {
			factor = 0.95
			full_idea_group = culture_ideas
		}
		modifier = {
			factor = 0.95
			full_idea_group = democracy_ideas
		}
		modifier = {
			factor = 0.95
			full_idea_group = economic_ideas
		}	
		modifier = {
			factor = 0.95
			full_idea_group = engineering_ideas
		}
		modifier = {
			factor = 0.95
			full_idea_group = humanist_ideas
		}
		modifier = {
			factor = 0.95
			full_idea_group = innovativeness_ideas
		}
		modifier = {
			factor = 0.95
			full_idea_group = scholasticism_ideas
		}
		modifier = {
			factor = 0.95
			piety = -0.25
		}
		modifier = {
			factor = 0.95
			piety = -0.5
		}
		modifier = {
			factor = 0.9
			piety = -0.75
		}
		modifier = {
			factor = 0.9
			piety = -1.0
		}
		modifier = {
			factor = 0.95
			check_variable = { which = university_score value = 5 }
		}
		modifier = {
			factor = 0.95
			check_variable = { which = university_score value = 10 }
		}
		modifier = {
			factor = 0.95
			check_variable = { which = university_score value = 15 }
		}
		modifier = {
			factor = 0.95
			check_variable = { which = university_score value = 20 }
		}
		modifier = {
			factor = 0.95
			check_variable = { which = university_score value = 25 }
		}
		modifier = {
			factor = 0.95
			check_variable = { which = university_score value = 30 }
		}
		modifier = {
			factor = 0.95
			check_variable = { which = university_score value = 35 }
		}
		modifier = {
			factor = 0.95
			check_variable = { which = university_score value = 40 }
		}
		modifier = {
			factor = 0.95
			check_variable = { which = university_score value = 45 }
		}
		modifier = {
			factor = 0.95
			check_variable = { which = university_score value = 50 }
		}
		modifier = {
			factor = 0.95
			check_variable = { which = university_score value = 55 }
		}
		modifier = {
			factor = 0.95
			check_variable = { which = university_score value = 60 }
		}
		modifier = {
			factor = 0.95
			check_variable = { which = university_score value = 65 }
		}
		modifier = {
			factor = 0.95
			check_variable = { which = university_score value = 70 }
		}
		modifier = {
			factor = 0.95
			check_variable = { which = university_score value = 75 }
		}
		modifier = {
			factor = 0.95
			check_variable = { which = university_score value = 80 }
		}
		modifier = {
			factor = 0.95
			check_variable = { which = university_score value = 85 }
		}
		modifier = {
			factor = 0.95
			check_variable = { which = university_score value = 90 }
		}
		modifier = {
			factor = 0.95
			check_variable = { which = university_score value = 95 }
		}
		modifier = {
			factor = 0.95
			check_variable = { which = university_score value = 100 }
		}
		modifier = {
			factor = 0.95
			has_country_modifier = uncommon_building_opportunities
		}
		modifier = {
			factor = 0.9
			has_country_modifier = infrequent_building_opportunities
		}
		modifier = {
			factor = 0.85
			has_country_modifier = rare_building_opportunities
		}
		modifier = {
			factor = 0.8
			has_country_modifier = miniscule_building_opportunities
		}
		modifier = {
			factor = 0.75
			has_country_modifier = non_existent_building_opportunities
		}
		modifier = {
			factor = 0.9
			advisor = philosopher
		}
		modifier = {
			factor = 0.9
			advisor = natural_scientist
		}
		modifier = {
			factor = 0.9
			advisor = statesman
		}
		modifier = {
			factor = 0.9
			advisor = artist
		}
		modifier = {
			factor = 0.9
			advisor = architect
		}
		modifier = {
			factor = 0.9
			advisor = astronomist
		}
		modifier = {
			factor = 0.9
			advisor = naval_reformer
		}
		modifier = {
			factor = 0.9
			advisor = army_reformer
		}
		modifier = {
			factor = 0.7
			has_active_policy = promote_renaissance
		}
		modifier = {
			factor = 0.95
			has_country_modifier = centralization1
		}
		modifier = {
			factor = 0.90
			has_country_modifier = centralization2
		}
		modifier = {
			factor = 0.85
			has_country_modifier = centralization3
		}
		modifier = {
			factor = 0.80
			has_country_modifier = centralization4
		}
		modifier = {
			factor = 0.75
			has_country_modifier = centralization5
		}
		modifier = {
			factor = 1.05
			has_country_modifier = decentralization1
		}
		modifier = {
			factor = 1.1
			has_country_modifier = decentralization2
		}
		modifier = {
			factor = 1.15
			has_country_modifier = decentralization3
		}
		modifier = {
			factor = 1.20
			has_country_modifier = decentralization4
		}
		modifier = {
			factor = 1.25
			has_country_modifier = decentralization5
		}
		modifier = { 
			factor = 1.25
			NOT = { num_of_cities = 5 }
		}
		modifier = { 
			factor = 1.25
			NOT = { num_of_cities = 10 }
		}
		modifier = { 
			factor = 1.25
			NOT = { num_of_cities = 15 }
		}
	}
	
	option = {
		name = DO_westernization.0022.a
		
		if = {
			limit = {
				NOT = { 
					has_country_modifier = westernizing2
					has_country_modifier = westernizing4
					has_country_modifier = westernizing6
					has_country_modifier = westernizing8
					has_country_modifier = westernizing10
					has_country_modifier = westernizing12
				}
			}
			country_event = {
				id = DO_westernization.0023
			}
		}
		if = {
			limit = {
				has_country_modifier = westernizing2
			}
			country_event = {
				id = DO_westernization.0024
			}
		}
		if = {
			limit = {
				has_country_modifier = westernizing4
			}
			country_event = {
				id = DO_westernization.0025
			}
		}
		if = {
			limit = {
				has_country_modifier = westernizing6
			}
			country_event = {
				id = DO_westernization.0026
			}
		}
		if = {
			limit = {
				has_country_modifier = westernizing8
			}
			country_event = {
				id = DO_westernization.0027
			}
		}
		if = {
			limit = {
				has_country_modifier = westernizing10
			}
			country_event = {
				id = DO_westernization.0028
			}
		}
	}
}
		
country_event = { ### Indian Enlightenment Phase 1
	id = DO_westernization.0023
	title = DO_westernization.0023.t
	desc = DO_westernization.0023.d
	picture = INDIANREN_eventPicture
	hidden = no

	is_triggered_only = yes 
	
	option = {
		name = DO_westernization.0023.a
	
		add_country_modifier = {
			name = westernizing2
			duration = -1
		}
	}	
	option = {
		name = DO_westernization.0023.b
	
		add_country_modifier = {
			name = westernizing2
			duration = -1
		}
		country_event = {
			id = DO_westernization.0029
		}
	}
}

country_event = { ### Indian Enlightenment Phase 2
	id = DO_westernization.0024
	title = DO_westernization.0024.t
	desc = DO_westernization.0024.d
	picture = INDIANREN_eventPicture
	hidden = no

	is_triggered_only = yes 
	
	option = {
		name = DO_westernization.0024.a
	
		add_country_modifier = {
			name = westernizing4
			duration = -1
		}
		remove_country_modifier = westernizing2
	}	
	option = {
		name = DO_westernization.0024.b
	
		add_country_modifier = {
			name = westernizing4
			duration = -1
		}
		remove_country_modifier = westernizing2
		country_event = {
			id = DO_westernization.0029
		}
	}
}

country_event = { ### Indian Enlightenment Phase 3
	id = DO_westernization.0025
	title = DO_westernization.0025.t
	desc = DO_westernization.0025.d
	picture = INDIANREN_eventPicture
	hidden = no

	is_triggered_only = yes 
	
	option = {
		name = DO_westernization.0025.a
	
		add_country_modifier = {
			name = westernizing6
			duration = -1
		}
		remove_country_modifier = westernizing4
	}	
	option = {
		name = DO_westernization.0025.b
	
		add_country_modifier = {
			name = westernizing6
			duration = -1
		}
		remove_country_modifier = westernizing4
		country_event = {
			id = DO_westernization.0029
		}
	}
}

country_event = { ### Indian Enlightenment Phase 4
	id = DO_westernization.0026
	title = DO_westernization.0026.t
	desc = DO_westernization.0026.d
	picture = INDIANREN_eventPicture
	hidden = no

	is_triggered_only = yes 
	
	option = {
		name = DO_westernization.0026.a
	
		add_country_modifier = {
			name = westernizing8
			duration = -1
		}
		remove_country_modifier = westernizing6
		
	}	
	option = {
		name = DO_westernization.0026.b
	
		add_country_modifier = {
			name = westernizing8
			duration = -1
		}
		remove_country_modifier = westernizing6
		country_event = {
			id = DO_westernization.0029
		}
	}
}

country_event = { ### Indian Enlightenment Phase 5
	id = DO_westernization.0027
	title = DO_westernization.0027.t
	desc = DO_westernization.0027.d
	picture = INDIANREN_eventPicture
	hidden = no

	is_triggered_only = yes 
	
	option = {
		name = DO_westernization.0027.a
	
		add_country_modifier = {
			name = westernizing10
			duration = -1
		}
		remove_country_modifier = westernizing8
		
	}	
	option = {
		name = DO_westernization.0027.b
	
		add_country_modifier = {
			name = westernizing10
			duration = -1
		}
		remove_country_modifier = westernizing8
		country_event = {
			id = DO_westernization.0029
		}
	}
}

country_event = { ### Indian Enlightenment Phase 6
	id = DO_westernization.0028
	title = DO_westernization.0028.t
	desc = DO_westernization.0028.d
	picture = INDIANREN_eventPicture
	hidden = no

	is_triggered_only = yes 
	
	option = {
		name = DO_westernization.0028.a
	
		remove_country_modifier = westernizing10
		change_technology_group = western
	}	
}

country_event = { ### New Westernization Tutorial
	id = DO_westernization.0029
	title = DO_westernization.0029.t
	desc = DO_westernization.0029.d
	picture = INDIANREN_eventPicture
	hidden = no

	is_triggered_only = yes 
	
	option = {
		name = DO_westernization.0029.a
		
		country_event = {
				id = DO_westernization.0030
		}
	}	
}

country_event = { ### New Westernization Tutorial
	id = DO_westernization.0030
	title = DO_westernization.0030.t
	desc = DO_westernization.0030.d
	picture = INDIANREN_eventPicture
	hidden = no

	is_triggered_only = yes 
	
	option = {
		name = DO_westernization.0030.a
	
		country_event = {
			id = DO_westernization.0031
		}
	}	
}

country_event = { ### New Westernization Tutorial
	id = DO_westernization.0031
	title = DO_westernization.0031.t
	desc = DO_westernization.0031.d
	picture = INDIANREN_eventPicture
	hidden = no

	is_triggered_only = yes 
	
	option = {
		name = DO_westernization.0031.a
	
		country_event = {
			id = DO_westernization.0032
		}
	}	
}

country_event = { ### New Westernization Tutorial
	id = DO_westernization.0032
	title = DO_westernization.0032.t
	desc = DO_westernization.0032.d
	picture = INDIANREN_eventPicture
	hidden = no

	is_triggered_only = yes 
	
	option = {
		name = DO_westernization.0032.a
	
		
	}	
}