#####################################################
#          Bourguignon - Armagnac Conflict          #
#####################################################


# $MONARCHNAME$ the Mad
country_event = {

	id = bourguignon_armagnac.1
	title = "bourguignon_armagnac.1.n"
	desc = "bourguignon_armagnac.1.t"
	picture = CHARLES_LE_FOL_eventPicture
	
	fire_only_once = yes
	
	trigger = {
		NOT = { has_global_flag = 1530_start_date }
		tag = FRA
		has_global_flag = hundred_year_war
		OR = { has_regency = no has_consort_regency = yes }
		NOT = { has_global_flag = bourguignon_armagnac_conflict }
		OR = {
			AND = {
				exists = BUR
				overlord_of = BUR
			}
			AND = {
				NOT = { exists = BUR }
				owns = 192
			}
		}
		OR = {
			AND = {
				exists = ORL
				overlord_of = ORL
			}
			AND = {
				NOT = { exists = ORL }
				owns = 184
			}
		}
	}
	
	mean_time_to_happen = {
		months = 600
		
		modifier = { 
			is_year = 1375
			factor = 0.85
		}
		modifier = { 
			is_year = 1400
			factor = 0.85
		}
		modifier = { 
			is_year = 1425
			factor = 0.85
		}
		modifier = { 
			exists = BUR
			factor = 0.90
		}
		modifier = { 
			exists = ORL
			factor = 0.90
		}
		modifier = { 
			NOT = { stability = 0 }
			factor = 0.90
		}
		modifier = { 
			NOT = { stability = -1 }
			factor = 0.90
		}
		modifier = { 
			NOT = { stability = -2 }
			factor = 0.90
		}
		modifier = { 
			NOT = { adm = 3 }
			factor = 0.90
		}
		modifier = { 
			NOT = { adm = 4 }
			factor = 0.90
		}
		modifier = { 
			NOT = { adm = 5 }
			factor = 0.90
		}
	}
	
	immediate = {
		add_ruler_modifier = { name = "mental_illness" }
		add_country_modifier = { name = "bout_of_insanity" duration = 90 }
		set_variable = { which = "number_of_episodes" value = 1 }
		set_global_flag = bourguignon_armagnac_conflict
		hidden_effect = {
			if = {
				limit = {
					adm = 5
				}
				change_adm = -3
			}
			if = {
				limit = {
					adm = 4
				}
				change_adm = -2
			}
			if = {
				limit = {
					adm = 3
				}
				change_adm = -1
			}
			if = {
				limit = {
					dip = 5
				}
				change_dip = -3
			}
			if = {
				limit = {
					dip = 4
				}
				change_dip = -2
			}
			if = {
				limit = {
					dip = 3
				}
				change_dip = -1
			}
			if = {
				limit = {
					mil = 5
				}
				change_mil = -3
			}
			if = {
				limit = {
					mil = 4
				}
				change_mil = -2
			}
			if = {
				limit = {
					mil = 3
				}
				change_mil = -1
			}
		}
	}
	
	option = {
		name = "bourguignon_armagnac.1.a"
		ai_chance = { factor = 95 }
		if = {
			limit = {
				NOT = { exists = BUR }
			}
			every_owned_province = {
				limit = {
					is_core = BUR
				}
				cede_province = BUR
			}
			define_ruler = {
				dynasty = "de Valois"
				ADM = 4
				DIP = 4
				MIL = 4
			}
			vassalize = BUR
		}
		BUR = {
			add_ruler_modifier = { name = "regent_of_france" }
			add_opinion = { who = ROOT modifier = "regency_granted" }
		}
		ORL = {
			add_opinion = { who = ROOT modifier = "regency_denied" }
		}
	}
	
	option = {
		name = "bourguignon_armagnac.1.b"
		ai_chance = { factor = 5 }
		if = {
			limit = {
				NOT = { exists = ORL }
			}
			every_owned_province = {
				limit = {
					is_core = ORL
				}
				cede_province = ORL
			}
			define_ruler = {
				dynasty = "de Valois"
				ADM = 4
				DIP = 4
				MIL = 4
			}
			vassalize = ORL
		}
		ORL = {
			add_ruler_modifier = { name = "regent_of_france" }
			add_opinion = { who = ROOT modifier = "regency_granted" }
		}
		BUR = {
			add_opinion = { who = ROOT modifier = "regency_denied" }
		}
	}
}

# New Psychotic Episode
country_event = {

	id = bourguignon_armagnac.2
	title = "bourguignon_armagnac.2.n"
	desc = "bourguignon_armagnac.2.t"
	picture = CHARLES_LE_FOL_eventPicture
	
	trigger = {
		NOT = { has_global_flag = 1530_start_date }
		has_ruler_modifier = "mental_illness"
		NOT = { has_country_modifier = "bout_of_insanity" }
	}
	
	mean_time_to_happen = {
		months = 24
		
		modifier = { 
			check_variable = { which = "number_of_episodes" value = 2 }
			factor = 0.90
		}
		modifier = { 
			check_variable = { which = "number_of_episodes" value = 3 }
			factor = 0.90
		}
		modifier = { 
			check_variable = { which = "number_of_episodes" value = 4 }
			factor = 0.90
		}
		modifier = { 
			check_variable = { which = "number_of_episodes" value = 5 }
			factor = 0.90
		}
		modifier = { 
			check_variable = { which = "number_of_episodes" value = 6 }
			factor = 0.90
		}
		modifier = { 
			check_variable = { which = "number_of_episodes" value = 7 }
			factor = 0.90
		}
		modifier = { 
			check_variable = { which = "number_of_episodes" value = 8 }
			factor = 0.90
		}
		modifier = { 
			check_variable = { which = "number_of_episodes" value = 9 }
			factor = 0.90
		}
		modifier = { 
			check_variable = { which = "number_of_episodes" value = 10 }
			factor = 0.90
		}
	}

	immediate = {
		hidden_effect = {
			change_variable = { which = "number_of_episodes" value = 1 }
		}
	}
	
	option = {
		name = "bourguignon_armagnac.2.a"
		if = {
			limit = {
				check_variable = { which = "number_of_episodes" value = 2 }
				NOT = { check_variable = { which = "number_of_episodes" value = 3 } }
			}
			add_country_modifier = { name = "bout_of_insanity" duration = 120 }
		}
		if = {
			limit = {
				check_variable = { which = "number_of_episodes" value = 3 }
				NOT = { check_variable = { which = "number_of_episodes" value = 4 } }
			}
			add_country_modifier = { name = "bout_of_insanity" duration = 150 }
		}
		if = {
			limit = {
				check_variable = { which = "number_of_episodes" value = 4 }
				NOT = { check_variable = { which = "number_of_episodes" value = 5 } }
			}
			add_country_modifier = { name = "bout_of_insanity" duration = 180 }
		}
		if = {
			limit = {
				check_variable = { which = "number_of_episodes" value = 5 }
				NOT = { check_variable = { which = "number_of_episodes" value = 6 } }
			}
			add_country_modifier = { name = "bout_of_insanity" duration = 210 }
		}
		if = {
			limit = {
				check_variable = { which = "number_of_episodes" value = 6 }
				NOT = { check_variable = { which = "number_of_episodes" value = 7 } }
			}
			add_country_modifier = { name = "bout_of_insanity" duration = 240 }
		}
		if = {
			limit = {
				check_variable = { which = "number_of_episodes" value = 7 }
				NOT = { check_variable = { which = "number_of_episodes" value = 8 } }
			}
			add_country_modifier = { name = "bout_of_insanity" duration = 270 }
		}
		if = {
			limit = {
				check_variable = { which = "number_of_episodes" value = 8 }
				NOT = { check_variable = { which = "number_of_episodes" value = 9 } }
			}
			add_country_modifier = { name = "bout_of_insanity" duration = 300 }
		}
		if = {
			limit = {
				check_variable = { which = "number_of_episodes" value = 9}
				NOT = { check_variable = { which = "number_of_episodes" value = 10 } }
			}
			add_country_modifier = { name = "bout_of_insanity" duration = 330 }
		}
		if = {
			limit = {
				check_variable = { which = "number_of_episodes" value = 10 }
			}
			add_country_modifier = { name = "bout_of_insanity" duration = 360 }
		}
	}
}

### Pending new events regarding the madness of the king

### Pending flavour events regarding the conflict

# Duke of Burgundy siezes the opportunity of regency to take independence
country_event = {

	id = bourguignon_armagnac.2001
	title = "bourguignon_armagnac.2001.n"
	desc = "bourguignon_armagnac.2001.t"
	picture = CHARLES_LE_FOL_eventPicture
	
	trigger = {
		NOT = { has_global_flag = 1530_start_date }
		has_ruler_modifier = "regent_of_france"
		FRA = { has_ruler_modifier = "mental_illness" }
		tag = BUR
	}
	
	mean_time_to_happen = {
		months = 60
		
		modifier = { 
			check_variable = { which = "number_of_episodes" value = 2 }
			factor = 0.90
		}
		modifier = { 
			check_variable = { which = "number_of_episodes" value = 3 }
			factor = 0.90
		}
		modifier = { 
			check_variable = { which = "number_of_episodes" value = 4 }
			factor = 0.90
		}
		modifier = { 
			check_variable = { which = "number_of_episodes" value = 5 }
			factor = 0.90
		}
		modifier = { 
			check_variable = { which = "number_of_episodes" value = 6 }
			factor = 0.90
		}
		modifier = { 
			check_variable = { which = "number_of_episodes" value = 7 }
			factor = 0.90
		}
		modifier = { 
			check_variable = { which = "number_of_episodes" value = 8 }
			factor = 0.90
		}
		modifier = { 
			check_variable = { which = "number_of_episodes" value = 9 }
			factor = 0.90
		}
		modifier = { 
			check_variable = { which = "number_of_episodes" value = 10 }
			factor = 0.90
		}
	}
	
	option = {
		name = "bourguignon_armagnac.2001.a"
		FRA = {
			free_vassal = BUR
			country_event = { id = bourguignon_armagnac.2002 days = 5 }
		}
	}
}

country_event = {

	id = bourguignon_armagnac.2002
	title = "bourguignon_armagnac.2002.n"
	desc = "bourguignon_armagnac.2002.t"
	picture = CHARLES_LE_FOL_eventPicture
	
	is_triggered_only = yes
	
	option = {
		name = "bourguignon_armagnac.2002.a"
		every_province = {
			limit = {
				owned_by = BUR
				superregion = france_superregion
				is_part_of_hre = no
				NOT = { is_core = ROOT }
			}
			add_permanent_claim = ROOT
		}
		every_province = {
			limit = {
				owned_by = BUR
				superregion = france_superregion
				is_part_of_hre = yes
				NOT = { is_core = ROOT }
			}
			add_claim = ROOT
		}
	}
}
