# Interregnum Flavour

country_event = {
	id = flavor_interregnum.1
	title = "flavor_interregnum.1.n"
	desc = "flavor_interregnum.1.t"
	picture = CIVIL_WAR_eventPicture

	major = yes
	
	is_triggered_only = yes

	mean_time_to_happen = {
		days = 1
	}

	immediate = {
				if = {
			limit = {
				stability = 0
				NOT = { stability = 1 }
			}
			subtract_stability_1 = yes
		}
		if = {
			limit = {
				stability = 1
				NOT = { stability = 2 }
			}
			subtract_stability_2 = yes
		}
		if = {
			limit = {
				stability = 2
				NOT = { stability = 3 }
			}
			subtract_stability_3 = yes
		}
		if = {
			limit = {
				stability = 3
			}
			subtract_stability_4 = yes
		}
		random_owned_province = {
			limit = {
				NOT = { has_province_modifier = pretender_organizing }
				culture_group = ROOT
			}
			add_province_modifier = {
				name = "pretender_organizing"
				duration = 1825
			}
			add_unrest = 5
		}
		random_owned_province = {
			limit = {
				NOT = { has_province_modifier = pretender_organizing }
				culture_group = ROOT
			}
			add_province_modifier = {
				name = "pretender_organizing"
				duration = 1825
			}
			add_unrest = 5
		}
		random_owned_province = {
			limit = {
				NOT = { has_province_modifier = pretender_organizing }
				culture_group = ROOT
			}
			add_province_modifier = {
				name = "pretender_organizing"
				duration = 1825
			}
			add_unrest = 5
		}
	}
	
	option = {
		name = "flavor_interregnum.1.a"
	}
}

country_event = {
	id = flavor_interregnum.2
	title = "flavor_interregnum.2.n"
	desc = "flavor_interregnum.2.t"
	picture = MILITARY_CAMP_eventPicture
	
	is_triggered_only = yes
	
	trigger = { 
		num_of_cities = 3 
		government = monarchy
	}
	
	option = {
		name = "flavor_interregnum.2.a"
		random_owned_province = {
			limit = { 
				OR = {
					is_core = ROOT 
					is_capital = yes
				}
			}
			add_province_modifier = {
				name = "pretender_organizing"
				duration = 1825
			}
			add_unrest = 5
		}
	}
}

country_event = {
	id = flavor_interregnum.3
	title = "flavor_interregnum.3.n"
	desc = "flavor_interregnum.3.t"
	picture = CIVIL_WAR_eventPicture

	major = yes
	
	is_triggered_only = yes

	mean_time_to_happen = {
		days = 1
	}

	option = {
		name = "flavor_interregnum.3.a"
		hidden_effect = { add_ruler_modifier = { name = "interregnum_happened" } }
	}
}