
# Religious Turmoil
province_event = {
	id = religious_wars.2036
	title = "EVTNAME2036"
	desc = "EVTDESC2036"
	picture = MILITARY_CAMP_eventPicture
	
	trigger = {
		is_part_of_hre = yes
		religion = protestant
		emperor = { religion = catholic }
		owner = {
			religion = protestant
			is_emperor = no
			NOT = { has_country_flag = rt_tym_dlc }
		}
		NOT = { has_province_flag = religious_turmoil }
	}
	
	mean_time_to_happen = {
		months = 1200
			
		modifier = {
			factor = 0.9
			owner = {
				emperor = {
					NOT = { has_opinion = { who = ROOT value = -50 } }
				}
			}
		}
		modifier = {
			factor = 0.8
			owner = {
				emperor = {
					NOT = { has_opinion = { who = ROOT value = -100 } }
				}
			}
		}
		modifier = {
			factor = 1.1
			owner = {
				emperor = {
					has_opinion = { who = ROOT value = 50 }
				}
			}
		}
		modifier = {
			factor = 1.2
			owner = {
				emperor = {
					has_opinion = { who = ROOT value = 100 }
				}
			}
		}
		modifier = {
			factor = 1.1
			owner = {
				catholic = 2
			}
		}
		modifier = {
			factor = 1.1
			owner = {
				catholic = 4
			}
		}
		modifier = {
			factor = 0.9
			owner = {
				NOT = { catholic = 0 }
			}
		}
		modifier = {
			factor = 0.9
			owner = {
				NOT = { catholic = -2 }
			}
		}
	}
	
	option = {
		name = "EVTOPTA2036" # Proclaim religious independence
		emperor = {
			add_casus_belli = {	
				target = ROOT
				type = cb_insult
				months = 12
			}
			add_opinion = { who = ROOT modifier = opinion_religious_independence }
		}
		owner = {
			set_country_flag = rt_tym_dlc
		}
		set_province_flag = religious_turmoil
	}
	option = {
		name = "EVTOPTB2036" # Our allegiance lies with the Emperor
		change_religion = catholic
		owner = {
			add_prestige = -10
		}
		set_province_flag = religious_turmoil
		owner = {
			set_country_flag = rt_tym_dlc
		}
	}
}
