country_event = {
	id = military_decay.1
	title = "military_decay.1.t"
	desc = "military_decay.1.d"
	picture = PALAIS_MAZARIN_eventPicture

	is_triggered_only = yes
	
	hidden = yes

	option = {
		name = "military_decay.1a" #Continue		
		remove_country_modifier = military_decay_1
		remove_country_modifier = military_decay_2
		remove_country_modifier = military_decay_3
		remove_country_modifier = military_decay_4
		remove_country_modifier = military_decay_5
		if = {
			limit = {
				check_variable = { which = "military_decay_variable" value = 10 }
				NOT = { check_variable = { which = "military_decay_variable" value = 20 } }
			}
			add_country_modifier = {
				name = military_decay_1
				duration = -1
			}
		}
		if = {
			limit = {
				check_variable = { which = "military_decay_variable" value = 20 }
				NOT = { check_variable = { which = "military_decay_variable" value = 30 } }
			}
			add_country_modifier = {
				name = military_decay_2
				duration = -1
			}
		}
		if = {
			limit = {
				check_variable = { which = "military_decay_variable" value = 30 }
				NOT = { check_variable = { which = "military_decay_variable" value = 40 } }
			}
			add_country_modifier = {
				name = military_decay_3
				duration = -1
			}
		}
		if = {
			limit = {
				check_variable = { which = "military_decay_variable" value = 40 }
				NOT = { check_variable = { which = "military_decay_variable" value = 50 } }
			}
			add_country_modifier = {
				name = military_decay_4
				duration = -1
			}
		}
		if = {
			limit = {
				check_variable = { which = "military_decay_variable" value = 50 }
			}
			add_country_modifier = {
				name = military_decay_5
				duration = -1
			}
		}
	}
}

# Construct the Great Wall section
country_event = {
	id = military_decay.20
	title = "military_decay.20.t"
	desc = "military_decay.20.d"
	picture = PALAIS_MAZARIN_eventPicture

	is_triggered_only = yes
	
	option = {
		name = "military_decay.20a" #Ganzhou + Linzhao
		trigger = {
			OR = {
				2162 = { has_province_modifier = great_wall_ruins }
				2257 = { has_province_modifier = great_wall_ruins }
			}
		}
		if = {
			limit = {
				2162 = {
					has_province_modifier = great_wall_ruins 
				}
			}
			2162 = {
				set_province_flag = great_wall_works_flag
			}
			hidden_effect = {
				change_variable = { which = "great_wall_works_number" value = 1 }
			}
		}
		if = {
			limit = {
				2257 = {
					has_province_modifier = great_wall_ruins 
				}
			}
			2257 = {
				set_province_flag = great_wall_works_flag
			}
			hidden_effect = {
				change_variable = { which = "great_wall_works_number" value = 1 }
			}
		}
		if = {
			limit = {
				check_variable = { which = "great_wall_works_number" value = 1 }
				NOT = { check_variable = { which = "great_wall_works_number" value = 2 } }
			}
			add_years_of_income = -1.25
			add_mil_power = -50
			add_adm_power = -50
			add_country_modifier = {
				name = "great_wall_construction"
				duration = 1825
			}
			random_owned_province = {
				limit = {
					has_province_flag = great_wall_works_flag
				}
				add_province_modifier = {
					name = "great_wall_works"
					duration = 1825
				}
				set_province_flag = great_wall_works_modifier_flag
			}
			hidden_effect = {
				set_variable = { which = "great_wall_works_number" value = 0 }
			}
		}
		if = {
			limit = {
				check_variable = { which = "great_wall_works_number" value = 2 }
			}
			add_years_of_income = -1.25
			add_mil_power = -50
			add_adm_power = -50
			add_country_modifier = {
				name = "great_wall_construction"
				duration = 1825
			}
			set_country_flag = great_wall_construction_flag
			random_owned_province = {
				limit = {
					has_province_flag = great_wall_works_flag
				}
				add_province_modifier = {
					name = "great_wall_works"
					duration = 1825
				}
				set_province_flag = great_wall_works_modifier_flag
			}
			hidden_effect = {
				set_variable = { which = "great_wall_works_number" value = 1 }
			}
		}
	}
	option = {
		name = "military_decay.20b" #Ningxia + Yan'an
		trigger = {
			OR = {
				2251 = { has_province_modifier = great_wall_ruins }
				2254 = { has_province_modifier = great_wall_ruins }
			}
		}
		if = {
			limit = {
				2251 = {
					has_province_modifier = great_wall_ruins 
				}
			}
			2251 = {
				set_province_flag = great_wall_works_flag
			}
			hidden_effect = {
				change_variable = { which = "great_wall_works_number" value = 1 }
			}
		}
		if = {
			limit = {
				2254 = {
					has_province_modifier = great_wall_ruins 
				}
			}
			2254 = {
				set_province_flag = great_wall_works_flag
			}
			hidden_effect = {
				change_variable = { which = "great_wall_works_number" value = 1 }
			}
		}
		if = {
			limit = {
				check_variable = { which = "great_wall_works_number" value = 1 }
				NOT = { check_variable = { which = "great_wall_works_number" value = 2 } }
			}
			add_years_of_income = -1.25
			add_mil_power = -50
			add_adm_power = -50
			add_country_modifier = {
				name = "great_wall_construction"
				duration = 1825
			}
			every_owned_province = {
				limit = {
					has_province_flag = great_wall_works_flag
				}
				add_province_modifier = {
					name = "great_wall_works"
					duration = 1825
				}
				set_province_flag = great_wall_works_modifier_flag
			}
			hidden_effect = {
				set_variable = { which = "great_wall_works_number" value = 0 }
			}
		}
		if = {
			limit = {
				check_variable = { which = "great_wall_works_number" value = 2 }
			}
			add_years_of_income = -1.25
			add_mil_power = -50
			add_adm_power = -50
			add_country_modifier = {
				name = "great_wall_construction"
				duration = 1825
			}
			set_country_flag = great_wall_construction_flag
			random_owned_province = {
				limit = {
					has_province_flag = great_wall_works_flag
				}
				add_province_modifier = {
					name = "great_wall_works"
					duration = 1825
				}
				set_province_flag = great_wall_works_modifier_flag
			}
			hidden_effect = {
				set_variable = { which = "great_wall_works_number" value = 1 }
			}
		}
	}
	option = {
		name = "military_decay.20c" #Shanxi
		trigger = {
			OR = {
				2247 = { has_province_modifier = great_wall_ruins }
				2468 = { has_province_modifier = great_wall_ruins }
			}
		}
		if = {
			limit = {
				2247 = {
					has_province_modifier = great_wall_ruins 
				}
			}
			2247 = {
				set_province_flag = great_wall_works_flag
			}
			hidden_effect = {
				change_variable = { which = "great_wall_works_number" value = 1 }
			}
		}
		if = {
			limit = {
				2468 = {
					has_province_modifier = great_wall_ruins 
				}
			}
			2468 = {
				set_province_flag = great_wall_works_flag
			}
			hidden_effect = {
				change_variable = { which = "great_wall_works_number" value = 1 }
			}
		}
		if = {
			limit = {
				check_variable = { which = "great_wall_works_number" value = 1 }
				NOT = { check_variable = { which = "great_wall_works_number" value = 2 } }
			}
			add_years_of_income = -1.25
			add_mil_power = -50
			add_adm_power = -50
			add_country_modifier = {
				name = "great_wall_construction"
				duration = 1825
			}
			every_owned_province = {
				limit = {
					has_province_flag = great_wall_works_flag
				}
				add_province_modifier = {
					name = "great_wall_works"
					duration = 1825
				}
				set_province_flag = great_wall_works_modifier_flag
			}
			hidden_effect = {
				set_variable = { which = "great_wall_works_number" value = 0 }
			}
		}
		if = {
			limit = {
				check_variable = { which = "great_wall_works_number" value = 2 }
			}
			add_years_of_income = -1.25
			add_mil_power = -50
			add_adm_power = -50
			add_country_modifier = {
				name = "great_wall_construction"
				duration = 1825
			}
			set_country_flag = great_wall_construction_flag
			random_owned_province = {
				limit = {
					has_province_flag = great_wall_works_flag
				}
				add_province_modifier = {
					name = "great_wall_works"
					duration = 1825
				}
				set_province_flag = great_wall_works_modifier_flag
			}
			hidden_effect = {
				set_variable = { which = "great_wall_works_number" value = 1 }
			}
		}
	}
	option = {
		name = "military_decay.20d" #Hebei
		trigger = {
			OR = {
				706 = { has_province_modifier = great_wall_ruins }
				708 = { has_province_modifier = great_wall_ruins }
				709 = { has_province_modifier = great_wall_ruins }
			}
		}
		if = {
			limit = {
				706 = {
					has_province_modifier = great_wall_ruins 
				}
			}
			706 = {
				set_province_flag = great_wall_works_flag
			}
			hidden_effect = {
				change_variable = { which = "great_wall_works_number" value = 1 }
			}
		}
		if = {
			limit = {
				708 = {
					has_province_modifier = great_wall_ruins 
				}
			}
			708 = {
				set_province_flag = great_wall_works_flag
			}
			hidden_effect = {
				change_variable = { which = "great_wall_works_number" value = 1 }
			}
		}
		if = {
			limit = {
				709 = {
					has_province_modifier = great_wall_ruins 
				}
			}
			709 = {
				set_province_flag = great_wall_works_flag
			}
			hidden_effect = {
				change_variable = { which = "great_wall_works_number" value = 1 }
			}
		}
		if = {
			limit = {
				check_variable = { which = "great_wall_works_number" value = 1 }
				NOT = { check_variable = { which = "great_wall_works_number" value = 2 } }
			}
			add_years_of_income = -1.25
			add_mil_power = -50
			add_adm_power = -50
			add_country_modifier = {
				name = "great_wall_construction"
				duration = 1825
			}
			every_owned_province = {
				limit = {
					has_province_flag = great_wall_works_flag
				}
				add_province_modifier = {
					name = "great_wall_works"
					duration = 1825
				}
				set_province_flag = great_wall_works_modifier_flag
			}
			hidden_effect = {
				set_variable = { which = "great_wall_works_number" value = 0 }
			}
		}
		if = {
			limit = {
				check_variable = { which = "great_wall_works_number" value = 2 }
				NOT = { check_variable = { which = "great_wall_works_number" value = 3 } }
			}
			add_years_of_income = -1.25
			add_mil_power = -50
			add_adm_power = -50
			add_country_modifier = {
				name = "great_wall_construction"
				duration = 1825
			}
			set_country_flag = great_wall_construction_flag
			random_owned_province = {
				limit = {
					has_province_flag = great_wall_works_flag
				}
				add_province_modifier = {
					name = "great_wall_works"
					duration = 1825
				}
				set_province_flag = great_wall_works_modifier_flag
			}
			hidden_effect = {
				set_variable = { which = "great_wall_works_number" value = 1 }
			}
		}
		if = {
			limit = {
				check_variable = { which = "great_wall_works_number" value = 3 }
			}
			add_years_of_income = -1.25
			add_mil_power = -50
			add_adm_power = -50
			add_country_modifier = {
				name = "great_wall_construction"
				duration = 1825
			}
			set_country_flag = great_wall_construction_flag
			random_owned_province = {
				limit = {
					has_province_flag = great_wall_works_flag
				}
				add_province_modifier = {
					name = "great_wall_works"
					duration = 1825
				}
				set_province_flag = great_wall_works_modifier_flag
			}
			hidden_effect = {
				set_variable = { which = "great_wall_works_number" value = 2 }
			}
		}
	}
}

# Reapir the Great Wall section
country_event = {
	id = military_decay.21
	title = "military_decay.21.t"
	desc = "military_decay.21.d"
	picture = PALAIS_MAZARIN_eventPicture

	is_triggered_only = yes
	
	option = {
		name = "military_decay.21a" #Ganzhou + Linzhao
		trigger = {
			OR = {
				2162 = { has_province_modifier = great_wall_crumbling }
				2257 = { has_province_modifier = great_wall_crumbling }
			}
		}
		if = {
			limit = {
				2162 = {
					has_province_modifier = great_wall_crumbling 
				}
			}
			2162 = {
				set_province_flag = great_wall_works_flag
			}
			hidden_effect = {
				change_variable = { which = "great_wall_works_number" value = 1 }
			}
		}
		if = {
			limit = {
				2257 = {
					has_province_modifier = great_wall_crumbling 
				}
			}
			2257 = {
				set_province_flag = great_wall_works_flag
			}
			hidden_effect = {
				change_variable = { which = "great_wall_works_number" value = 1 }
			}
		}
		if = {
			limit = {
				check_variable = { which = "great_wall_works_number" value = 1 }
				NOT = { check_variable = { which = "great_wall_works_number" value = 2 } }
			}
			add_years_of_income = -0.5
			add_mil_power = -25
			add_adm_power = -25
			add_country_modifier = {
				name = "great_wall_reparations"
				duration = 712
			}
			set_country_flag = great_wall_reparations_flag
			every_owned_province = {
				limit = {
					has_province_flag = great_wall_works_flag
				}
				add_province_modifier = {
					name = "great_wall_works"
					duration = 712
				}
				set_province_flag = great_wall_works_modifier_flag
			}
			hidden_effect = {
				set_variable = { which = "great_wall_works_number" value = 0 }
			}
		}
		if = {
			limit = {
				check_variable = { which = "great_wall_works_number" value = 2 }
			}
			add_years_of_income = -0.5
			add_mil_power = -25
			add_adm_power = -25
			add_country_modifier = {
				name = "great_wall_reparations"
				duration = 712
			}
			set_country_flag = great_wall_reparations_flag
			random_owned_province = {
				limit = {
					has_province_flag = great_wall_works_flag
				}
				add_province_modifier = {
					name = "great_wall_works"
					duration = 712
				}
				set_province_flag = great_wall_works_modifier_flag
			}
			hidden_effect = {
				set_variable = { which = "great_wall_works_number" value = 1 }
			}
		}
	}
	option = {
		name = "military_decay.21b" #Ningxia + Yan'an
		trigger = {
			OR = {
				2251 = { has_province_modifier = great_wall_crumbling }
				2254 = { has_province_modifier = great_wall_crumbling }
			}
		}
		if = {
			limit = {
				2251 = {
					has_province_modifier = great_wall_crumbling 
				}
			}
			2251 = {
				set_province_flag = great_wall_works_flag
			}
			hidden_effect = {
				change_variable = { which = "great_wall_works_number" value = 1 }
			}
		}
		if = {
			limit = {
				2254 = {
					has_province_modifier = great_wall_crumbling 
				}
			}
			2254 = {
				set_province_flag = great_wall_works_flag
			}
			hidden_effect = {
				change_variable = { which = "great_wall_works_number" value = 1 }
			}
		}
		if = {
			limit = {
				check_variable = { which = "great_wall_works_number" value = 1 }
				NOT = { check_variable = { which = "great_wall_works_number" value = 2 } }
			}
			add_years_of_income = -0.5
			add_mil_power = -25
			add_adm_power = -25
			add_country_modifier = {
				name = "great_wall_reparations"
				duration = 712
			}
			every_owned_province = {
				limit = {
					has_province_flag = great_wall_works_flag
				}
				add_province_modifier = {
					name = "great_wall_works"
					duration = 712
				}
				set_province_flag = great_wall_works_modifier_flag
			}
			hidden_effect = {
				set_variable = { which = "great_wall_works_number" value = 0 }
			}
		}
		if = {
			limit = {
				check_variable = { which = "great_wall_works_number" value = 2 }
			}
			add_years_of_income = -0.5
			add_mil_power = -25
			add_adm_power = -25
			add_country_modifier = {
				name = "great_wall_reparations"
				duration = 712
			}
			set_country_flag = great_wall_reparations_flag
			random_owned_province = {
				limit = {
					has_province_flag = great_wall_works_flag
				}
				add_province_modifier = {
					name = "great_wall_works"
					duration = 712
				}
				set_province_flag = great_wall_works_modifier_flag
			}
			hidden_effect = {
				set_variable = { which = "great_wall_works_number" value = 1 }
			}
		}
	}
	option = {
		name = "military_decay.21c" #Shanxi
		trigger = {
			OR = {
				2247 = { has_province_modifier = great_wall_crumbling }
				2468 = { has_province_modifier = great_wall_crumbling }
			}
		}
		if = {
			limit = {
				2247 = {
					has_province_modifier = great_wall_crumbling 
				}
			}
			2247 = {
				set_province_flag = great_wall_works_flag
			}
			hidden_effect = {
				change_variable = { which = "great_wall_works_number" value = 1 }
			}
		}
		if = {
			limit = {
				2468 = {
					has_province_modifier = great_wall_crumbling 
				}
			}
			2468 = {
				set_province_flag = great_wall_works_flag
			}
			hidden_effect = {
				change_variable = { which = "great_wall_works_number" value = 1 }
			}
		}
		if = {
			limit = {
				check_variable = { which = "great_wall_works_number" value = 1 }
				NOT = { check_variable = { which = "great_wall_works_number" value = 2 } }
			}
			add_years_of_income = -0.5
			add_mil_power = -25
			add_adm_power = -25
			add_country_modifier = {
				name = "great_wall_reparations"
				duration = 712
			}
			every_owned_province = {
				limit = {
					has_province_flag = great_wall_works_flag
				}
				add_province_modifier = {
					name = "great_wall_works"
					duration = 712
				}
				set_province_flag = great_wall_works_modifier_flag
			}
			hidden_effect = {
				set_variable = { which = "great_wall_works_number" value = 0 }
			}
		}
		if = {
			limit = {
				check_variable = { which = "great_wall_works_number" value = 2 }
			}
			add_years_of_income = -0.5
			add_mil_power = -25
			add_adm_power = -25
			add_country_modifier = {
				name = "great_wall_reparations"
				duration = 712
			}
			set_country_flag = great_wall_reparations_flag
			random_owned_province = {
				limit = {
					has_province_flag = great_wall_works_flag
				}
				add_province_modifier = {
					name = "great_wall_works"
					duration = 712
				}
				set_province_flag = great_wall_works_modifier_flag
			}
			hidden_effect = {
				set_variable = { which = "great_wall_works_number" value = 1 }
			}
		}
	}
	option = {
		name = "military_decay.21d" #hebei
		trigger = {
			OR = {
				706 = { has_province_modifier = great_wall_crumbling }
				708 = { has_province_modifier = great_wall_crumbling }
				709 = { has_province_modifier = great_wall_crumbling }
			}
		}
		if = {
			limit = {
				706 = {
					has_province_modifier = great_wall_crumbling 
				}
			}
			706 = {
				set_province_flag = great_wall_works_flag
			}
			hidden_effect = {
				change_variable = { which = "great_wall_works_number" value = 1 }
			}
		}
		if = {
			limit = {
				708 = {
					has_province_modifier = great_wall_crumbling 
				}
			}
			708 = {
				set_province_flag = great_wall_works_flag
			}
			hidden_effect = {
				change_variable = { which = "great_wall_works_number" value = 1 }
			}
		}
		if = {
			limit = {
				709 = {
					has_province_modifier = great_wall_crumbling 
				}
			}
			709 = {
				set_province_flag = great_wall_works_flag
			}
			hidden_effect = {
				change_variable = { which = "great_wall_works_number" value = 1 }
			}
		}
		if = {
			limit = {
				check_variable = { which = "great_wall_works_number" value = 1 }
				NOT = { check_variable = { which = "great_wall_works_number" value = 2 } }
			}
			add_years_of_income = -0.5
			add_mil_power = -25
			add_adm_power = -25
			add_country_modifier = {
				name = "great_wall_reparations"
				duration = 712
			}
			every_owned_province = {
				limit = {
					has_province_flag = great_wall_works_flag
				}
				add_province_modifier = {
					name = "great_wall_works"
					duration = 712
				}
				set_province_flag = great_wall_works_modifier_flag
			}
			hidden_effect = {
				set_variable = { which = "great_wall_works_number" value = 0 }
			}
		}
		if = {
			limit = {
				check_variable = { which = "great_wall_works_number" value = 2 }
				NOT = { check_variable = { which = "great_wall_works_number" value = 3 } }
			}
			add_years_of_income = -0.5
			add_mil_power = -25
			add_adm_power = -25
			add_country_modifier = {
				name = "great_wall_reparations"
				duration = 712
			}
			set_country_flag = great_wall_reparations_flag
			random_owned_province = {
				limit = {
					has_province_flag = great_wall_works_flag
				}
				add_province_modifier = {
					name = "great_wall_works"
					duration = 712
				}
				set_province_flag = great_wall_works_modifier_flag
			}
			hidden_effect = {
				set_variable = { which = "great_wall_works_number" value = 1 }
			}
		}
		if = {
			limit = {
				check_variable = { which = "great_wall_works_number" value = 3 }
			}
			add_years_of_income = -0.5
			add_mil_power = -25
			add_adm_power = -25
			add_country_modifier = {
				name = "great_wall_reparations"
				duration = 712
			}
			set_country_flag = great_wall_reparations_flag
			random_owned_province = {
				limit = {
					has_province_flag = great_wall_works_flag
				}
				add_province_modifier = {
					name = "great_wall_works"
					duration = 712
				}
				set_province_flag = great_wall_works_modifier_flag
			}
			hidden_effect = {
				set_variable = { which = "great_wall_works_number" value = 2 }
			}
		}
	}
}

# Construction successful
country_event = {
	id = military_decay.22
	title = "military_decay.22.t"
	desc = "military_decay.22.d"
	picture = PALAIS_MAZARIN_eventPicture

	trigger = {
		has_country_flag = mandate_of_heaven_claimed
		any_owned_province = {
			has_province_flag = great_wall_works_flag
			NOT = { has_province_modifier = great_wall_works }
		}
	}

	mean_time_to_happen = {
		months = 6
	}

	option = {
		name = "military_decay.22a" #Continue
		trigger = {
			has_country_flag = great_wall_construction_flag
			check_variable = { which = "great_wall_works_number" value = 1 }
		}
		every_owned_province = {
			limit = {
				has_province_flag = great_wall_works_modifier_flag
				NOT = { has_province_modifier = great_wall_works }
			}
			clr_province_flag = great_wall_works_flag
			clr_province_flag = great_wall_works_modifier_flag
			remove_province_modifier = great_wall_ruins
			remove_province_modifier = great_wall_crumbling
			add_permanent_province_modifier = { 
				name = "great_wall_full"
				duration = -1
			}
		}
		add_years_of_income = -1.25
		add_mil_power = -50
		add_adm_power = -50
		add_country_modifier = {
			name = "great_wall_construction"
			duration = 1825
		}
		random_owned_province = {
			limit = {
				has_province_flag = great_wall_works_flag
			}
			add_province_modifier = {
				name = "great_wall_works"
				duration = 1825
			}
			set_province_flag = great_wall_works_modifier_flag
		}
		hidden_effect = {
			change_variable = { which = "great_wall_works_number" value = -1 }
		}
	}
	option = {
		name = "military_decay.22a" #Continue
		trigger = {
			has_country_flag = great_wall_reparations_flag
			check_variable = { which = "great_wall_works_number" value = 1 }
		}
		every_owned_province = {
			limit = {
				has_province_flag = great_wall_works_modifier_flag
				NOT = { has_province_modifier = great_wall_works }
			}
			clr_province_flag = great_wall_works_flag
			clr_province_flag = great_wall_works_modifier_flag
			remove_province_modifier = great_wall_ruins
			remove_province_modifier = great_wall_crumbling
			add_permanent_province_modifier = { 
				name = "great_wall_full"
				duration = -1
			}
		}
		add_years_of_income = -0.5
		add_mil_power = -25
		add_adm_power = -25
		add_country_modifier = {
			name = "great_wall_reparations"
			duration = 712
		}
		random_owned_province = {
			limit = {
				has_province_flag = great_wall_works_flag
			}
			add_province_modifier = {
				name = "great_wall_works"
				duration = 712
			}
			set_province_flag = great_wall_works_modifier_flag
		}
		hidden_effect = {
			change_variable = { which = "great_wall_works_number" value = -1 }
		}
	}
	option = {
		name = "military_decay.22b" #That's it
		every_owned_province = {
			limit = {
				has_province_flag = great_wall_works_modifier_flag
				NOT = { has_province_modifier = great_wall_works }
			}
			clr_province_flag = great_wall_works_flag
			clr_province_flag = great_wall_works_modifier_flag
			remove_province_modifier = great_wall_ruins
			remove_province_modifier = great_wall_crumbling
			add_permanent_province_modifier = { 
				name = "great_wall_full"
				duration = -1
			}
		}
		every_owned_province = {
			limit = {
				has_province_flag = great_wall_works_flag
			}
			clr_province_flag = great_wall_works_flag
		}
		clr_country_flag = great_wall_construction_flag
		clr_country_flag = great_wall_reparations_flag
		hidden_effect = {
			set_variable = { which = "great_wall_works_number" value = 0 }
		}
	}
}