######################################
# VASSAL UPKEEP
######################################

vassal_upkeep_1 = {
	diplomatic_upkeep = 1
}
vassal_upkeep_2 = {
	diplomatic_upkeep = 2
}
vassal_upkeep_3 = {
	diplomatic_upkeep = 3
}
vassal_upkeep_4 = {
	diplomatic_upkeep = 4
}
vassal_upkeep_5 = {
	diplomatic_upkeep = 5
}
vassal_upkeep_6 = {
	diplomatic_upkeep = 6
}
vassal_upkeep_7 = {
	diplomatic_upkeep = 7
}
vassal_upkeep_8 = {
	diplomatic_upkeep = 8
}
vassal_upkeep_9 = {
	diplomatic_upkeep = 9
}
vassal_upkeep_10= {
	diplomatic_upkeep = 10
}
vassal_upkeep_11 = {
	diplomatic_upkeep = 11
}
vassal_upkeep_12 = {
	diplomatic_upkeep = 12
}
vassal_upkeep_13 = {
	diplomatic_upkeep = 13
}
vassal_upkeep_14 = {
	diplomatic_upkeep = 14
}
vassal_upkeep_15 = {
	diplomatic_upkeep = 15
}