222 = "Al Mariyya"
223 = "Gharnata"
224 = "Walbah"
225 = "Qurtubah"
226 = "Malaqa"
227 = "Dschayyan"
358 = "Al Iskandariyya"
2310 = "Djesirat Kadis"
2311 = "Isbiliya"
2498 = "Al Munufiyya"
2499 = "Al Buhaira"
2654 = "Ar-Ruha"
