name = "Byzantine-Genoese War"
#casus_belli = cb_conquest
war_goal = {
	type = superiority_trade_mutual
	casus_belli = cb_trade_war
}

1348.1.1 = {
	add_attacker = GEN
	add_defender = BYZ
}
1350.1.1 = {
	add_defender = VEN
	}
1352.5.1 = {
	rem_attacker = GEN
	rem_defender = VEN
	rem_defender = BYZ
}
