name = "War of the League of Cognac"
#casus_belli = cb_border_war
war_goal = {
	type = take_border
	casus_belli = cb_border_war
	province = 2531 # Napoli
}

# War of the League of Cognac
1526.5.22 = {
	add_attacker = PAP
	add_attacker = VEN
	add_attacker = FRA
	add_attacker = FIR
	add_attacker = MLO
	add_defender = SPA
	add_defender = HAB
	add_defender = GEN	
}

1529.6.21 = {
	battle = {
		name = "Landriano"
		location = 104
		attacker = {
			commander = "Duke of St. Pol"	# St. Pol
			infantry = 3600
			cavalry = 1250
			losses = 52	# percent
			country = FRA
		}
		defender = {
			commander = "Luigi"	#
			infantry = 5800
			cavalry = 1500
			losses = 10	# percent
			country = GEN
		}
		result = no
	}
}

# Treaty of Cambrai
1529.8.3 = {
	rem_attacker = MLO
	rem_attacker = FIR
	rem_attacker = FRA
	rem_attacker = VEN
	rem_attacker = PAP
	rem_defender = GEN
	rem_defender = HAB
	rem_defender = SPA
}
