# 1329 - Sammarah

owner = JAI
controller = JAI
culture = iraqi
religion = sunni
capital = "Sammarah"
trade_goods = wheat
hre = no
base_tax = 7
base_production = 7
base_manpower = 3
is_city = yes
discovered_by = western
discovered_by = muslim
discovered_by = eastern
discovered_by = turkishtech
discovered_by = steppestech

1133.1.1 = { mill = yes }
1200.1.1 = { road_network = yes }
1250.1.1 = { temple = yes }
1356.1.1 = {
	add_core = JAI
	add_core = AKK
}
1384.1.1   = {
	owner = TIM
	controller = TIM
}
1408.1.1 = {
	controller = QAR
}
1409.1.1  = {
	owner = QAR
	#add_core = QAR
	remove_core = TIM
} # Fars and surroundings to Qara Quyunlu
1444.1.1 = {
	remove_core = JAI
}	
1444.1.1 = {
	add_core = IRQ
	remove_core = QAR
	add_core = AKK
}
1469.1.1 = {
	controller = AKK
}
1470.1.1 = {
	owner = AKK
	add_core = AKK
	remove_core = QAR
}
1478.1.6   = {
	controller = REB
	revolt = { type = pretender_rebels }
} # Death of Uzun Hasan
1481.1.1   = {
	controller = AKK
	revolt = { }
} # End of civil war
1490.1.1   = {
	controller = REB
	revolt = { type = pretender_rebels }
} # Civil War
1494.1.1   = {
	controller = AKK
	revolt = { }
} # Civil War
1501.1.1  = {
	controller = SAM
}
1508.1.1  = {
	owner = SAM
}
1512.1.1  = {
	owner = PER
	controller = PER
	add_core = PER
	remove_core = SAM
	remove_core = AKK
	training_fields = yes
	bailiff = yes
	courthouse = yes
} # Safawids "form persia"
1530.1.1 = { add_permanent_claim = IRQ add_permanent_claim = TUR } #As Caliph, duty to rescue Baghdad
1530.1.3 = {
	road_network = no paved_road_network = yes 
}
1534.11.28 = { controller = TUR } # Ottoman conquest
1535.1.1   = { owner = TUR add_core = TUR remove_claim = TUR} # Annexed by the Ottomans
1624.1.1   = { controller = PER }
1635.1.1   = { controller = TUR }
1722.1.1   = { unrest = 5 } # Rebellion against the Ottomans
1730.1.1   = { unrest = 0 }
