# 1399 - Angelokastron

owner = SER
controller = SER
culture = greek
religion = orthodox
capital = "Angelokastron"
trade_goods = olive
hre = no
base_tax = 4
base_production = 4
base_manpower = 3
is_city = yes
discovered_by = CIR
discovered_by = muslim
discovered_by = eastern
discovered_by = western
discovered_by = turkishtech

1300.1.1 = { road_network = yes }
1356.1.1   = {
	owner = EPI
	controller = EPI
	add_core = EPI
	add_core = TSL
	add_permanent_claim = BYZ
	add_claim = SER
} # Epirus revolt
1359.1.1   = {
	owner = ALB
	controller = ALB
	add_core = ALB
}
1416.1.1  = {
	owner = EPI
	controller = EPI
	remove_core = ALB
}
1434.1.1  = {
	owner = TUR
	controller = TUR
	add_core = TUR
}
1481.6.1  = { controller = REB } # Civil war, Bayezid & Jem
1482.7.26 = { controller = TUR } # Jem escapes to Rhodes
1515.2.1 = { training_fields = yes }
1530.1.3 = {
	road_network = no paved_road_network = yes fort_14th = yes
}
1530.1.4  = {
	bailiff = yes	
}
1532.1.1  = { controller = REB } # Rebellion against the Ottoman rule
1533.1.1  = { controller = TUR }
1555.1.1  = { unrest = 5 } # General discontent with the Janissaries' dominance
1556.1.1  = { unrest = 0 }
1571.1.1  = { controller = REB } # Rebellion against Ottoman rule
1572.1.1  = {  controller = TUR } # Estimated
1688.1.1  = { controller = VEN } # Occupied by Venice
1690.1.1  = { base_tax = 1 } #The Decentralizing Effect of the Provincial System
1699.1.26 = { owner = VEN add_core = VEN } # Annexed by the Venetian republic
1716.1.1  = {  } # Revival of commerce, agriculture/trade
1718.1.1  = { owner = TUR controller = TUR remove_core = VEN }
1750.1.1  = { add_core = GRE }
1821.3.1  = {
	controller = REB
}
1829.1.1  = {
	owner = GRE
	controller = GRE
}
1832.5.7  = {
	remove_core = TUR
} # Treaty of Constantinople
