# No previous file for Chitimacha

culture = chitimacha
religion = totemism
capital = "Chitimacha"
trade_goods = unknown
hre = no
base_tax = 1
base_production = 1
base_manpower = 1
native_size = 60
native_ferocity = 1 
native_hostileness = 6

1541.1.1  = { discovered_by = SPA } # Hernando de Soto
1670.1.1  = { discovered_by = FRA } # Robert Cavelier de La Salle
1714.1.1  = {	owner = FRA
		controller = FRA
		citysize = 350
		culture = francien
		religion = catholic
		trade_goods = cotton
	    } # Founding of Natchitoches
1716.1.1  = { unrest = 3 } # Disease and warfare between the natives & the French
1720.1.1  = { unrest = 1 }
1722.1.1  = { unrest = 4 } # The conditions worsened
1724.1.1  = { citysize = 780 }
1725.1.1  = { unrest = 2 }
1729.1.1  = { unrest = 5 }
1732.1.1  = { unrest = 0 }
1739.1.1  = { add_core = FRA }
1750.1.1  = { citysize = 1500 }
1762.1.1  = {	owner = SPA
		controller = SPA
		remove_core = FRA
	    } # Treaty of Fontainebleau, secretely ceded to Spain
1763.1.1  = { unrest = 5 } # The French resisted the Spanish rule
1764.1.1  = { unrest = 0 } # Eventually subdued
1787.1.1  = { add_core = SPA }
1800.1.1  = { citysize = 2370 }
1800.10.1 = {	owner = FRA
		controller = FRA
		add_core = FRA
		remove_core = SPA
	    	culture = french_colonial
	    } # Treaty of San Ildefonso
1803.4.3  = {	owner = USA
		controller = USA
		add_core = USA
		remove_core = FRA
} # The Louisiana purchase
