# 2067 - Vilcashuaman

owner = AYA
controller = AYA 
add_core = AYA
culture = quechuan
religion = inti
capital = "Vilcashuaman"
trade_goods = maize
hre = no
base_tax = 7
base_production = 7
base_manpower = 3
is_city = yes
 
discovered_by = south_american

1356.1.1 = {
}
1463.1.1 = {
	owner = CZC
	controller = CZC
	add_core = CZC
}
1480.1.1   = {
	owner = INC
	controller = INC
	add_core = INC
	remove_core = CZC
	paved_road_network = yes
	bailiff = yes
	constable = yes
	marketplace = yes
	}
1529.1.1 = {
	owner = CZC
	controller = CZC
	add_core = QUI
	add_core = CZC
	remove_core = INC
}
1533.8.29   = {
	discovered_by = SPA
	add_core = SPA
	owner = SPA
	controller = SPA
	culture = castillian
	religion = catholic
} # Death of Atahualpa
1536.1.1   = {
	owner = INC
	controller = INC
} # Captured by Manco Inca
1537.1.1   = {
	owner = SPA
	controller = SPA
	unrest = 8
} # Fighting broke out when Almagro seized Cuzco
1538.1.1  = { unrest = 5 } # Almagro is defeated & executed
1541.1.1  = { unrest = 6 } # Pizzaro is assassinated by supporters of Almagro, his brother assumed control
1548.1.1  = { unrest = 0 } # Gonzalo Pizzaro is also executed & Spain succeeds in reasserting its authority
1750.1.1  = {
	add_core = PEU
	culture = peruvian
}
1810.9.18  = {
	owner = PEU
	controller = PEU
}
1818.2.12  = {
	remove_core = SPA
}
