# 2418 - Bo Chinh

owner = CHA
controller = CHA
culture = cham
religion = hinduism
capital = "Hue"		####"Bo Chinh"
base_tax = 9
base_production = 9
base_manpower = 3
is_city = yes
trade_goods = fish
discovered_by = chinese
discovered_by = indian
discovered_by = muslim
hre = no

1307.1.1 = {
	owner = DAI
	controller = DAI
	add_core = DAI
	fort_14th = yes
} # Ceded to the ??i Vi?t in exchange for the hand in marriage of a Viet princess
1356.1.1 = {
	add_core = CHA
}
1372.1.1 = {
	owner = CHA
	controller = CHA
} # Che Bong Nga recovers the province
1471.4.1 = {
	owner = DAI
	controller = DAI
	culture = vietnamese
	religion = confucianism
	remove_core = CHA
} # Severe defeat against the Vietnamese
1515.1.1 = { regimental_camp = yes }
1519.1.1 = { bailiff = yes }
1519.4.2 = { wharf = yes }
1522.4.4 = { marketplace = yes }
1535.1.1 = { discovered_by = POR }
1537.1.1 = { owner = ANN controller = ANN add_core = ANN } # Restoriationist
1545.1.1 = { owner = TOK controller = TOK add_core = TOK } # Nguyen Kim dies
1558.1.1 = {
	owner = ANN
	controller = ANN
	add_core = ANN
	remove_core = TOK
}
1692.1.1 = { unrest = 6 } # Rebellion against the Vietnamese
1693.1.1 = { unrest = 0 } # Plague
1769.1.1 = { unrest = 6 } # Tay Son Rebellion
1775.02.1 = { controller = TOK }
1775.02.1 = { owner = TOK add_core = TOK  }
1776.1.1 = {
	unrest = 0
	owner = DAI
	controller = DAI
	add_core = DAI
} # Tay Son Dynasty conquered the Nguyen Lords
1786.1.1 = { unrest = 5 } # Unsuccessful revolt
1787.1.1 = { unrest = 0 }
1802.7.22 = {
	owner = ANN
	controller = ANN
	remove_core = DAI
} # Nguyen Phuc Anh conquered the Tay Son Dynasty
1804.1.1 = {
	fort_14th = no
	fort_18th = yes
}
1883.8.25 = { 
	owner = FRA
	controller = FRA
}
