
owner = POL
controller = POL
capital = "Peremyshl"
culture = ruthenian
religion = orthodox
trade_goods = hemp
hre = no
base_tax = 6
base_production = 6
base_manpower = 2
is_city = yes
discovered_by = western
discovered_by = eastern
discovered_by = muslim
discovered_by = turkishtech
discovered_by = steppestech

1200.1.1 = { road_network = yes }
1356.1.1 = {
	add_claim = LIT
	add_core = POL
	add_core = GVO
	add_permanent_province_modifier = {
		name = polish_estates
		duration = -1
	}
}
1377.1.1 = {
	owner = GVO
	controller = GVO
}
1387.1.1 = {
	owner = POL
	controller = POL
}
1393.1.1 = {
	remove_claim = LIT
}
1530.1.4  = {
	bailiff = yes	
}
1569.7.1  = {
	owner = PLC
	controller = PLC
	add_core = PLC
} # Union of Lublin
1588.1.1 = { controller = REB } # Civil war
1589.1.1 = { controller = PLC } # Coronation of Sigismund III
1606.1.1 = { controller = REB } # Civil war
1608.1.1 = { controller = PLC } # Minor victory of Sigismund
1655.1.1 = { controller = SWE } # The Deluge
1657.1.1 = { unrest = 0 } # Rebellion fails
1660.1.1 = { controller = PLC }
1733.1.1 = { controller = REB } # The war of Polish succession
1735.1.1 = { controller = PLC }

1772.8.5   = {
	owner = HAB
	controller = HAB
	add_core = HAB
	add_core = POL
	remove_core = PLC
} # First partition of Poland
1806.7.12  = { hre = no } # The Holy Roman Empire is dissolved
