# No previous file for Gyantse

owner = UTS
controller = UTS
culture = tibetan
religion = vajrayana
capital = "Gyantse"
trade_goods = wheat
hre = no
base_tax = 2
base_production = 2
base_manpower = 1
is_city = yes
discovered_by = chinese
discovered_by = steppestech
discovered_by = indian

1120.1.1 = { farm_estate = yes }
1200.1.1 = { road_network = yes }
1356.1.1 = {
	add_core = UTS
}
1642.6.1  = {
	controller = KSD
	owner = KSD
	add_core = KSD
}
1717.1.1 = {
	owner = ZUN
	controller = ZUN
} #Zunghar invasion of Tibet
1720.1.1 = {
	owner = UTS
	controller = UTS
	add_core = UTS
}
1721.1.1 = { discovered_by = SPA }
1755.10.4 = { unrest = 7 } # Rebellion aginst the Chinese
1757.10.4 = { unrest = 0 }
1792.11.1  = {
	owner = QNG
	controller = QNG
	add_core = QNG
} # U-tsang integrated into Qing empire after Sino-nepalese war
