# 3404 - Manabi

owner = MTN
controller = MTN
add_core = MTN
culture = quechuan
religion = inti
capital = "Manabi"
trade_goods = fish
hre = no
base_tax = 4
base_production = 4
base_manpower = 2
is_city = yes
 
discovered_by = south_american

1356.1.1 = {
}
1524.1.1   = { discovered_by = SPA }
1525.1.1   = {
	owner = INC
	controller = INC
	add_core = INC
}
1529.1.1 = {
	owner = QUI
	controller = QUI
	add_core = CZC
	add_core = QUI
	remove_core = INC
	bailiff = yes
	constable = yes
	marketplace = yes
}
1532.9.1   = {
	add_core = SPA
	owner = SPA
	controller = SPA
	culture = castillian
	religion = catholic
}
1537.1.1  = { unrest = 8 } # Fighting broke out when Almagro seized Cuzco
1538.1.1  = { unrest = 5 } # Almagro is defeated & executed
1541.1.1  = { unrest = 6 } # Pizzaro is assassinated by supporters of Almagro, his brother assumed control
1548.1.1  = { unrest = 0 } # Gonzalo Pizzaro is also executed & Spain succeeds in reasserting its authority
1750.1.1  = {
	add_core = COL
	culture = peruvian
}
1820.10.9  = {
	owner = COL
	controller = COL
} # Part of Gran Colombia
1824.12.1  = {
	remove_core = SPA
}
1830.5.24  = {
	owner = ECU
	controller = ECU
	add_core = ECU
} # Independance from Gran Colombia
1831.11.19 = {
	remove_core = COL
} # Gran Colombia dismantled
