#388 - Aden

owner = YEM
controller = YEM
add_core = YEM
culture = yemeni
religion = sunni
capital = "Aden"
trade_goods = fish
hre = no
base_tax = 6
base_production = 6
base_manpower = 2
is_city = yes
discovered_by = ADA
discovered_by = MKU
discovered_by = KIL
discovered_by = western
discovered_by = eastern
discovered_by = muslim
discovered_by = indian
discovered_by = east_african

1000.1.1 = {
	add_permanent_province_modifier = {
		name = "center_of_trade_modifier"
		duration = -1
	}	
	add_permanent_province_modifier = {
		name = ideal_european_port
		duration = -1
	}	
	
} 
1100.1.1 = { marketplace = yes }

1250.1.1 = { temple = yes }
1480.1.1 = { discovered_by = TUR }
1488.1.1 = { discovered_by = POR }
1538.1.1 = {	owner = TUR
		controller = TUR
		add_core = TUR
		remove_core = POR
	   } # Part of the Ottoman empire
1547.1.1 = { owner = POR controller = POR } # Occupied by Portugal
1551.1.1 = { owner = YEM controller = YEM remove_core = TUR }
1567.1.1 = { unrest = 4 } # Revolt against the Ottomans
1570.1.1 = { unrest = 0 }
1597.9.1 = { unrest = 5 } # Qasimi state, revolt against the Ottomans
1602.1.1 = { unrest = 0 }
