# 541 - Arcot

owner = GNG
controller = GNG
culture = tamil
religion = hinduism
capital = "Arcot"
trade_goods = iron
hre = no
base_tax = 8
base_production = 8
base_manpower = 4
is_city = yes
discovered_by = indian
discovered_by = muslim
add_local_autonomy = 25

1100.1.1 = { marketplace = yes }
1250.1.1 = { temple = yes }

1356.1.1 = {
	owner = MAD
	controller = MAD
	add_core = GNG
	fort_14th = yes
}
1378.1.1 = {
	owner = VIJ
	controller = VIJ
}
1428.1.1 = { add_core = VIJ }
1498.1.1 = { discovered_by = POR }
1530.3.17 = {
	marketplace = yes
	road_network = yes
}
1645.1.1 = {
	controller = GOC
} # Conquered by Golconda
1646.1.1 = {	
	owner = GOC
	fort_14th = no
	fort_15th = yes
} # Conquered by Golconda
1686.1.1 = {
	controller = MUG
}
1687.1.1 = {
	owner = MUG
}
1710.1.1 = {
	owner = KRK
	controller = KRK
	add_core = KRK
	fort_15th = no
	fort_17th = yes
} # Nawab of Arcot / Carnatic
1740.5.1 = {
	controller = MAR
} # Arcot falls to the Marathas
1743.3.1 = {
	controller = KRK
} # Arcot falls to the Nizam
1751.9.1 = {
	controller = GBR
}	#Conquered by Clive
1754.1.1 = {
	controller = KRK
}
1761.1.1 = {
	controller = GBR
}
1764.1.1 = {
	controller = KRK
}
1801.1.1 = {
	owner = GBR
	controller = GBR
} # Fourth Anglo-Mysore War
1824.1.1 = { add_core = GBR }
