# 555 - Oudh

owner = AHM
controller = AHM
culture = avadhi
religion = hinduism
capital = "Lucknow"
trade_goods = cotton
hre = no
base_tax = 10
base_production = 10
base_manpower = 3
is_city = yes
add_core = AHM
add_local_autonomy = 25
discovered_by = indian
discovered_by = muslim
discovered_by = steppestech 
discovered_by = turkishtech

1000.1.1 = {
		add_permanent_province_modifier = {
			name = religious_center
			duration = -1
		}
}
1100.1.1 = { marketplace = yes }
1115.1.1 = { bailiff = yes }
1120.1.1 = { plantations = yes }
#1180.1.1 = { post_system = yes }
1200.1.1 = { road_network = yes }
1356.1.1 = {
	#add_core = DLH
	add_core = AHM
	unrest = 6
	fort_14th = yes
}
1399.1.1 = {
	owner = AHM
	controller = AHM
	unrest = 0
} #guessed date for independance from Delhi Sultanate
1444.1.1 = {
	add_core = DLH
}
1486.1.1 = {
	owner = DLH
	controller = DLH
	add_core = DLH
	remove_core = AHM
} # Bahlul Lodi places his eldest surviving son Barbak Shah Lodi on the throne of Jaunpur
1526.4.1  = {
	controller = TIM
} #Conquered by Babur
1526.4.21 = {
	owner = MUG
	controller = MUG 
	add_core = MUG
	add_core = AHM
} # Battle of Panipat
1530.1.1   = {
	owner = MUG
	controller = MUG 
	add_core = MUG
} #Lodi Pretender
1530.1.2 = { add_core = TRT }
1531.1.1 = {
	controller = MUG
	revolt = { }
} #Lodi Pretender beaten
1540.1.1 = {
	owner = BNG
	controller = BNG
	add_core = BNG
} # Sher Shah Conquers Delhi
1553.1.1 = {
	owner = AHM
	controller = AHM
	remove_core = BNG
} #Death of Islam Shah Sur, Suri empire split
1558.11.1 = {	controller = MUG }	#Ibrahim defeated
1558.12.1 = {	owner = MUG }	#Jaunpur annexed
1565.1.1  = { controller = REB revolt = { type = noble_rebels } }	#Revolt of Uzbek commanders
1566.6.1  = { controller = MUG revolt = { } }
1618.12.1 = { add_core = MUG }
1690.1.1  = { discovered_by = ENG }
1707.5.12 = { discovered_by = GBR }
1724.1.1  = {
	owner = ODH
	controller = ODH
	add_core = ODH
	remove_core = MUG
} # Foundation of the Oudh dynasty
