# Culture Missions

recover_abysmal_prestige = {

	type = country

	category = ADM
	
	allow = {
		NOT = { prestige = -50 }
		OR = {
			NOT = { has_country_flag = recovered_abysmal_prestige }
			had_country_flag = { flag = recovered_abysmal_prestige days = 3650 }
		}
	}
	abort = {
	}
	immediate = {
		add_country_modifier = {
			name = "add_prestige_mission"
			duration = -1
		}
	}
	abort_effect = {
		remove_country_modifier = add_prestige_mission
		add_country_modifier = {
			name = "add_prestige_mission_malus"
			duration = 1825
		}
	}
	success = {
		prestige = 0
	}
	chance = {
		factor = 1000
		
		modifier = {
			factor = 1.05
			is_at_war = yes
			has_idea = naval_glory
		}
		modifier = {
			factor = 1.05
			is_at_war = yes
			has_idea = glorious_arms
		}
		modifier = {
			factor = 1.05
			has_idea = patron_of_art
		}
		modifier = {
			factor = 1.05
			NOT = { stability = 1 }
		}		
		modifier = {
			factor = 1.05
			NOT = { stability = 3 }
		}		
	}
	effect = {
		add_stability_1 = yes
		remove_country_modifier = add_prestige_mission
		set_country_flag = recovered_abysmal_prestige
	}
	
}

improve_prestige = {

	type = country
	
	category = ADM
	
	allow = {
		prestige = -25
		NOT = { prestige = 25 }
		NOT = { has_country_modifier = thriving_ship_building_sector }
		OR = {
			NOT = { has_country_flag = improved_prestige_mission }
			had_country_flag = { flag = improved_prestige_mission days = 3650 }
		}
	}
	abort = {
	}
	immediate = {
		add_country_modifier = {
			name = "add_prestige_mission"
			duration = -1
		}
	}
	abort_effect = {
		remove_country_modifier = add_prestige_mission
		add_country_modifier = {
			name = "add_prestige_mission_malus"
			duration = 1825
		}
	}
	success = {
		prestige = 50
	}
	chance = {
		factor = 1000
		
		modifier = {
			factor = 1.05
			is_at_war = yes
			has_idea = naval_glory
		}
		modifier = {
			factor = 1.05
			is_at_war = yes
			has_idea = glorious_arms
		}
		modifier = {
			factor = 1.05
			has_idea = patron_of_art
		}
		modifier = {
			factor = 1.05
			NOT = { stability = 1 }
		}		
		modifier = {
			factor = 1.05
			NOT = { stability = 3 }
		}
	}
	effect = {
		add_stability_1 = yes
		remove_country_modifier = add_prestige_mission
		set_country_flag = improved_prestige_mission
	}
}
