country_decisions = {

	cultural_shift = {
		potential = {
			capital_scope = {
				NOT = { culture = ROOT }
			}
			OR = {
				NOT = { tag = FRA }
				AND = {
					tag = FRA
					capital_scope = { culture_group = langue_d_oil }  # could have been formed by basque or breton
				}
			}
			OR = {
				NOT = { tag = GBR }
				AND = {
					tag = GBR
					capital_scope = { culture_group = british }  # could have been formed by welsh
				}
			}
			NOT = { tag = KAL }
			NOT = { tag = GER }
			OR = {
				NOT = { tag = ERG }
				AND = {
					tag = ERG
					capital_scope = { OR = { culture_group = low_germanic culture_group = middle_germanic culture_group = high_germanic } }  # could have been formed by any culture
				}
			}
			NOT = { tag = PAP }
			NOT = { tag = ITA }
			OR = {
				NOT = { tag = SPA }
				AND = {
					tag = SPA
					capital_scope = { culture_group = iberian }  # could have been formed by basque
				}
			}
			OR = {
				NOT = { primary_culture = dakani }
				AND = {
					primary_culture = dakani					
					adm_tech = 30
				}
			}
			NOT = { tag = RUS }
			NOT = { tag = BYZ }
			NOT = { tag = PER }
			NOT = { tag = KHA }
			NOT = { tag = JAP }
			NOT = { tag = MCH }
			NOT = { tag = MNG }
			NOT = { tag = PRU }
			NOT = { primary_culture = urdu }
			NOT = { government = monastic_order_government }
		}
		allow =  {
			dominant_culture = capital
			stability = 2
			is_at_war = no 
			is_subject = no
		}
	  	effect = {
			change_primary_culture = capital
			subtract_stability_5 = yes
		}
		ai_will_do = {
			factor = 1
		}
	}

	yorouk_cultural_shift = {
		potential = {
			primary_culture = yorouk
		}
		allow =  {
			NOT = { dominant_culture = yorouk }
			stability = 2
			is_at_war = no 
			is_subject = no
		}
	  	effect = {
			change_primary_culture = turkish
			random_owned_province = {
				limit = {
					culture = yorouk
				}
				change_culture = turkish
			}
			random_owned_province = {
				limit = {
					culture = yorouk
				}
				change_culture = turkish
			}
			random_owned_province = {
				limit = {
					culture = yorouk
				}
				change_culture = turkish
			}
		}
		ai_will_do = {
			factor = 1
		}
	}

}
