country_decisions = {

	millet_system_christian = {
		potential = {
			has_country_flag = christians_permitted
			NOT = { has_country_flag = christians_tolerated }
			religion_group = muslim
			NOT = { religion = druze }
			}
		allow = {
			tech_1800_trigger = yes
			OR = {
				ADM = 3
				advisor = theologian
				}
			OR = {
				DIP = 3
				advisor = statesman
				}
			NOT = { has_country_modifier = religious_intolerance }
			NOT = { piety = 0.60 }
			is_at_war = no
			}
		effect = {
			set_country_flag = christians_tolerated
			if = {
				limit = { has_country_flag = christian_devsirme }
				clr_country_flag = christian_devsirme
				custom_tooltip = end_devsirme
				}
			add_country_modifier = { name = religious_tolerance duration = 1000 }
			if = {
				limit = { NOT = { capital_scope = { check_variable = { which = christian_population value = 10 } } } }
				add_legitimacy = 1
				add_republican_tradition = 2
				}
			if = {
				limit = { 
					capital_scope = { check_variable = { which = christian_population value = 10 } }
					NOT = { capital_scope = { check_variable = { which = christian_population value = 20 } } }
					}
				add_piety = -0.05
				add_legitimacy = 1
				add_republican_tradition = 2
				random = { chance = 25 add_stability_1 = yes }
				}
			if = {
				limit = { 
					capital_scope = { check_variable = { which = christian_population value = 20 } }
					NOT = { capital_scope = { check_variable = { which = christian_population value = 30 } } }
					}
				add_piety = -0.10
				add_legitimacy = 2
				add_republican_tradition = 4
				random = { chance = 50 add_stability_1 = yes }
				}
			if = {
				limit = { 
					capital_scope = { check_variable = { which = christian_population value = 30 } }
					NOT = { capital_scope = { check_variable = { which = christian_population value = 40 } } }
					}
				add_piety = -0.15
				add_legitimacy = 3
				add_republican_tradition = 6
				random = { chance = 75 add_stability_1 = yes }
				}
			if = {
				limit = { 
					capital_scope = { check_variable = { which = christian_population value = 40 } }
					NOT = { capital_scope = { check_variable = { which = christian_population value = 50 } } }
					}
				add_piety = -0.20
				add_legitimacy = 4
				add_republican_tradition = 8
				add_stability_1 = yes
				}
			if = {
				limit = { 
					capital_scope = { check_variable = { which = christian_population value = 50 } }
					NOT = { capital_scope = { check_variable = { which = christian_population value = 60 } } }
					}
				add_piety = -0.25
				add_legitimacy = 5
				add_republican_tradition = 10
				add_stability_1 = yes
				}
			if = {
				limit = { 
					capital_scope = { check_variable = { which = christian_population value = 60 } }
					NOT = { capital_scope = { check_variable = { which = christian_population value = 70 } } }
					}
				add_piety = -0.30
				add_legitimacy = 6
				add_republican_tradition = 12
				add_stability_1 = yes
				}
			if = {
				limit = { 
					capital_scope = { check_variable = { which = christian_population value = 70 } }
					NOT = { capital_scope = { check_variable = { which = christian_population value = 80 } } }
					}
				add_piety = -0.35
				add_legitimacy = 7
				add_republican_tradition = 14
				add_stability_1 = yes
				}
			if = {
				limit = { 
					capital_scope = { check_variable = { which = christian_population value = 80 } }
					NOT = { capital_scope = { check_variable = { which = christian_population value = 90 } } }
					}
				add_piety = -0.40
				add_legitimacy = 8
				add_republican_tradition = 16
				add_stability_1 = yes
				}
			if = {
				limit = { capital_scope = { check_variable = { which = christian_population value = 90 } } }
				add_piety = -0.45
				add_legitimacy = 9
				add_republican_tradition = 18
				add_stability_1 = yes
				}
			add_adm_power = -25
			add_dip_power = -25
			disband_rebels = catholic_rebels
			disband_rebels = protestant_rebels
			disband_rebels = reformed_rebels
			disband_rebels = orthodox_rebels
			disband_rebels = gnostic_rebels
			disband_rebels = chaldean_rebels
			disband_rebels = coptic_rebels
			disband_rebels = hussite_rebels
			}
		ai_will_do = {
			factor = 1
			}
		}
	millet_system_jewish = {
		potential = {
			has_country_flag = jews_permitted
			NOT = { has_country_flag = jews_tolerated }
			religion_group = muslim
			NOT = { religion = druze }
			}
		allow = {
			tech_1800_trigger = yes
			OR = {
				ADM = 3
				advisor = theologian
				}
			OR = {
				DIP = 3
				advisor = statesman
				}
			NOT = { has_country_modifier = religious_intolerance }
			NOT = { piety = 0.60 }
			is_at_war = no
			}
		effect = {
			set_country_flag = jews_tolerated
			if = {
				limit = { has_country_flag = jewish_devsirme }
				clr_country_flag = jewish_devsirme
				custom_tooltip = end_devsirme
				}
			add_country_modifier = { name = religious_tolerance duration = 1000 }
			if = {
				limit = { NOT = { capital_scope = { check_variable = { which = jewish_population value = 10 } } } }
				add_legitimacy = 1
				add_republican_tradition = 2
				}
			if = {
				limit = { 
					capital_scope = { check_variable = { which = jewish_population value = 10 } }
					NOT = { capital_scope = { check_variable = { which = jewish_population value = 20 } } }
					}
				add_piety = -0.05
				add_legitimacy = 1
				add_republican_tradition = 2
				random = { chance = 25 add_stability_1 = yes }
				}
			if = {
				limit = { 
					capital_scope = { check_variable = { which = jewish_population value = 20 } }
					NOT = { capital_scope = { check_variable = { which = jewish_population value = 30 } } }
					}
				add_piety = -0.10
				add_legitimacy = 2
				add_republican_tradition = 4
				random = { chance = 50 add_stability_1 = yes }
				}
			if = {
				limit = { 
					capital_scope = { check_variable = { which = jewish_population value = 30 } }
					NOT = { capital_scope = { check_variable = { which = jewish_population value = 40 } } }
					}
				add_piety = -0.15
				add_legitimacy = 3
				add_republican_tradition = 6
				random = { chance = 75 add_stability_1 = yes }
				}
			if = {
				limit = { 
					capital_scope = { check_variable = { which = jewish_population value = 40 } }
					NOT = { capital_scope = { check_variable = { which = jewish_population value = 50 } } }
					}
				add_piety = -0.20
				add_legitimacy = 4
				add_republican_tradition = 8
				add_stability_1 = yes
				}
			if = {
				limit = { 
					capital_scope = { check_variable = { which = jewish_population value = 50 } }
					NOT = { capital_scope = { check_variable = { which = jewish_population value = 60 } } }
					}
				add_piety = -0.25
				add_legitimacy = 5
				add_republican_tradition = 10
				add_stability_1 = yes
				}
			if = {
				limit = { 
					capital_scope = { check_variable = { which = jewish_population value = 60 } }
					NOT = { capital_scope = { check_variable = { which = jewish_population value = 70 } } }
					}
				add_piety = -0.30
				add_legitimacy = 6
				add_republican_tradition = 12
				add_stability_1 = yes
				}
			if = {
				limit = { 
					capital_scope = { check_variable = { which = jewish_population value = 70 } }
					NOT = { capital_scope = { check_variable = { which = jewish_population value = 80 } } }
					}
				add_piety = -0.35
				add_legitimacy = 7
				add_republican_tradition = 14
				add_stability_1 = yes
				}
			if = {
				limit = { 
					capital_scope = { check_variable = { which = jewish_population value = 80 } }
					NOT = { capital_scope = { check_variable = { which = jewish_population value = 90 } } }
					}
				add_piety = -0.40
				add_legitimacy = 8
				add_republican_tradition = 16
				add_stability_1 = yes
				}
			if = {
				limit = { capital_scope = { check_variable = { which = jewish_population value = 90 } } }
				add_piety = -0.45
				add_legitimacy = 9
				add_republican_tradition = 18
				add_stability_1 = yes
				}
			add_adm_power = -25
			add_dip_power = -25
			disband_rebels = jewish_rebels
			}
		ai_will_do = {
			factor = 1
			}
		}
	millet_system_dharmic = {
		potential = {
			has_country_flag = dharmics_permitted
			NOT = { has_country_flag = dharmics_tolerated }
			religion_group = muslim
			NOT = { religion = druze }
			}
		allow = {
			tech_1800_trigger = yes
			OR = {
				ADM = 3
				advisor = theologian
				}
			OR = {
				DIP = 3
				advisor = statesman
				}
			NOT = { has_country_modifier = religious_intolerance }
			NOT = { piety = 0.60 }
			is_at_war = no
			}
		effect = {
			set_country_flag = dharmics_tolerated
			if = {
				limit = { has_country_flag = dharmic_devsirme }
				clr_country_flag = dharmic_devsirme
				custom_tooltip = end_devsirme
				}
			add_country_modifier = { name = religious_tolerance duration = 1000 }
			if = {
				limit = { NOT = { capital_scope = { check_variable = { which = dharmic_population value = 10 } } } }
				add_legitimacy = 1
				add_republican_tradition = 2
				}
			if = {
				limit = { 
					capital_scope = { check_variable = { which = dharmic_population value = 10 } }
					NOT = { capital_scope = { check_variable = { which = dharmic_population value = 20 } } }
					}
				add_piety = -0.05
				add_legitimacy = 1
				add_republican_tradition = 2
				random = { chance = 25 add_stability_1 = yes }
				}
			if = {
				limit = { 
					capital_scope = { check_variable = { which = dharmic_population value = 20 } }
					NOT = { capital_scope = { check_variable = { which = dharmic_population value = 30 } } }
					}
				add_piety = -0.10
				add_legitimacy = 2
				add_republican_tradition = 4
				random = { chance = 50 add_stability_1 = yes }
				}
			if = {
				limit = { 
					capital_scope = { check_variable = { which = dharmic_population value = 30 } }
					NOT = { capital_scope = { check_variable = { which = dharmic_population value = 40 } } }
					}
				add_piety = -0.15
				add_legitimacy = 3
				add_republican_tradition = 6
				random = { chance = 75 add_stability_1 = yes }
				}
			if = {
				limit = { 
					capital_scope = { check_variable = { which = dharmic_population value = 40 } }
					NOT = { capital_scope = { check_variable = { which = dharmic_population value = 50 } } }
					}
				add_piety = -0.20
				add_legitimacy = 4
				add_republican_tradition = 8
				add_stability_1 = yes
				}
			if = {
				limit = { 
					capital_scope = { check_variable = { which = dharmic_population value = 50 } }
					NOT = { capital_scope = { check_variable = { which = dharmic_population value = 60 } } }
					}
				add_piety = -0.25
				add_legitimacy = 5
				add_republican_tradition = 10
				add_stability_1 = yes
				}
			if = {
				limit = { 
					capital_scope = { check_variable = { which = dharmic_population value = 60 } }
					NOT = { capital_scope = { check_variable = { which = dharmic_population value = 70 } } }
					}
				add_piety = -0.30
				add_legitimacy = 6
				add_republican_tradition = 12
				add_stability_1 = yes
				}
			if = {
				limit = { 
					capital_scope = { check_variable = { which = dharmic_population value = 70 } }
					NOT = { capital_scope = { check_variable = { which = dharmic_population value = 80 } } }
					}
				add_piety = -0.35
				add_legitimacy = 7
				add_republican_tradition = 14
				add_stability_1 = yes
				}
			if = {
				limit = { 
					capital_scope = { check_variable = { which = dharmic_population value = 80 } }
					NOT = { capital_scope = { check_variable = { which = dharmic_population value = 90 } } }
					}
				add_piety = -0.40
				add_legitimacy = 8
				add_republican_tradition = 16
				add_stability_1 = yes
				}
			if = {
				limit = { capital_scope = { check_variable = { which = dharmic_population value = 90 } } }
				add_piety = -0.45
				add_legitimacy = 9
				add_republican_tradition = 18
				add_stability_1 = yes
				}
			add_adm_power = -25
			add_dip_power = -25
			disband_rebels = hinduism_rebels
			disband_rebels = zoroastrian_rebels
			disband_rebels = sikhism_rebels
			disband_rebels = jain_rebels
			}
		ai_will_do = {
			factor = 1
			}
		}
	millet_system_buddhist = {
		potential = {
			has_country_flag = buddhists_permitted
			NOT = { has_country_flag = buddhists_tolerated }
			religion_group = muslim
			NOT = { religion = druze }
			}
		allow = {
			tech_1800_trigger = yes
			OR = {
				ADM = 3
				advisor = theologian
				}
			OR = {
				DIP = 3
				advisor = statesman
				}
			NOT = { has_country_modifier = religious_intolerance }
			NOT = { piety = 0.60 }
			is_at_war = no
			}
		effect = {
			set_country_flag = buddhists_tolerated
			if = {
				limit = { has_country_flag = buddhist_devsirme }
				clr_country_flag = buddhist_devsirme
				custom_tooltip = end_devsirme
				}
			add_country_modifier = { name = religious_tolerance duration = 1000 }
			if = {
				limit = { NOT = { capital_scope = { check_variable = { which = buddhist_population value = 10 } } } }
				add_legitimacy = 1
				add_republican_tradition = 2
				}
			if = {
				limit = { 
					capital_scope = { check_variable = { which = buddhist_population value = 10 } }
					NOT = { capital_scope = { check_variable = { which = buddhist_population value = 20 } } }
					}
				add_piety = -0.05
				add_legitimacy = 1
				add_republican_tradition = 2
				random = { chance = 25 add_stability_1 = yes }
				}
			if = {
				limit = { 
					capital_scope = { check_variable = { which = buddhist_population value = 20 } }
					NOT = { capital_scope = { check_variable = { which = buddhist_population value = 30 } } }
					}
				add_piety = -0.10
				add_legitimacy = 2
				add_republican_tradition = 4
				random = { chance = 50 add_stability_1 = yes }
				}
			if = {
				limit = { 
					capital_scope = { check_variable = { which = buddhist_population value = 30 } }
					NOT = { capital_scope = { check_variable = { which = buddhist_population value = 40 } } }
					}
				add_piety = -0.15
				add_legitimacy = 3
				add_republican_tradition = 6
				random = { chance = 75 add_stability_1 = yes }
				}
			if = {
				limit = { 
					capital_scope = { check_variable = { which = buddhist_population value = 40 } }
					NOT = { capital_scope = { check_variable = { which = buddhist_population value = 50 } } }
					}
				add_piety = -0.20
				add_legitimacy = 4
				add_republican_tradition = 8
				add_stability_1 = yes
				}
			if = {
				limit = { 
					capital_scope = { check_variable = { which = buddhist_population value = 50 } }
					NOT = { capital_scope = { check_variable = { which = buddhist_population value = 60 } } }
					}
				add_piety = -0.25
				add_legitimacy = 5
				add_republican_tradition = 10
				add_stability_1 = yes
				}
			if = {
				limit = { 
					capital_scope = { check_variable = { which = buddhist_population value = 60 } }
					NOT = { capital_scope = { check_variable = { which = buddhist_population value = 70 } } }
					}
				add_piety = -0.30
				add_legitimacy = 6
				add_republican_tradition = 12
				add_stability_1 = yes
				}
			if = {
				limit = { 
					capital_scope = { check_variable = { which = buddhist_population value = 70 } }
					NOT = { capital_scope = { check_variable = { which = buddhist_population value = 80 } } }
					}
				add_piety = -0.35
				add_legitimacy = 7
				add_republican_tradition = 14
				add_stability_1 = yes
				}
			if = {
				limit = { 
					capital_scope = { check_variable = { which = buddhist_population value = 80 } }
					NOT = { capital_scope = { check_variable = { which = buddhist_population value = 90 } } }
					}
				add_piety = -0.40
				add_legitimacy = 8
				add_republican_tradition = 16
				add_stability_1 = yes
				}
			if = {
				limit = { capital_scope = { check_variable = { which = buddhist_population value = 90 } } }
				add_piety = -0.45
				add_legitimacy = 9
				add_republican_tradition = 18
				add_stability_1 = yes
				}
			add_adm_power = -25
			add_dip_power = -25
			disband_rebels = confucianism_rebels
			disband_rebels = buddhism_rebels
			disband_rebels = mahayana_rebels
			disband_rebels = vajrayana_rebels
			}
		ai_will_do = {
			factor = 1
			}
		}
	millet_system_pagan = {
		potential = {
			has_country_flag = pagans_permitted
			NOT = { has_country_flag = pagans_tolerated }
			religion_group = muslim
			NOT = { religion = druze }
			}
		allow = {
			tech_1800_trigger = yes
			OR = {
				ADM = 3
				advisor = theologian
				}
			OR = {
				DIP = 3
				advisor = statesman
				}
			NOT = { has_country_modifier = religious_intolerance }
			NOT = { piety = 0.60 }
			is_at_war = no
			}
		effect = {
			set_country_flag = pagans_tolerated
			if = {
				limit = { has_country_flag = pagan_devsirme }
				clr_country_flag = pagan_devsirme
				custom_tooltip = end_devsirme
				}
			add_country_modifier = { name = religious_tolerance duration = 1000 }
			if = {
				limit = { NOT = { capital_scope = { check_variable = { which = pagan_population value = 10 } } } }
				add_legitimacy = 1
				add_republican_tradition = 2
				}
			if = {
				limit = { 
					capital_scope = { check_variable = { which = pagan_population value = 10 } }
					NOT = { capital_scope = { check_variable = { which = pagan_population value = 20 } } }
					}
				add_piety = -0.05
				add_legitimacy = 1
				add_republican_tradition = 2
				random = { chance = 25 add_stability_1 = yes }
				}
			if = {
				limit = { 
					capital_scope = { check_variable = { which = pagan_population value = 20 } }
					NOT = { capital_scope = { check_variable = { which = pagan_population value = 30 } } }
					}
				add_piety = -0.10
				add_legitimacy = 2
				add_republican_tradition = 4
				random = { chance = 50 add_stability_1 = yes }
				}
			if = {
				limit = { 
					capital_scope = { check_variable = { which = pagan_population value = 30 } }
					NOT = { capital_scope = { check_variable = { which = pagan_population value = 40 } } }
					}
				add_piety = -0.15
				add_legitimacy = 3
				add_republican_tradition = 6
				random = { chance = 75 add_stability_1 = yes }
				}
			if = {
				limit = { 
					capital_scope = { check_variable = { which = pagan_population value = 40 } }
					NOT = { capital_scope = { check_variable = { which = pagan_population value = 50 } } }
					}
				add_piety = -0.20
				add_legitimacy = 4
				add_republican_tradition = 8
				add_stability_1 = yes
				}
			if = {
				limit = { 
					capital_scope = { check_variable = { which = pagan_population value = 50 } }
					NOT = { capital_scope = { check_variable = { which = pagan_population value = 60 } } }
					}
				add_piety = -0.25
				add_legitimacy = 5
				add_republican_tradition = 10
				add_stability_1 = yes
				}
			if = {
				limit = { 
					capital_scope = { check_variable = { which = pagan_population value = 60 } }
					NOT = { capital_scope = { check_variable = { which = pagan_population value = 70 } } }
					}
				add_piety = -0.30
				add_legitimacy = 6
				add_republican_tradition = 12
				add_stability_1 = yes
				}
			if = {
				limit = { 
					capital_scope = { check_variable = { which = pagan_population value = 70 } }
					NOT = { capital_scope = { check_variable = { which = pagan_population value = 80 } } }
					}
				add_piety = -0.35
				add_legitimacy = 7
				add_republican_tradition = 14
				add_stability_1 = yes
				}
			if = {
				limit = { 
					capital_scope = { check_variable = { which = pagan_population value = 80 } }
					NOT = { capital_scope = { check_variable = { which = pagan_population value = 90 } } }
					}
				add_piety = -0.40
				add_legitimacy = 8
				add_republican_tradition = 16
				add_stability_1 = yes
				}
			if = {
				limit = { capital_scope = { check_variable = { which = pagan_population value = 90 } } }
				add_piety = -0.45
				add_legitimacy = 9
				add_republican_tradition = 18
				add_stability_1 = yes
				}
			add_adm_power = -25
			add_dip_power = -25
			disband_rebels = polynesian_religion_rebels
			disband_rebels = animism_rebels
			disband_rebels = shamanism_rebels
			disband_rebels = west_african_pagan_reformed_rebels
			disband_rebels = shinto_rebels
			disband_rebels = adi_dharam_rebels
			}
		ai_will_do = {
			factor = 1
			}
		}
	millet_system_new_world_pagan = {
		potential = {
			has_country_flag = new_world_pagans_permitted
			NOT = { has_country_flag = new_world_pagans_tolerated }
			religion_group = muslim
			NOT = { religion = druze }
			}
		allow = {
			tech_1800_trigger = yes
			OR = {
				ADM = 3
				advisor = theologian
				}
			OR = {
				DIP = 3
				advisor = statesman
				}
			NOT = { has_country_modifier = religious_intolerance }
			NOT = { piety = 0.60 }
			is_at_war = no
			}
		effect = {
			set_country_flag = new_world_pagans_tolerated
			if = {
				limit = { has_country_flag = new_world_pagan_devsirme }
				clr_country_flag = new_world_pagan_devsirme
				custom_tooltip = end_devsirme
				}
			add_country_modifier = { name = religious_tolerance duration = 1000 }
			if = {
				limit = { NOT = { capital_scope = { check_variable = { which = new_world_pagan_population value = 10 } } } }
				add_legitimacy = 1
				add_republican_tradition = 2
				}
			if = {
				limit = { 
					capital_scope = { check_variable = { which = new_world_pagan_population value = 10 } }
					NOT = { capital_scope = { check_variable = { which = new_world_pagan_population value = 20 } } }
					}
				add_piety = -0.05
				add_legitimacy = 1
				add_republican_tradition = 2
				random = { chance = 25 add_stability_1 = yes }
				}
			if = {
				limit = { 
					capital_scope = { check_variable = { which = new_world_pagan_population value = 20 } }
					NOT = { capital_scope = { check_variable = { which = new_world_pagan_population value = 30 } } }
					}
				add_piety = -0.10
				add_legitimacy = 2
				add_republican_tradition = 4
				random = { chance = 50 add_stability_1 = yes }
				}
			if = {
				limit = { 
					capital_scope = { check_variable = { which = new_world_pagan_population value = 30 } }
					NOT = { capital_scope = { check_variable = { which = new_world_pagan_population value = 40 } } }
					}
				add_piety = -0.15
				add_legitimacy = 3
				add_republican_tradition = 6
				random = { chance = 75 add_stability_1 = yes }
				}
			if = {
				limit = { 
					capital_scope = { check_variable = { which = new_world_pagan_population value = 40 } }
					NOT = { capital_scope = { check_variable = { which = new_world_pagan_population value = 50 } } }
					}
				add_piety = -0.20
				add_legitimacy = 4
				add_republican_tradition = 8
				add_stability_1 = yes
				}
			if = {
				limit = { 
					capital_scope = { check_variable = { which = new_world_pagan_population value = 50 } }
					NOT = { capital_scope = { check_variable = { which = new_world_pagan_population value = 60 } } }
					}
				add_piety = -0.25
				add_legitimacy = 5
				add_republican_tradition = 10
				add_stability_1 = yes
				}
			if = {
				limit = { 
					capital_scope = { check_variable = { which = new_world_pagan_population value = 60 } }
					NOT = { capital_scope = { check_variable = { which = new_world_pagan_population value = 70 } } }
					}
				add_piety = -0.30
				add_legitimacy = 6
				add_republican_tradition = 12
				add_stability_1 = yes
				}
			if = {
				limit = { 
					capital_scope = { check_variable = { which = new_world_pagan_population value = 70 } }
					NOT = { capital_scope = { check_variable = { which = new_world_pagan_population value = 80 } } }
					}
				add_piety = -0.35
				add_legitimacy = 7
				add_republican_tradition = 14
				add_stability_1 = yes
				}
			if = {
				limit = { 
					capital_scope = { check_variable = { which = new_world_pagan_population value = 80 } }
					NOT = { capital_scope = { check_variable = { which = new_world_pagan_population value = 90 } } }
					}
				add_piety = -0.40
				add_legitimacy = 8
				add_republican_tradition = 16
				add_stability_1 = yes
				}
			if = {
				limit = { capital_scope = { check_variable = { which = new_world_pagan_population value = 90 } } }
				add_piety = -0.45
				add_legitimacy = 9
				add_republican_tradition = 18
				add_stability_1 = yes
				}
			add_adm_power = -25
			add_dip_power = -25
			disband_rebels = inti_rebels
			disband_rebels = nahuatl_rebels
			disband_rebels = totemism_rebels
			disband_rebels = pantheism_rebels
			}
		ai_will_do = {
			factor = 1
			}
		}
	millet_system_european_pagan = {
		potential = {
			has_country_flag = european_pagans_permitted
			NOT = { has_country_flag = european_pagans_tolerated }
			religion_group = muslim
			NOT = { religion = druze }
			}
		allow = {
			tech_1800_trigger = yes
			OR = {
				ADM = 3
				advisor = theologian
				}
			OR = {
				DIP = 3
				advisor = statesman
				}
			NOT = { has_country_modifier = religious_intolerance }
			NOT = { piety = 0.60 }
			is_at_war = no
			}
		effect = {
			set_country_flag = european_pagans_tolerated
			if = {
				limit = { has_country_flag = european_pagan_devsirme }
				clr_country_flag = european_pagan_devsirme
				custom_tooltip = end_devsirme
				}
			add_country_modifier = { name = religious_tolerance duration = 1000 }
			if = {
				limit = { NOT = { capital_scope = { check_variable = { which = european_pagan_population value = 10 } } } }
				add_legitimacy = 1
				add_republican_tradition = 2
				}
			if = {
				limit = { 
					capital_scope = { check_variable = { which = european_pagan_population value = 10 } }
					NOT = { capital_scope = { check_variable = { which = european_pagan_population value = 20 } } }
					}
				add_piety = -0.05
				add_legitimacy = 1
				add_republican_tradition = 2
				random = { chance = 25 add_stability_1 = yes }
				}
			if = {
				limit = { 
					capital_scope = { check_variable = { which = european_pagan_population value = 20 } }
					NOT = { capital_scope = { check_variable = { which = european_pagan_population value = 30 } } }
					}
				add_piety = -0.10
				add_legitimacy = 2
				add_republican_tradition = 4
				random = { chance = 50 add_stability_1 = yes }
				}
			if = {
				limit = { 
					capital_scope = { check_variable = { which = european_pagan_population value = 30 } }
					NOT = { capital_scope = { check_variable = { which = european_pagan_population value = 40 } } }
					}
				add_piety = -0.15
				add_legitimacy = 3
				add_republican_tradition = 6
				random = { chance = 75 add_stability_1 = yes }
				}
			if = {
				limit = { 
					capital_scope = { check_variable = { which = european_pagan_population value = 40 } }
					NOT = { capital_scope = { check_variable = { which = european_pagan_population value = 50 } } }
					}
				add_piety = -0.20
				add_legitimacy = 4
				add_republican_tradition = 8
				add_stability_1 = yes
				}
			if = {
				limit = { 
					capital_scope = { check_variable = { which = european_pagan_population value = 50 } }
					NOT = { capital_scope = { check_variable = { which = european_pagan_population value = 60 } } }
					}
				add_piety = -0.25
				add_legitimacy = 5
				add_republican_tradition = 10
				add_stability_1 = yes
				}
			if = {
				limit = { 
					capital_scope = { check_variable = { which = european_pagan_population value = 60 } }
					NOT = { capital_scope = { check_variable = { which = european_pagan_population value = 70 } } }
					}
				add_piety = -0.30
				add_legitimacy = 6
				add_republican_tradition = 12
				add_stability_1 = yes
				}
			if = {
				limit = { 
					capital_scope = { check_variable = { which = european_pagan_population value = 70 } }
					NOT = { capital_scope = { check_variable = { which = european_pagan_population value = 80 } } }
					}
				add_piety = -0.35
				add_legitimacy = 7
				add_republican_tradition = 14
				add_stability_1 = yes
				}
			if = {
				limit = { 
					capital_scope = { check_variable = { which = european_pagan_population value = 80 } }
					NOT = { capital_scope = { check_variable = { which = european_pagan_population value = 90 } } }
					}
				add_piety = -0.40
				add_legitimacy = 8
				add_republican_tradition = 16
				add_stability_1 = yes
				}
			if = {
				limit = { capital_scope = { check_variable = { which = european_pagan_population value = 90 } } }
				add_piety = -0.45
				add_legitimacy = 9
				add_republican_tradition = 18
				add_stability_1 = yes
				}
			add_adm_power = -25
			add_dip_power = -25
			disband_rebels = hellenic_pagan_rebels
			disband_rebels = norse_pagan_reformed_rebels
			disband_rebels = slavic_pagan_reformed_rebels
			disband_rebels = finnish_pagan_reformed_rebels
			disband_rebels = baltic_pagan_reformed_rebels
			}
		ai_will_do = {
			factor = 1
			}
		}

	end_millet_system = {
		potential = {
			religion_group = muslim
			OR = {
				has_country_flag = christians_tolerated
				has_country_flag = jews_tolerated
				has_country_flag = dharmics_tolerated
				has_country_flag = buddhists_tolerated
				has_country_flag = pagans_tolerated
				has_country_flag = new_world_pagans_tolerated
				has_country_flag = european_pagans_tolerated
				}
			}
		allow = {
			ADM = 4
			piety = -0.20
			is_at_war = no
			NOT = { has_country_modifier = religious_tolerance }
			}
		effect = {
			clr_country_flag = christians_tolerated
			clr_country_flag = christians_permitted
			clr_country_flag = jews_tolerated
			clr_country_flag = jews_permitted
			clr_country_flag = dharmics_tolerated
			clr_country_flag = dharmics_permitted
			clr_country_flag = buddhists_tolerated
			clr_country_flag = buddhists_permitted
			clr_country_flag = pagans_tolerated
			clr_country_flag = pagans_permitted
			clr_country_flag = new_world_pagans_tolerated
			clr_country_flag = new_world_pagans_permitted
			clr_country_flag = european_pagans_tolerated
			clr_country_flag = european_pagans_permitted
			if = {
				limit = { 
					capital_scope = { check_variable = { which = millet_population value = 10 } } 
					NOT = { capital_scope = { check_variable = { which = millet_population value = 20 } } }
					}
				subtract_stability_1 = yes
				}
			if = {
				limit = { 
					capital_scope = { check_variable = { which = millet_population value = 20 } } 
					NOT = { capital_scope = { check_variable = { which = millet_population value = 30 } } }
					}
				subtract_stability_2 = yes
				}
			if = {
				limit = { 
					capital_scope = { check_variable = { which = millet_population value = 30 } } 
					NOT = { capital_scope = { check_variable = { which = millet_population value = 40 } } }
					}
				subtract_stability_3 = yes
				}
			if = {
				limit = { 
					capital_scope = { check_variable = { which = millet_population value = 40 } } 
					NOT = { capital_scope = { check_variable = { which = millet_population value = 50 } } }
					}
				subtract_stability_4 = yes
				}
			if = {
				limit = { capital_scope = { check_variable = { which = millet_population value = 50 } } }
				subtract_stability_5 = yes
				}
			}
		ai_will_do = {
			factor = 1
			modifier = {
				NOT = { piety = 0.20 }
				factor = 0
				}
			modifier = {
				capital_scope = { check_variable = { which = millet_population value = 20 } }
				factor = 0
				}
			}
		}
		
	caliph_investiture = {
		potential = {
			religion = sunni
			OR = {
				any_known_country = { has_country_flag = caliph }
				has_country_flag = caliph
				}
			NOT = { has_country_modifier = unhappy_church_powerful }
			NOT = { has_country_modifier = unhappy_church_strong }
			NOT = { has_country_modifier = unhappy_church_moderate }
			NOT = { has_country_modifier = unhappy_church_weak }
			NOT = { has_country_modifier = unhappy_church_impotent }
			NOT = { has_country_modifier = religious_scandal_country_strong }
			NOT = { has_country_modifier = religious_scandal_country }
			NOT = { has_country_modifier = religious_scandal_country_weak }
			piety = -0.60
			}
		allow = {
			is_at_war = no
			has_regency = no
			dip_power = 25
			custom_trigger_tooltip = {
				tooltip = caliph_available
				NOT = { has_country_flag = caliph_investiture } #Removed upon new ruler
				}
			custom_trigger_tooltip = {
				tooltip = caliph_rivalry
				OR = {
					has_country_flag = caliph
					any_known_country = {
						has_country_flag = caliph
						OR = {
							overlord_of = ROOT
							all_country = {
								OR = {
									NOT = { has_country_flag = caliph }
									NOT = { check_variable = { which = caliph_authority which = PREV } }
									is_variable_equal = { which = caliph_authority which = PREV } 
									}
								}
							}
						NOT = { war_with = ROOT }
						NOT = { truce_with = ROOT }
						NOT = { reverse_has_opinion_modifier = { who = ROOT modifier = caliph_good } }
						NOT = { reverse_has_opinion_modifier = { who = ROOT modifier = caliph_bad } }
						}
					}
				}
			}
		effect = {
			add_dip_power = -25
			set_country_flag = caliph_investiture
			if = {
				limit = { has_country_flag = caliph }
				if = { 
					limit = { has_country_flag = ruler_as_caliph }
					country_event = { id = dg_islam.068 days = 0 }
					}
				if = { 
					limit = { NOT = { has_country_flag = ruler_as_caliph } }
					add_treasury = -5
					random_list = { 
						70 = { country_event = { id = dg_islam.068 days = 30 } }
						30 = { country_event = { id = dg_islam.069 days = 30 } }
						}
					}
				}
			if = { 
				limit = { NOT = { has_country_flag = caliph } }
				custom_tooltip = caliph_journey
				if = { 
					limit = { overlord = { has_country_flag = caliph } }
					add_treasury = -5
					random_known_country = {
						limit = { 
							overlord_of = ROOT
							has_country_flag = caliph 
							}
						country_event = { id = dg_islam.067 days = 30 }
						}
					}
				if = {
					limit = {
						NOT = { overlord = { has_country_flag = caliph } }
						any_known_country = {
							has_country_flag = caliph 
							all_country = {
								OR = {
									NOT = { has_country_flag = caliph }
									NOT = { check_variable = { which = caliph_authority which = PREV } }
									is_variable_equal = { which = caliph_authority which = PREV } 
									}
								}
							NOT = { war_with = ROOT }
							NOT = { truce_with = ROOT }
							NOT = { reverse_has_opinion_modifier = { who = ROOT modifier = caliph_good } }
							NOT = { reverse_has_opinion_modifier = { who = ROOT modifier = caliph_bad } }
							NOT = { capital_distance = { who = ROOT distance = 150 } }
							}
						}
					add_treasury = -10
					random_known_country = {
						limit = { 
							has_country_flag = caliph 
							all_country = {
								OR = {
									NOT = { has_country_flag = caliph }
									NOT = { check_variable = { which = caliph_authority which = PREV } }
									is_variable_equal = { which = caliph_authority which = PREV } 
									}
								}
							NOT = { war_with = ROOT }
							NOT = { truce_with = ROOT }
							NOT = { reverse_has_opinion_modifier = { who = ROOT modifier = caliph_good } }
							NOT = { reverse_has_opinion_modifier = { who = ROOT modifier = caliph_bad } }
							}
						country_event = { id = dg_islam.067 days = 60 }
						}
					}
				if = {
					limit = {
						NOT = { overlord = { has_country_flag = caliph } }
						any_known_country = {
							has_country_flag = caliph 
							all_country = {
								OR = {
									NOT = { has_country_flag = caliph }
									NOT = { check_variable = { which = caliph_authority which = PREV } }
									is_variable_equal = { which = caliph_authority which = PREV } 
									}
								}
							NOT = { war_with = ROOT }
							NOT = { truce_with = ROOT }
							NOT = { reverse_has_opinion_modifier = { who = ROOT modifier = caliph_good } }
							NOT = { reverse_has_opinion_modifier = { who = ROOT modifier = caliph_bad } }
							capital_distance = { who = ROOT distance = 150 }
							NOT = { capital_distance = { who = ROOT distance = 300 } }
							}
						}
					add_treasury = -20
					random_known_country = {
						limit = { 
							has_country_flag = caliph 
							all_country = {
								OR = {
									NOT = { has_country_flag = caliph }
									NOT = { check_variable = { which = caliph_authority which = PREV } }
									is_variable_equal = { which = caliph_authority which = PREV } 
									}
								}
							NOT = { war_with = ROOT }
							NOT = { truce_with = ROOT }
							NOT = { reverse_has_opinion_modifier = { who = ROOT modifier = caliph_good } }
							NOT = { reverse_has_opinion_modifier = { who = ROOT modifier = caliph_bad } }
							}
						country_event = { id = dg_islam.067 days = 120 }
						}
					}
				if = {
					limit = {
						NOT = { overlord = { has_country_flag = caliph } }
						any_known_country = {
							has_country_flag = caliph 
							all_country = {
								OR = {
									NOT = { has_country_flag = caliph }
									NOT = { check_variable = { which = caliph_authority which = PREV } }
									is_variable_equal = { which = caliph_authority which = PREV } 
									}
								}
							NOT = { war_with = ROOT }
							NOT = { truce_with = ROOT }
							NOT = { reverse_has_opinion_modifier = { who = ROOT modifier = caliph_good } }
							NOT = { reverse_has_opinion_modifier = { who = ROOT modifier = caliph_bad } }
							capital_distance = { who = ROOT distance = 300 }
							NOT = { capital_distance = { who = ROOT distance = 600 } }
							}
						}
					add_treasury = -40
					random_known_country = {
						limit = { 
							has_country_flag = caliph 
							all_country = {
								OR = {
									NOT = { has_country_flag = caliph }
									NOT = { check_variable = { which = caliph_authority which = PREV } }
									is_variable_equal = { which = caliph_authority which = PREV } 
									}
								}
							NOT = { war_with = ROOT }
							NOT = { truce_with = ROOT }
							NOT = { reverse_has_opinion_modifier = { who = ROOT modifier = caliph_good } }
							NOT = { reverse_has_opinion_modifier = { who = ROOT modifier = caliph_bad } }
							}
						country_event = { id = dg_islam.067 days = 240 }
						}
					}
				if = {
					limit = {
						NOT = { overlord = { has_country_flag = caliph } }
						any_known_country = {
							has_country_flag = caliph 
							all_country = {
								OR = {
									NOT = { has_country_flag = caliph }
									NOT = { check_variable = { which = caliph_authority which = PREV } }
									is_variable_equal = { which = caliph_authority which = PREV } 
									}
								}
							NOT = { war_with = ROOT }
							NOT = { truce_with = ROOT }
							NOT = { reverse_has_opinion_modifier = { who = ROOT modifier = caliph_good } }
							NOT = { reverse_has_opinion_modifier = { who = ROOT modifier = caliph_bad } }
							capital_distance = { who = ROOT distance = 600 }
							NOT = { capital_distance = { who = ROOT distance = 1200 } }
							}
						}
					add_treasury = -80
					random_known_country = {
						limit = { 
							has_country_flag = caliph 
							all_country = {
								OR = {
									NOT = { has_country_flag = caliph }
									NOT = { check_variable = { which = caliph_authority which = PREV } }
									is_variable_equal = { which = caliph_authority which = PREV } 
									}
								}
							NOT = { war_with = ROOT }
							NOT = { truce_with = ROOT }
							NOT = { reverse_has_opinion_modifier = { who = ROOT modifier = caliph_good } }
							NOT = { reverse_has_opinion_modifier = { who = ROOT modifier = caliph_bad } }
							}
						country_event = { id = dg_islam.067 days = 480 }
						}
					}
				if = {
					limit = {
						NOT = { overlord = { has_country_flag = caliph } }
						any_known_country = {
							has_country_flag = caliph 
							all_country = {
								OR = {
									NOT = { has_country_flag = caliph }
									NOT = { check_variable = { which = caliph_authority which = PREV } }
									is_variable_equal = { which = caliph_authority which = PREV } 
									}
								}
							NOT = { war_with = ROOT }
							NOT = { truce_with = ROOT }
							NOT = { reverse_has_opinion_modifier = { who = ROOT modifier = caliph_good } }
							NOT = { reverse_has_opinion_modifier = { who = ROOT modifier = caliph_bad } }
							capital_distance = { who = ROOT distance = 1200 }
							}
						}
					add_treasury = -160
					random_known_country = {
						limit = { 
							has_country_flag = caliph 
							all_country = {
								OR = {
									NOT = { has_country_flag = caliph }
									NOT = { check_variable = { which = caliph_authority which = PREV } }
									is_variable_equal = { which = caliph_authority which = PREV } 
									}
								}
							NOT = { war_with = ROOT }
							NOT = { truce_with = ROOT }
							NOT = { reverse_has_opinion_modifier = { who = ROOT modifier = caliph_good } }
							NOT = { reverse_has_opinion_modifier = { who = ROOT modifier = caliph_bad } }
							}
						country_event = { id = dg_islam.067 days = 960 }
						}
					}
				}
			}
		ai_will_do = {
			factor = 1
			modifier = {
				is_bankrupt = yes
				factor = 0
				}
			modifier = {
				num_of_loans = 1
				factor = 0
				}
			modifier = {
				NOT = { dip_power = 100 }
				factor = 0
				}
			modifier = {
				OR = { 
					NOT = { treasury = 1600 }
					NOT = { piety = 0.60 }
					}
				NOT = { has_country_flag = caliph }
				NOT = { overlord = { has_country_flag = caliph } }
				any_known_country = {
					has_country_flag = caliph 
					all_country = {
						OR = {
							NOT = { has_country_flag = caliph }
							NOT = { check_variable = { which = caliph_authority which = PREV } }
							is_variable_equal = { which = caliph_authority which = PREV } 
							}
						}
					capital_distance = { who = ROOT distance = 1200 }
					NOT = { war_with = ROOT }
					NOT = { truce_with = ROOT }
					NOT = { reverse_has_opinion_modifier = { who = ROOT modifier = caliph_good } }
					NOT = { reverse_has_opinion_modifier = { who = ROOT modifier = caliph_bad } }
					}
				factor = 0
				}
			modifier = {
				OR = { 
					NOT = { treasury = 800 }
					NOT = { piety = 0.20 }
					}
				NOT = { has_country_flag = caliph }
				NOT = { overlord = { has_country_flag = caliph } }
				any_known_country = {
					has_country_flag = caliph 
					all_country = {
						OR = {
							NOT = { has_country_flag = caliph }
							NOT = { check_variable = { which = caliph_authority which = PREV } }
							is_variable_equal = { which = caliph_authority which = PREV } 
							}
						}
					capital_distance = { who = ROOT distance = 600 }
					NOT = { war_with = ROOT }
					NOT = { truce_with = ROOT }
					NOT = { reverse_has_opinion_modifier = { who = ROOT modifier = caliph_good } }
					NOT = { reverse_has_opinion_modifier = { who = ROOT modifier = caliph_bad } }
					}
				factor = 0
				}
			modifier = {
				OR = { 
					NOT = { treasury = 400 }
					NOT = { piety = -0.20 }
					}
				NOT = { has_country_flag = caliph }
				NOT = { overlord = { has_country_flag = caliph } }
				any_known_country = {
					has_country_flag = caliph 
					all_country = {
						OR = {
							NOT = { has_country_flag = caliph }
							NOT = { check_variable = { which = caliph_authority which = PREV } }
							is_variable_equal = { which = caliph_authority which = PREV } 
							}
						}
					capital_distance = { who = ROOT distance = 300 }
					NOT = { war_with = ROOT }
					NOT = { truce_with = ROOT }
					NOT = { reverse_has_opinion_modifier = { who = ROOT modifier = caliph_good } }
					NOT = { reverse_has_opinion_modifier = { who = ROOT modifier = caliph_bad } }
					}
				factor = 0
				}
			modifier = {
				OR = { 
					NOT = { treasury = 200 }
					NOT = { piety = -0.60 }
					}
				NOT = { has_country_flag = caliph }
				NOT = { overlord = { has_country_flag = caliph } }
				any_known_country = {
					has_country_flag = caliph 
					all_country = {
						OR = {
							NOT = { has_country_flag = caliph }
							NOT = { check_variable = { which = caliph_authority which = PREV } }
							is_variable_equal = { which = caliph_authority which = PREV } 
							}
						}
					capital_distance = { who = ROOT distance = 150 }
					NOT = { war_with = ROOT }
					NOT = { truce_with = ROOT }
					NOT = { reverse_has_opinion_modifier = { who = ROOT modifier = caliph_good } }
					NOT = { reverse_has_opinion_modifier = { who = ROOT modifier = caliph_bad } }
					}
				factor = 0
				}
			modifier = {
				NOT = { treasury = 100 }
				NOT = { has_country_flag = caliph }
				NOT = { overlord = { has_country_flag = caliph } }
				any_known_country = {
					has_country_flag = caliph 
					all_country = {
						OR = {
							NOT = { has_country_flag = caliph }
							NOT = { check_variable = { which = caliph_authority which = PREV } }
							is_variable_equal = { which = caliph_authority which = PREV } 
							}
						}
					NOT = { capital_distance = { who = ROOT distance = 150 } }
					NOT = { war_with = ROOT }
					NOT = { truce_with = ROOT }
					NOT = { reverse_has_opinion_modifier = { who = ROOT modifier = caliph_good } }
					NOT = { reverse_has_opinion_modifier = { who = ROOT modifier = caliph_bad } }
					}
				factor = 0
				}
			modifier = {
				NOT = { treasury = 50 }
				NOT = { overlord = { has_country_flag = caliph } }
				NOT = { has_country_flag = ruler_as_caliph }
				factor = 0
				}
			modifier = {
				NOT = { 
					OR = {
						any_owned_province = { 
							religion_group = muslim
							nationalism = 1
							}
						NOT = { legitimacy = 80 }
						}
					}
				factor = 0
				}
			}
		}
	dharmic_convert_to_islam = { 
		potential = {
			OR = { 
				religion_group = dharmic
				religion = vajrayana
				religion = buddhism
				}
			any_owned_province = { 
				has_owner_culture = yes 
				religion_group = muslim 
				}
			}
		allow = { 
			is_defender_of_faith = no
			is_force_converted = no
			custom_trigger_tooltip = { 
				OR = { 
					dominant_religion = sunni
					dominant_religion = shiite
					dominant_religion = ibadi
					dominant_religion = wahhabi
					dominant_religion = druze
					}
				tooltip = dominant_religion_islam
				}
			}
		effect = { 
			if = { 
				limit = { dominant_religion = sunni }
				if = { 
					limit = { 
						NOT = { num_of_religion = { religion = sunni value = 0.25 } }
						}
					custom_tooltip = convert_population_0
					subtract_stability_3 = yes
					}
				if = { 
					limit = { 
						num_of_religion = { religion = sunni value = 0.25 }
						NOT = { dominant_religion = sunni }
						}
					custom_tooltip = convert_population_25
					subtract_stability_2 = yes
					}
				if = { 
					limit = { 
						dominant_religion = sunni
						NOT = { num_of_religion = { religion = sunni value = 0.75 } }
						}
					custom_tooltip = convert_population_50
					subtract_stability_1 = yes
					}
				if = { 
					limit = { 
						dominant_religion = sunni
						num_of_religion = { religion = sunni value = 0.75 }
						}
					custom_tooltip = convert_population_75
					}
				if = { 
					limit = { patriarch_authority = 0.75 }
					custom_tooltip = convert_church_strong
					subtract_stability_3 = yes
					}
				if = { 
					limit = { 
						patriarch_authority = 0.50
						NOT = { patriarch_authority = 0.75 }
						}
					custom_tooltip = convert_piety_moderate
					subtract_stability_2 = yes
					}
				if = { 
					limit = { 
						patriarch_authority = 0.25
						NOT = { patriarch_authority = 0.50 }
						}
					custom_tooltip = convert_church_weak
					subtract_stability_1 = yes
					}
				if = { 
					limit = { NOT = { patriarch_authority = 0.25 } }
					custom_tooltip = convert_church_insignificant
					}
				if = {
					limit = { 
						NOT = { capital_scope = { religion = sunni } }
						NOT = { ADM = 3 }
						}
					custom_tooltip = convert_ruler_incompetent
					}
				if = {
					limit = { 
						capital_scope = { religion = sunni }
						NOT = { ADM = 3 }
						}
					custom_tooltip = convert_ruler_weak
					add_stability_1 = yes
					}
				if = {
					limit = { 
						NOT = { capital_scope = { religion = sunni } }
						ADM = 3
						NOT = { ADM = 5 }
						}
					custom_tooltip = convert_ruler_weak
					add_stability_1 = yes
					}
				if = {
					limit = { 
						capital_scope = { religion = sunni }
						ADM = 3
						NOT = { ADM = 5 }
						}
					custom_tooltip = convert_ruler_moderate
					add_stability_2 = yes
					}
				if = {
					limit = { 
						NOT = { capital_scope = { religion = sunni } }
						ADM = 5
						}
					custom_tooltip = convert_ruler_moderate
					add_stability_2 = yes
					}
				if = {
					limit = { 
						capital_scope = { religion = sunni }
						ADM = 5
						}
					custom_tooltip = convert_ruler_strong
					add_stability_3 = yes
					}
				if = {
					limit = { advisor = theologian }
					custom_tooltip = convert_theologian
					add_stability_1 = yes
					}
				if = {
					limit = { 
						NOT = { has_country_flag = was_catholic }
						check_variable = { which = sympathy_to_old_religion value = 1 }
						}
					custom_tooltip = convert_recent
					add_stability_1 = yes
					}
				if = {
					limit = { 
						has_country_flag = was_catholic
						NOT = { check_variable = { which = sympathy_to_old_religion value = 1 } }
						}
					custom_tooltip = convert_previous_old
					add_stability_1 = yes
					}
				if = {
					limit = { 
						has_country_flag = was_catholic
						check_variable = { which = sympathy_to_old_religion value = 1 }
						}
					custom_tooltip = convert_previous_recent
					add_stability_2 = yes
					}
				change_religion = sunni
				}
			if = { 
				limit = { dominant_religion = shiite }
				if = { 
					limit = { 
						NOT = { num_of_religion = { religion = shiite value = 0.25 } }
						}
					custom_tooltip = convert_population_0
					subtract_stability_3 = yes
					}
				if = { 
					limit = { 
						num_of_religion = { religion = shiite value = 0.25 }
						NOT = { dominant_religion = shiite }
						}
					custom_tooltip = convert_population_25
					subtract_stability_2 = yes
					}
				if = { 
					limit = { 
						dominant_religion = shiite
						NOT = { num_of_religion = { religion = shiite value = 0.75 } }
						}
					custom_tooltip = convert_population_50
					subtract_stability_1 = yes
					}
				if = { 
					limit = { 
						dominant_religion = shiite
						num_of_religion = { religion = shiite value = 0.75 }
						}
					custom_tooltip = convert_population_75
					}
				if = { 
					limit = { patriarch_authority = 0.75 }
					custom_tooltip = convert_church_strong
					subtract_stability_3 = yes
					}
				if = { 
					limit = { 
						patriarch_authority = 0.50
						NOT = { patriarch_authority = 0.75 }
						}
					custom_tooltip = convert_piety_moderate
					subtract_stability_2 = yes
					}
				if = { 
					limit = { 
						patriarch_authority = 0.25
						NOT = { patriarch_authority = 0.50 }
						}
					custom_tooltip = convert_church_weak
					subtract_stability_1 = yes
					}
				if = { 
					limit = { NOT = { patriarch_authority = 0.25 } }
					custom_tooltip = convert_church_insignificant
					}
				if = {
					limit = { 
						NOT = { capital_scope = { religion = shiite } }
						NOT = { ADM = 3 }
						}
					custom_tooltip = convert_ruler_incompetent
					}
				if = {
					limit = { 
						capital_scope = { religion = shiite }
						NOT = { ADM = 3 }
						}
					custom_tooltip = convert_ruler_weak
					add_stability_1 = yes
					}
				if = {
					limit = { 
						NOT = { capital_scope = { religion = shiite } }
						ADM = 3
						NOT = { ADM = 5 }
						}
					custom_tooltip = convert_ruler_weak
					add_stability_1 = yes
					}
				if = {
					limit = { 
						capital_scope = { religion = shiite }
						ADM = 3
						NOT = { ADM = 5 }
						}
					custom_tooltip = convert_ruler_moderate
					add_stability_2 = yes
					}
				if = {
					limit = { 
						NOT = { capital_scope = { religion = shiite } }
						ADM = 5
						}
					custom_tooltip = convert_ruler_moderate
					add_stability_2 = yes
					}
				if = {
					limit = { 
						capital_scope = { religion = shiite }
						ADM = 5
						}
					custom_tooltip = convert_ruler_strong
					add_stability_3 = yes
					}
				if = {
					limit = { advisor = theologian }
					custom_tooltip = convert_theologian
					add_stability_1 = yes
					}
				if = {
					limit = { 
						NOT = { has_country_flag = was_catholic }
						check_variable = { which = sympathy_to_old_religion value = 1 }
						}
					custom_tooltip = convert_recent
					add_stability_1 = yes
					}
				if = {
					limit = { 
						has_country_flag = was_catholic
						NOT = { check_variable = { which = sympathy_to_old_religion value = 1 } }
						}
					custom_tooltip = convert_previous_old
					add_stability_1 = yes
					}
				if = {
					limit = { 
						has_country_flag = was_catholic
						check_variable = { which = sympathy_to_old_religion value = 1 }
						}
					custom_tooltip = convert_previous_recent
					add_stability_2 = yes
					}
				change_religion = shiite
				}
			if = { 
				limit = { dominant_religion = ibadi }
				if = { 
					limit = { 
						NOT = { num_of_religion = { religion = ibadi value = 0.25 } }
						}
					custom_tooltip = convert_population_0
					subtract_stability_3 = yes
					}
				if = { 
					limit = { 
						num_of_religion = { religion = ibadi value = 0.25 }
						NOT = { dominant_religion = ibadi }
						}
					custom_tooltip = convert_population_25
					subtract_stability_2 = yes
					}
				if = { 
					limit = { 
						dominant_religion = ibadi
						NOT = { num_of_religion = { religion = ibadi value = 0.75 } }
						}
					custom_tooltip = convert_population_50
					subtract_stability_1 = yes
					}
				if = { 
					limit = { 
						dominant_religion = ibadi
						num_of_religion = { religion = ibadi value = 0.75 }
						}
					custom_tooltip = convert_population_75
					}
				if = { 
					limit = { patriarch_authority = 0.75 }
					custom_tooltip = convert_church_strong
					subtract_stability_3 = yes
					}
				if = { 
					limit = { 
						patriarch_authority = 0.50
						NOT = { patriarch_authority = 0.75 }
						}
					custom_tooltip = convert_piety_moderate
					subtract_stability_2 = yes
					}
				if = { 
					limit = { 
						patriarch_authority = 0.25
						NOT = { patriarch_authority = 0.50 }
						}
					custom_tooltip = convert_church_weak
					subtract_stability_1 = yes
					}
				if = { 
					limit = { NOT = { patriarch_authority = 0.25 } }
					custom_tooltip = convert_church_insignificant
					}
				if = {
					limit = { 
						NOT = { capital_scope = { religion = ibadi } }
						NOT = { ADM = 3 }
						}
					custom_tooltip = convert_ruler_incompetent
					}
				if = {
					limit = { 
						capital_scope = { religion = ibadi }
						NOT = { ADM = 3 }
						}
					custom_tooltip = convert_ruler_weak
					add_stability_1 = yes
					}
				if = {
					limit = { 
						NOT = { capital_scope = { religion = ibadi } }
						ADM = 3
						NOT = { ADM = 5 }
						}
					custom_tooltip = convert_ruler_weak
					add_stability_1 = yes
					}
				if = {
					limit = { 
						capital_scope = { religion = ibadi }
						ADM = 3
						NOT = { ADM = 5 }
						}
					custom_tooltip = convert_ruler_moderate
					add_stability_2 = yes
					}
				if = {
					limit = { 
						NOT = { capital_scope = { religion = ibadi } }
						ADM = 5
						}
					custom_tooltip = convert_ruler_moderate
					add_stability_2 = yes
					}
				if = {
					limit = { 
						capital_scope = { religion = ibadi }
						ADM = 5
						}
					custom_tooltip = convert_ruler_strong
					add_stability_3 = yes
					}
				if = {
					limit = { advisor = theologian }
					custom_tooltip = convert_theologian
					add_stability_1 = yes
					}
				if = {
					limit = { 
						NOT = { has_country_flag = was_catholic }
						check_variable = { which = sympathy_to_old_religion value = 1 }
						}
					custom_tooltip = convert_recent
					add_stability_1 = yes
					}
				if = {
					limit = { 
						has_country_flag = was_catholic
						NOT = { check_variable = { which = sympathy_to_old_religion value = 1 } }
						}
					custom_tooltip = convert_previous_old
					add_stability_1 = yes
					}
				if = {
					limit = { 
						has_country_flag = was_catholic
						check_variable = { which = sympathy_to_old_religion value = 1 }
						}
					custom_tooltip = convert_previous_recent
					add_stability_2 = yes
					}
				change_religion = ibadi
				}
			if = { 
				limit = { dominant_religion = wahhabi }
				if = { 
					limit = { 
						NOT = { num_of_religion = { religion = wahhabi value = 0.25 } }
						}
					custom_tooltip = convert_population_0
					subtract_stability_3 = yes
					}
				if = { 
					limit = { 
						num_of_religion = { religion = wahhabi value = 0.25 }
						NOT = { dominant_religion = wahhabi }
						}
					custom_tooltip = convert_population_25
					subtract_stability_2 = yes
					}
				if = { 
					limit = { 
						dominant_religion = wahhabi
						NOT = { num_of_religion = { religion = wahhabi value = 0.75 } }
						}
					custom_tooltip = convert_population_50
					subtract_stability_1 = yes
					}
				if = { 
					limit = { 
						dominant_religion = wahhabi
						num_of_religion = { religion = wahhabi value = 0.75 }
						}
					custom_tooltip = convert_population_75
					}
				if = { 
					limit = { patriarch_authority = 0.75 }
					custom_tooltip = convert_church_strong
					subtract_stability_3 = yes
					}
				if = { 
					limit = { 
						patriarch_authority = 0.50
						NOT = { patriarch_authority = 0.75 }
						}
					custom_tooltip = convert_piety_moderate
					subtract_stability_2 = yes
					}
				if = { 
					limit = { 
						patriarch_authority = 0.25
						NOT = { patriarch_authority = 0.50 }
						}
					custom_tooltip = convert_church_weak
					subtract_stability_1 = yes
					}
				if = { 
					limit = { NOT = { patriarch_authority = 0.25 } }
					custom_tooltip = convert_church_insignificant
					}
				if = {
					limit = { 
						NOT = { capital_scope = { religion = wahhabi } }
						NOT = { ADM = 3 }
						}
					custom_tooltip = convert_ruler_incompetent
					}
				if = {
					limit = { 
						capital_scope = { religion = wahhabi }
						NOT = { ADM = 3 }
						}
					custom_tooltip = convert_ruler_weak
					add_stability_1 = yes
					}
				if = {
					limit = { 
						NOT = { capital_scope = { religion = wahhabi } }
						ADM = 3
						NOT = { ADM = 5 }
						}
					custom_tooltip = convert_ruler_weak
					add_stability_1 = yes
					}
				if = {
					limit = { 
						capital_scope = { religion = wahhabi }
						ADM = 3
						NOT = { ADM = 5 }
						}
					custom_tooltip = convert_ruler_moderate
					add_stability_2 = yes
					}
				if = {
					limit = { 
						NOT = { capital_scope = { religion = wahhabi } }
						ADM = 5
						}
					custom_tooltip = convert_ruler_moderate
					add_stability_2 = yes
					}
				if = {
					limit = { 
						capital_scope = { religion = wahhabi }
						ADM = 5
						}
					custom_tooltip = convert_ruler_strong
					add_stability_3 = yes
					}
				if = {
					limit = { advisor = theologian }
					custom_tooltip = convert_theologian
					add_stability_1 = yes
					}
				if = {
					limit = { 
						NOT = { has_country_flag = was_catholic }
						check_variable = { which = sympathy_to_old_religion value = 1 }
						}
					custom_tooltip = convert_recent
					add_stability_1 = yes
					}
				if = {
					limit = { 
						has_country_flag = was_catholic
						NOT = { check_variable = { which = sympathy_to_old_religion value = 1 } }
						}
					custom_tooltip = convert_previous_old
					add_stability_1 = yes
					}
				if = {
					limit = { 
						has_country_flag = was_catholic
						check_variable = { which = sympathy_to_old_religion value = 1 }
						}
					custom_tooltip = convert_previous_recent
					add_stability_2 = yes
					}
				change_religion = wahhabi
				}
			if = { 
				limit = { dominant_religion = druze }
				if = { 
					limit = { 
						NOT = { num_of_religion = { religion = druze value = 0.25 } }
						}
					custom_tooltip = convert_population_0
					subtract_stability_3 = yes
					}
				if = { 
					limit = { 
						num_of_religion = { religion = druze value = 0.25 }
						NOT = { dominant_religion = druze }
						}
					custom_tooltip = convert_population_25
					subtract_stability_2 = yes
					}
				if = { 
					limit = { 
						dominant_religion = druze
						NOT = { num_of_religion = { religion = druze value = 0.75 } }
						}
					custom_tooltip = convert_population_50
					subtract_stability_1 = yes
					}
				if = { 
					limit = { 
						dominant_religion = druze
						num_of_religion = { religion = druze value = 0.75 }
						}
					custom_tooltip = convert_population_75
					}
				if = { 
					limit = { patriarch_authority = 0.75 }
					custom_tooltip = convert_church_strong
					subtract_stability_3 = yes
					}
				if = { 
					limit = { 
						patriarch_authority = 0.50
						NOT = { patriarch_authority = 0.75 }
						}
					custom_tooltip = convert_piety_moderate
					subtract_stability_2 = yes
					}
				if = { 
					limit = { 
						patriarch_authority = 0.25
						NOT = { patriarch_authority = 0.50 }
						}
					custom_tooltip = convert_church_weak
					subtract_stability_1 = yes
					}
				if = { 
					limit = { NOT = { patriarch_authority = 0.25 } }
					custom_tooltip = convert_church_insignificant
					}
				if = {
					limit = { 
						NOT = { capital_scope = { religion = druze } }
						NOT = { ADM = 3 }
						}
					custom_tooltip = convert_ruler_incompetent
					}
				if = {
					limit = { 
						capital_scope = { religion = druze }
						NOT = { ADM = 3 }
						}
					custom_tooltip = convert_ruler_weak
					add_stability_1 = yes
					}
				if = {
					limit = { 
						NOT = { capital_scope = { religion = druze } }
						ADM = 3
						NOT = { ADM = 5 }
						}
					custom_tooltip = convert_ruler_weak
					add_stability_1 = yes
					}
				if = {
					limit = { 
						capital_scope = { religion = druze }
						ADM = 3
						NOT = { ADM = 5 }
						}
					custom_tooltip = convert_ruler_moderate
					add_stability_2 = yes
					}
				if = {
					limit = { 
						NOT = { capital_scope = { religion = druze } }
						ADM = 5
						}
					custom_tooltip = convert_ruler_moderate
					add_stability_2 = yes
					}
				if = {
					limit = { 
						capital_scope = { religion = druze }
						ADM = 5
						}
					custom_tooltip = convert_ruler_strong
					add_stability_3 = yes
					}
				if = {
					limit = { advisor = theologian }
					custom_tooltip = convert_theologian
					add_stability_1 = yes
					}
				if = {
					limit = { 
						NOT = { has_country_flag = was_catholic }
						check_variable = { which = sympathy_to_old_religion value = 1 }
						}
					custom_tooltip = convert_recent
					add_stability_1 = yes
					}
				if = {
					limit = { 
						has_country_flag = was_catholic
						NOT = { check_variable = { which = sympathy_to_old_religion value = 1 } }
						}
					custom_tooltip = convert_previous_old
					add_stability_1 = yes
					}
				if = {
					limit = { 
						has_country_flag = was_catholic
						check_variable = { which = sympathy_to_old_religion value = 1 }
						}
					custom_tooltip = convert_previous_recent
					add_stability_2 = yes
					}
				change_religion = druze
				}
			}
		ai_will_do = { 
			factor = 1 
			}
		}

	appoint_emir_al_hajj = {
		potential = {
			owns_or_vassal_of = 385
			religion_group = muslim
			NOT = { religion = druze }
			NOT = { has_country_modifier = emir_al_hajj }
			}
		allow = {
			has_regency = no
			is_at_war = no
			ADM = 3
			}
		effect = {
			add_adm_power = -25
			add_country_modifier = { name = emir_al_hajj duration = -1 }
			}
		ai_will_do = { factor = 1 }
		}

	establish_meccan_protectorate = {
		potential = {
			owns = 385
			religion_group = muslim
			NOT = { religion = druze }
			NOT = { 385 = { has_province_modifier = meccan_protectorate } }
			}
		allow = {
			is_at_war = no
			MIL = 3
			}
		effect = {
			add_mil_power = -25
			385 = {
				add_core = ROOT
				add_unrest = -5
				add_province_modifier = { name = meccan_protectorate duration = -1 }
				}
			384 = { add_core = ROOT }
			if = {
				limit = { owns = 384 }
				384 = {
					add_unrest = -5
					add_province_modifier = { name = meccan_protectorate duration = -1 }
					}
				}
			}
		ai_will_do = { 
			factor = 1 
			modifier = {
				bedouin_culture_country_trigger = yes
				385 = { is_core = owner }
				384 = { is_core = owner }
				legitimacy = 90
				factor = 0
				}
			modifier = {
				government = republic
				factor = 0
				}
			}
		}
	disestablish_meccan_protectorate = {
		potential = {
			OR = { owns = 385 owns = 384 }
			any_owned_province = { has_province_modifier = meccan_protectorate }
			}
		allow = {
			is_at_war = no
			MIL = 3
			}
		effect = {
			add_mil_power = -50
			every_owned_province = {
				limit = { has_province_modifier = meccan_protectorate }
				remove_province_modifier = meccan_protectorate
				add_unrest = 10
				add_province_modifier = { name = religious_scandal_province duration = 3000 }
				}
			if = {
				limit = { religion_group = muslim NOT = { religion = druze } }
				if = {
					limit = { patriarch_authority = 0.80 }
					add_country_modifier = { name = unhappy_church_powerful duration = 3000 }
					}
				if = {
					limit = { 
						patriarch_authority = 0.60 
						NOT = { patriarch_authority = 0.80 }
						}
					add_country_modifier = { name = unhappy_church_strong duration = 3000 }
					}
				if = {
					limit = { 
						patriarch_authority = 0.40 
						NOT = { patriarch_authority = 0.60 }
						}
					add_country_modifier = { name = unhappy_church_moderate duration = 3000 }
					}
				if = {
					limit = { 
						patriarch_authority = 0.20 
						NOT = { patriarch_authority = 0.40 }
						}
					add_country_modifier = { name = unhappy_church_weak duration = 3000 }
					}
				if = {
					limit = { 
						NOT = { patriarch_authority = 0.20 }
						}
					add_country_modifier = { name = unhappy_church_impotent duration = 3000 }
					}
				}
			}
		ai_will_do = { 
			factor = 1
			modifier = {
				religion_group = muslim
				factor = 0
				}
			}
		}
		
}

