country_decisions = {

	convert_heretic_minority = { 
		potential = { 
			any_owned_province = { 
				has_province_flag = heretic_presence
				has_owner_religion = yes
				NOT = { has_province_modifier = religious_autonomy }
				is_core = ROOT
				is_city = yes
				is_overseas = no #Must be in a state
				controlled_by = owner
				has_siege = no
				NOT = { has_province_modifier = conversion_tensions }
				NOT = { has_province_modifier = minority_missionary }
				NOT = { has_province_flag = anti_heretic_missionary }
				}
			}
		allow = { 
			num_of_missionaries = 2
			custom_trigger_tooltip = { 
				tooltip = no_religious_turmoil
				NOT = { has_country_flag = religious_turmoil_happening }
				}
			NOT = { has_country_modifier = religious_tolerance }
			treasury = 25
			piety = -0.20
			NOT = { is_at_war = yes }
			stability = 1
			OR = { 
				theologian = 2
				advisor = inquisitor
				piety = 0.60
				check_variable = { which = inquisition value = 2 }
				}
			}
		effect = {
			country_event = { id = dg_minorities.099 days = 0 }
			}
		ai_will_do = { 
			factor = 1
			modifier = { 
				any_owned_province = { NOT = { has_owner_religion = yes } }
				factor = 0
				}
			}
		}
			
}