country_decisions = {

commission_of_cardinals = { 
	potential = { 
		tag = PAP
		has_global_flag = living_pope
		NOT = { has_country_flag = papal_reforms_planned }
		NOT = { has_country_flag = corrupt_pope }
		}
	allow = { 
		devotion = 75
		}
	effect = { 
		if = { 
			limit = { has_country_flag = reformer_pope }
			add_devotion = -15
			}
		if = { 
			limit = { has_country_flag = secular_pope }
			add_devotion = -30
			}
		set_country_flag = papal_reforms_planned
		}
	ai_will_do = { 
		factor = 1
		modifier = {
			NOT = { reform_desire = 0.75 }
			factor = 0
			}
		modifier = { 
			has_country_flag = secular_pope
			NOT = { has_global_flag = counter_reformation }
			factor = 0
			}
		}
	}
}
