country_decisions = {

	oresund_toll = {
		potential = {
			owns = 12	#Copenhagen
			owns = 14	#Fyun
			owns = 15	#Jutland
			owns = 1428 #Laland
			owns = 2755	#Syaland
			12 = {
				NOT = {
					has_province_modifier = oresund_toll_tm
				}
			}
		}
		allow = {
			owns = 6 #Skane
			full_idea_group = trade_ideas
			full_idea_group = naval_ideas
		}
		effect = {
			12 = {
				add_province_modifier = {
					name = oresund_toll_tm
					duration = -1
				}
			}
			hidden_effect = {
				if = {
					limit = {
						12 = { # North Sea node
							has_trade_modifier = {
								who = ROOT
								name = oresund_toll_tm
							}
						}
					}
					12 = {
						remove_trade_modifier = {
							who = ROOT
							name = oresund_toll_tm
						}
					}
				}
			}
		}
		ai_will_do = {
			factor = 1000
		}
	}

	reduce_absolute_norwegian_autonomy = {
		potential = {
			any_owned_province = {
				has_province_modifier = absolute_norwegian_autonomy
			}
		}
		allow = {
			ADM = 3
			adm_power = 300
		}
		effect = {
			every_owned_province = {
				limit = {
					has_province_modifier = absolute_norwegian_autonomy
				}
				add_scaled_local_adm_power = -5
				add_nationalism = 10
				remove_province_modifier = absolute_norwegian_autonomy
				add_permanent_province_modifier = {
					name = high_norwegian_autonomy
					duration = -1
				}
			}
		}
		ai_will_do = {
			factor = 500
		}
	}
	
	reduce_high_norwegian_autonomy = {
		potential = {
			any_owned_province = {
				has_province_modifier = high_norwegian_autonomy
			}
		}
		allow = {
			ADM = 3
			adm_power = 300
		}
		effect = {
			every_owned_province = {
				limit = {
					has_province_modifier = high_norwegian_autonomy
				}
				add_scaled_local_adm_power = -5
				add_nationalism = 10
				remove_province_modifier = high_norwegian_autonomy
				add_permanent_province_modifier = {
					name = medium_norwegian_autonomy
					duration = -1
				}
			}
		}
		ai_will_do = {
			factor = 500
		}
	}
	
	reduce_medium_norwegian_autonomy = {
		potential = {
			any_owned_province = {
				has_province_modifier = medium_norwegian_autonomy
			}
		}
		allow = {
			ADM = 3
			adm_power = 300
		}
		effect = {
			every_owned_province = {
				limit = {
					has_province_modifier = medium_norwegian_autonomy
				}
				add_scaled_local_adm_power = -5
				add_nationalism = 10
				remove_province_modifier = medium_norwegian_autonomy
				add_permanent_province_modifier = {
					name = light_norwegian_autonomy
					duration = -1
				}
			}
		}
		ai_will_do = {
			factor = 500
		}
	}
	
	reduce_light_norwegian_autonomy = {
		potential = {
			any_owned_province = {
				has_province_modifier = light_norwegian_autonomy
			}
		}
		allow = {
			ADM = 3
			adm_power = 300
		}
		effect = {
			every_owned_province = {
				limit = {
					has_province_modifier = light_norwegian_autonomy
				}
				add_scaled_local_adm_power = -5
				add_nationalism = 10
				remove_province_modifier = light_norwegian_autonomy
			}
		}
		ai_will_do = {
			factor = 500
		}
	}
	
	reduce_absolute_swedish_autonomy = {
		potential = {
			any_owned_province = {
				has_province_modifier = absolute_swedish_autonomy
				NOT = { has_province_modifier = nationalists_organizing }
			}
		}
		allow = {
			ADM = 3
			adm_power = 300
		}
		effect = {
			every_owned_province = {
				limit = {
					has_province_modifier = absolute_swedish_autonomy
				}
				add_scaled_local_adm_power = -5
				add_nationalism = 10
				add_province_modifier = {
					name = nationalists_organizing
					duration = 3650
				}
				remove_province_modifier = absolute_swedish_autonomy
				add_permanent_province_modifier = {
					name = high_swedish_autonomy
					duration = -1
				}
			}
		}
		ai_will_do = {
			factor = 500
		}
	}
	
	reduce_high_swedish_autonomy = {
		potential = {
			any_owned_province = {
				has_province_modifier = high_swedish_autonomy
				NOT = { has_province_modifier = nationalists_organizing }
			}
		}
		allow = {
			ADM = 3
			adm_power = 300
		}
		effect = {
			every_owned_province = {
				limit = {
					has_province_modifier = high_swedish_autonomy
				}
				add_scaled_local_adm_power = -5
				add_nationalism = 10
				remove_province_modifier = high_swedish_autonomy
				add_permanent_province_modifier = {
					name = medium_swedish_autonomy
					duration = -1
				}
			}
		}
		ai_will_do = {
			factor = 500
		}
	}
	
	reduce_medium_swedish_autonomy = {
		potential = {
			any_owned_province = {
				has_province_modifier = medium_swedish_autonomy
				NOT = { has_province_modifier = nationalists_organizing }
			}
		}
		allow = {
			ADM = 3
			adm_power = 300
		}
		effect = {
			every_owned_province = {
				limit = {
					has_province_modifier = medium_swedish_autonomy
				}
				add_scaled_local_adm_power = -5
				add_nationalism = 10
				remove_province_modifier = medium_swedish_autonomy
				add_permanent_province_modifier = {
					name = light_swedish_autonomy
					duration = -1
				}
			}
		}
		ai_will_do = {
			factor = 500
		}
	}
	
	reduce_light_swedish_autonomy = {
		potential = {
			any_owned_province = {
				has_province_modifier = light_swedish_autonomy
				NOT = { has_province_modifier = nationalists_organizing }
			}
		}
		allow = {
			ADM = 3
			adm_power = 300
		}
		effect = {
			every_owned_province = {
				limit = {
					has_province_modifier = light_swedish_autonomy
				}
				add_scaled_local_adm_power = -5
				add_nationalism = 10
				remove_province_modifier = light_swedish_autonomy
			}
		}
		ai_will_do = {
			factor = 500
		}
	}
}