crusader_state_without_crusade = {
	potential = {
		# OR = {
			government = monastic_order_government
			# }
		}
	trigger = {
		NOT = { any_neighbor_country = { NOT = { religion_group = ROOT } } }
		NOT = { at_war_with_religious_enemy = yes }
		}
	prestige_from_land = -0.5
	land_forcelimit_modifier = -0.1
	land_morale = -0.10
	global_manpower_modifier = -0.10
	trade_efficiency = -0.10
	papal_influence = -1
	}
