#Korea
# File to be deleted in v2.0


#beilu_nanwo = {
#	potential = {
#		any_known_country = {
#			has_country_flag = beilunanwo_mng
#			government = chinese_monarchy_1a
#			num_of_cities = 30
#		}
#		NOT = { is_year = 1600 }	
#		NOT = { government = chinese_monarchy_1a }
#		OR = {
#			culture_group = altaic
#			primary_culture = jurchen
#			culture_group = japanese
#		}
#	}
#	trigger = {
#		any_country = {
#			has_country_flag = beilunanwo_mng
#			government = chinese_monarchy_1a
#			num_of_cities = 30
#			war_with = ROOT
#		}
#	}
#
#	prestige_from_land = 0.25
#	war_exhaustion = -0.02
#	global_manpower_modifier = 0.5
#	blockade_efficiency = 0.12
#	privateer_efficiency = 0.33
#	naval_maintenance_modifier = -0.12
#}
