# IME - Imereti
# 2010-jan-16 - FB - HT3 changes

government = despotic_monarchy government_rank = 3
mercantilism = 0.0
primary_culture = georgian
religion = orthodox
technology_group = eastern
capital = 1301
historical_neutral = CIR

1000.1.1  = {
	set_variable = { which = "centralization_decentralization" value = 4 }
}

1329.1.1 = {
	monarch = {
		name = "Bagrat"
		dynasty = "Bagrationi"
		ADM = 3
		DIP = 3
		MIL = 3
	}
}

1387.1.1 = {
	monarch = {
		name = "Giorgi"
		dynasty = "Bagrationi"
		ADM = 4
		DIP = 2
		MIL = 1
	}
}

1389.1.1 = {
	monarch = {
		name = "Aleksandri"
		dynasty = "Bagrationi"
		ADM = 2
		DIP = 2
		MIL = 1
	}
}

1396.1.1 = {
	monarch = {
		name = "Konstantini II"
		dynasty = "Bagrationi"
		ADM = 1
		DIP = 1
		MIL = 4
	}
}

1401.1.1 = {
	monarch = {
		name = "Demetrius"
		dynasty = "Bagrationi"
		ADM = 1
		DIP = 2
		MIL = 4
	}
}

1466.1.1 = {
	monarch = {
		name = "Bagrat II"
		dynasty = "Bagrationi"
		ADM = 3
		DIP = 3
		MIL = 3
	}
}

1478.1.1 = {
	monarch = {
		name = "Aleksandri II"
		dynasty = "Bagrationi"
		ADM = 3
		DIP = 3
		MIL = 3
	}
}

1510.1.1 = {
	monarch = {
		name = "Bagrat III"
		dynasty = "Bagrationi"
		ADM = 3
		DIP = 3
		MIL = 3
	}
}

1565.1.1 = {
	monarch = {
		name = "Giorgi I"
		dynasty = "Bagrationi"
		ADM = 3
		DIP = 3
		MIL = 3
	}
}

1585.1.1 = {
	monarch = {
		name = "Konstantini III"
		dynasty = "Bagrationi"
		ADM = 3
		DIP = 3
		MIL = 3
	}
}

1586.1.1 = {
	monarch = {
		name = "Levanti I"
		dynasty = "Bagrationi"
		ADM = 3
		DIP = 3
		MIL = 3
	}
}

1589.1.1 = {
	monarch = {
		name = "Bagrat IV"
		dynasty = "Bagrationi"
		ADM = 3
		DIP = 3
		MIL = 3
	}
}

1590.1.1 = {
	monarch = {
		name = "Rustam"
		dynasty = "Bagrationi"
		ADM = 3
		DIP = 3
		MIL = 3
	}
}

1605.1.1 = {
	monarch = {
		name = "Giorgi III"
		dynasty = "Bagrationi"
		ADM = 3
		DIP = 3
		MIL = 3
	}
}

1639.1.1 = {
	monarch = {
		name = "Aleksandri III"
		dynasty = "Bagrationi"
		ADM = 3
		DIP = 3
		MIL = 3
	}
}

1660.1.1 = {
	monarch = {
		name = "Bagrat V"
		dynasty = "Bagrationi"
		ADM = 3
		DIP = 3
		MIL = 3
	}
}

1661.1.1 = {
	monarch = {
		name = "Archili"
		dynasty = "Bagrationi"
		ADM = 3
		DIP = 3
		MIL = 3
	}
}

1663.1.1 = {
	monarch = {
		name = "Demetre Gurieli"
		dynasty = "Bagrationi"
		ADM = 3
		DIP = 3
		MIL = 3
	}
}

1664.1.1 = {
	monarch = {
		name = "Bagrat V"
		dynasty = "Bagrationi"
		ADM = 3
		DIP = 3
		MIL = 3
	}
}

1678.1.1 = {
	monarch = {
		name = "Archili"
		dynasty = "Bagrationi"
		ADM = 3
		DIP = 3
		MIL = 3
	}
}

1679.1.1 = {
	monarch = {
		name = "Bagrat V"
		dynasty = "Bagrationi"
		ADM = 3
		DIP = 3
		MIL = 3
	}
}

1681.1.1 = {
	monarch = {
		name = "Giorgi III Gurieli"
		dynasty = "Bagrationi"
		ADM = 3
		DIP = 3
		MIL = 3
	}
}

1689.1.1 = {
	monarch = {
		name = "Archili"
		dynasty = "Bagrationi"
		ADM = 3
		DIP = 3
		MIL = 3
	}
}

1691.1.1 = {
	monarch = {
		name = "Aleksandri IV"
		dynasty = "Bagrationi"
		ADM = 3
		DIP = 3
		MIL = 3
	}
}

1695.1.1 = {
	monarch = {
		name = "Archili"
		dynasty = "Bagrationi"
		ADM = 3
		DIP = 3
		MIL = 3
	}
}

1696.1.1 = {
	monarch = {
		name = "Giorgi IV Gotcha"
		dynasty = "Bagrationi"
		ADM = 3
		DIP = 3
		MIL = 3
	}
}

1698.1.1 = {
	monarch = {
		name = "Svimeon"
		dynasty = "Bagrationi"
		ADM = 3
		DIP = 3
		MIL = 3
	}
}

1701.1.1 = {
	monarch = {
		name = "Mamia III Gurieli"
		dynasty = "Bagrationi"
		ADM = 3
		DIP = 3
		MIL = 3
	}
}

1702.1.1 = {
	monarch = {
		name = "Giorgi V Abashidze"
		dynasty = "Bagrationi"
		ADM = 3
		DIP = 3
		MIL = 3
	}
}

1707.1.1 = {
	monarch = {
		name = "Giorgi VI"
		dynasty = "Bagrationi"
		ADM = 3
		DIP = 3
		MIL = 3
	}
}

1711.1.1 = {
	monarch = {
		name = "Mamia III Gurieli"
		dynasty = "Bagrationi"
		ADM = 3
		DIP = 3
		MIL = 3
	}
}

1712.1.1 = {
	monarch = {
		name = "Giorgi VI"
		dynasty = "Bagrationi"
		ADM = 3
		DIP = 3
		MIL = 3
	}
}

1713.1.1 = {
	monarch = {
		name = "Mamia III Gurieli"
		dynasty = "Bagrationi"
		ADM = 3
		DIP = 3
		MIL = 3
	}
}

1714.1.1 = {
	monarch = {
		name = "Giorgi VI"
		dynasty = "Bagrationi"
		ADM = 3
		DIP = 3
		MIL = 3
	}
}

1720.1.1 = {
	monarch = {
		name = "Aleksandri V"
		dynasty = "Bagrationi"
		ADM = 3
		DIP = 3
		MIL = 3
	}
}

1741.1.1 = {
	monarch = {
		name = "Giorgi VII"
		dynasty = "Bagrationi"
		ADM = 3
		DIP = 3
		MIL = 3
	}
}

1742.1.1 = {
	monarch = {
		name = "Aleksandri V"
		dynasty = "Bagrationi"
		ADM = 3
		DIP = 3
		MIL = 3
	}
}

1752.1.1 = {
	monarch = {
		name = "Giorgi VII"
		dynasty = "Bagrationi"
		ADM = 3
		DIP = 3
		MIL = 3
	}
}

1753.1.1 = {
	monarch = {
		name = "Solomoni I"
		dynasty = "Bagrationi"
		ADM = 3
		DIP = 3
		MIL = 3
	}
}

1766.1.1 = {
	monarch = {
		name = "Taimurazi"
		dynasty = "Bagrationi"
		ADM = 3
		DIP = 3
		MIL = 3
	}
}

1768.1.1 = {
	monarch = {
		name = "Solomoni I"
		dynasty = "Bagrationi"
		ADM = 3
		DIP = 3
		MIL = 3
	}
}

1782.1.1 = {
	monarch = {
		name = "Davit II"
		dynasty = "Bagrationi"
		ADM = 3
		DIP = 3
		MIL = 3
	}
}

1792.1.1 = {
	monarch = {
		name = "Solomoni II"
		dynasty = "Bagrationi"
		ADM = 3
		DIP = 3
		MIL = 3
	}
}
