# ISK - Ishikki clan

government = early_medieval_japanese_gov
government_rank = 3
mercantilism = 0.0
primary_culture = kansai
religion = mahayana
technology_group = chinese
capital = 1033 		# Tango

1000.1.1  = {
	add_country_modifier = {
		name = "concubinage"
		duration = -1
	}
	set_variable = { which = "centralization_decentralization" value = 2 }
}

1330.3.7 = {
	monarch = {
		name = "Noriuji"
		dynasty = "Isshiki"
		ADM = 3
		DIP = 3
		MIL = 3
	}
	add_ruler_modifier = { name = "kyushu_tandai" }
}

1340.1.1 = {
	heir = {
		name = "Akinori"
		monarch_name = "Akinori"
		dynasty = "Issiki"
		birth_date = 1340.1.1
		death_date = 1406.6.22
		claim = 90
		ADM = 3
		DIP = 3
		MIL = 3
	}
}

1369.3.26 = {
	monarch = {
		name = "Akinori"
		dynasty = "Isshiki"
		ADM = 3
		DIP = 3
		MIL = 3
		}
}

1369.3.26 = {
	heir = {
		name = "Mitsunori"
		monarch_name = "Mitsunori"
		dynasty = "Issiki"
		birth_date = 1368.1.1
		death_date = 1409.1.25
		claim = 90
		ADM = 4
		DIP = 3
		MIL = 4
	}
}

1406.6.22 = {
	monarch = {
		name = "Mitsunori"
		dynasty = "Isshiki"
		ADM = 4
		DIP = 3
		MIL = 4
	}
	heir = {
		name = "Yoshitsura"
		monarch_name = "Yoshitsura"
		dynasty = "Issiki"
		birth_date = 1400.1.1
		death_date = 1440.5.15
		claim = 90
		ADM = 3
		DIP = 2
		MIL = 3
	}
}

1409.1.25 = {
	monarch = {
		name = "Yoshitsura" 
		dynasty = "Issiki"
		ADM = 3
		DIP = 2
		MIL = 3
		}
}

1431.1.1 = {
	heir = {
		name = "Yoshinao"
		monarch_name = "Yoshinao"
		dynasty = "Issiki"
		birth_date = 1431.1.1
		death_date = 1494.1.1
		claim = 90
		ADM = 2
		DIP = 2
		MIL = 2
	}
}

1440.5.15 = {
	monarch = {
		name = "Norichika" 
		dynasty = "Issiki"
		ADM = 2
		DIP = 2
		MIL = 2
		}
}

1451.12.21 = {
	monarch = {
		name = "Yoshinao" 
		dynasty = "Issiki"
		ADM = 2
		DIP = 2
		MIL = 2
		}
}

1466.1.1 = {
	heir = {
		name = "Yoshiharu"
		monarch_name = "Yoshiharu"
		dynasty = "Issiki"
		birth_date = 1466.1.1
		death_date = 1484.1.1
		claim = 90
		ADM = 2
		DIP = 2
		MIL = 2
	}
}

1474.1.1 = {
	monarch = {
		name = "Yoshiharu" 
		dynasty = "Issiki"
		ADM = 2
		DIP = 2
		MIL = 2
		}
}

1483.1.1 = {
	heir = {
		name = "Kiyohide"
		monarch_name = "Kiyohide"
		dynasty = "Issiki"
		birth_date = 1483.1.1
		death_date = 1498.6.18
		claim = 90
		ADM = 2
		DIP = 2
		MIL = 1
	}
}

1484.1.1 = {
	monarch = {
		name = "Kiyohide" 
		dynasty = "Issiki"
		ADM = 2
		DIP = 2
		MIL = 1
		}
}

1498.6.18 = {
	monarch = {
		name = "Yoshiari" 
		dynasty = "Issiki"
		ADM = 1
		DIP = 2
		MIL = 2
		}
}

1505.1.1 = {
	heir = {
		name = "Yoshikiyo"
		monarch_name = "Yoshikiyo"
		dynasty = "Issiki"
		birth_date = 1505.1.1
		death_date = 1540.1.11
		claim = 90
		ADM = 2
		DIP = 2
		MIL = 1
	}
}

1510.1.1 = {
	monarch = {
		name = "Yoshikiyo" 
		dynasty = "Issiki"
		ADM = 2
		DIP = 2
		MIL = 1
		}
}

1523.1.1 = {
	heir = {
		name = "Yoshiyuki"
		monarch_name = "Yoshiyuki"
		dynasty = "Issiki"
		birth_date = 1523.1.1
		death_date = 1570.1.1
		claim = 90
		ADM = 2
		DIP = 2
		MIL = 1
	}
}

1540.1.1 = {
	monarch = {
		name = "Yoshiyuki" 
		dynasty = "Issiki"
		ADM = 2
		DIP = 2
		MIL = 1
		}
} 

1540.1.1 = {
	heir = {
		name = "Yoshimichi"
		monarch_name = "Yoshimichi"
		dynasty = "Issiki"
		birth_date = 1530.1.1
		death_date = 1579.1.1
		claim = 90
		ADM = 1
		DIP = 2
		MIL = 1
	}
}

1558.1.1 = {
	monarch = {
		name = "Yoshimichi" 
		dynasty = "Issiki"
		ADM = 1
		DIP = 2
		MIL = 1
		}
}
