# LXA - Lanxang
# MEIOU-GG Religion changes
# 2010-jan-21 - FB - HT3 changes

government = eastern_monarchy government_rank = 5
mercantilism = 0.0
technology_group = chinese
primary_culture = laotian
religion = buddhism
capital = 615	# Luang Prabang (Xieng dong Xieng Tong) from 1353

1000.1.1 = {
	add_country_modifier = {
		name = "concubinage"
		duration = -1
	}
	set_variable = { which = "centralization_decentralization" value = 3 }
}

1353.1.1 = {
	monarch = {
		name = "Fa Ngum"
		dynasty = "Khun Lo"
		DIP = 4
		ADM = 6
		MIL = 5
	}
}
1376.1.1 = {
	monarch = {
		name = "Vutha Singsavaddy"
		dynasty = "Khun Lo"
		DIP = 2
		ADM = 2
		MIL = 2
	}
}
1379.1.1 = {
	monarch = {
		name = "Samsenthai "
		dynasty = "Khun Lo"
		DIP = 3
		ADM = 3
		MIL = 3
	}
	heir = {
		name = "Lan Kham Deng"
		monarch_name = "Lan Kham Deng"
		dynasty = "Khun Lo"
		birth_Date = 1375.1.1
		death_Date = 1428.1.1
		claim = 95
		ADM = 4
		DIP = 2
		MIL = 3
	}
}

1417.1.1 = {
	monarch = {
		name = "Lan Kham Deng"
		dynasty = "Khun Lo"
		DIP = 2
		ADM = 4
		MIL = 3
	}
	heir = {
		name = "Phommathat"
		monarch_name = "Phommathat"
		dynasty = "Khun Lo"
		birth_Date = 1395.1.1
		death_Date = 1429.1.1
		claim = 95
		ADM = 4
		DIP = 2
		MIL = 3
	}
}

1428.1.1 = {
	monarch = {
		name = "Phommathat"
		dynasty = "Khun Lo"
		DIP = 3
		ADM = 4
		MIL = 1
	}
	heir = {
		name = "Yugandhara"
		monarch_name = "Yugandhara"
		dynasty = "Khun Lo"
		birth_date = 1420.1.1
		death_Date = 1430.1.1
		claim = 95
		ADM = 2
		DIP = 2
		MIL = 2
	}
}

1429.1.1 = {
	monarch = {
		name = "Yugandhara"
		dynasty = "Khun Lo"
		DIP = 2
		ADM = 2
		MIL = 2
	}
	heir = {
		name = "Gunakama"
		monarch_name = "Gunakama"
		dynasty = "Khun Lo"
		birth_Date = 1400.1.1
		death_Date = 1432.1.1
		claim = 95
		ADM = 4
		DIP = 4
		MIL = 3
	}
}

1430.1.1 = {
	monarch = {
		name = "Gunakama"
		dynasty = "Khun Lo"
		DIP = 4
		ADM = 4
		MIL = 3
	}
	heir = {
		name = "Lohajaya"
		monarch_name = "Lohajaya"
		dynasty = "Khun Lo"
		birth_Date = 1415.1.1
		death_Date = 1433.1.1
		claim = 95
		ADM = 2
		DIP = 2
		MIL = 3
	}
}

1432.1.1 = {
	monarch = {
		name = "Lohajaya"
		dynasty = "Khun Lo"
		DIP = 2
		ADM = 2
		MIL = 3
	}
	heir = {
		name = "Kaya Buwanabana"
		monarch_name = "Kaya Buwanabana"
		dynasty = "Khun Lo"
		birth_Date = 1432.1.1
		death_date = 1436.1.1
		claim = 95
		ADM = 4
		DIP = 1
		MIL = 1
	}
}

1433.1.1 = {
	monarch = {
		name = "Kaya Buwanabana"
		dynasty = "Khun Lo"
		DIP = 1
		ADM = 4
		MIL = 1
	}
	heir = {
		name = "Kham Keut"
		monarch_name = "Kama Kirti"
		birth_Date = 1420.1.1
		death_Date = 1438.1.1
		claim = 95
		ADM = 2
		DIP = 3
		MIL = 4
	}
}

1436.1.1 = {
	monarch = {
		name = "Kham Keut"
		dynasty = "Khun Lo"
		DIP = 3
		ADM = 2
		MIL = 4
	}
	heir = {
		name = "Sai Tiakaphat"
		monarch_name = "Sai Tiakaphat"
		dynasty = "Khun Lo"
		birth_Date = 1420.1.1
		death_Date = 1479.1.1
		claim = 95
		ADM = 5
		DIP = 5
		MIL = 3
	}
}

1438.1.1 = {
	monarch = {
		name = "Sao Tiakaphat"
		dynasty = "Khun Lo"
		DIP = 5
		ADM = 5
		MIL = 3
	}
	heir = {
		name = "T'ene Kham"
		monarch_name = "T'ene Kham"
		dynasty = "Khun Lo"
		birth_Date = 1430.1.1
		death_Date = 1486.1.1
		claim = 95
		ADM = 2
		DIP = 2
		MIL = 3
	}
}

1479.1.1 = {
	monarch = {
		name = "T'eng Kham"
		dynasty = "Khun Lo"
		DIP = 2
		ADM = 2
		MIL = 3
	}
	heir = {
		name = "Lahsaenthai Puvanart"
		monarch_name = "Lahsaenthai Puvanart"
		dynasty = "Khun Lo"
		birth_date = 1470.1.1
		death_Date = 1496.1.1
		claim = 95
		ADM = 2
		DIP = 3
		MIL = 2
	}
}

1486.1.1 = {
	monarch = {
		name = "Lahsaenthai Puvanart"
		dynasty = "Khun Lo"
		DIP = 3
		ADM = 2
		MIL = 2
	}
	heir = {
		name = "Samphou"
		monarch_name = "Samphou"
		dynasty = "Khun Lo"
		birth_Date = 1480.1.1
		death_date = 1501.1.1
		claim = 95
		ADM = 2
		DIP = 3
		MIL = 2
	}
}

1496.1.1 = {
	monarch = {
		name = "Samphou"
		dynasty = "Khun Lo"
		DIP = 3
		ADM = 2
		MIL = 2
	}
	heir = {
		name = "Visunarat"
		monarch_name = "Visunarat"
		dynasty = "Khun Lo"
		birth_Date = 1490.1.1
		death_Date = 1520.1.1
		claim = 95
		ADM = 4
		DIP = 4
		MIL = 4
	}
}

1501.1.1 = {
	monarch = {
		name = "Visunarat"
		dynasty = "Khun Lo"
		DIP = 4
		ADM = 4
		MIL = 4
	}
	heir = {
		name = "Photisarath"
		monarch_name = "Photisarath"
		dynasty = "Khun Lo"
		birth_date = 1501.1.1
		death_Date = 1548.1.1
		claim = 95
		ADM = 4
		DIP = 4
		MIL = 4
	}
}

1520.1.1 = {
	monarch = {
		name = "Photisarath"
		dynasty = "Khun Lo"
		DIP = 4
		ADM = 4
		MIL = 4
	}
	heir = {
		name = "Sett'at'irat"
		monarch_name = "Sett'at'irat"
		dynasty = "Khun Lo"
		birth_Date = 1520.1.1
		death_Date = 1571.1.1
		claim = 95
		ADM = 6
		DIP = 4
		MIL = 3
	}
	historical_rival = KHM
	set_variable = { which = "centralization_decentralization" value = 5 }
}

1548.1.1 = {
	monarch = {
		name = "Sett'at'irat"
		dynasty = "Khun Lo"
		DIP = 4
		ADM = 6
		MIL = 3
	}
	heir = {
		name = "Sene Soulint'a"
		monarch_name = "Sene Soulint'a"
		dynasty = "Khun Lo"
		birth_Date = 1530.1.1
		death_date = 1582.1.1
		claim = 95
		ADM = 1
		DIP = 1
		MIL = 2
	}
}

1560.1.1 = {
	capital = 614
} # Vientiane

1571.1.1 = {
	monarch = {
		name = "Sene Soulint'a"
		dynasty = "Khun Lo"
		DIP = 1
		ADM = 1
		MIL = 2
	}
	heir = {
		name = "Mahaupahat"
		monarch_name = "Mahaupahat"
		dynasty = "Khun Lo"
		birth_Date = 1565.1.1
		death_date = 1580.1.1
		claim = 95
		ADM = 1
		DIP = 1
		MIL = 3
	}
}

1575.1.1 = {
	monarch = {
		name = "Mahaupahat"
		dynasty = "Khun Lo"
		DIP = 1
		ADM = 1
		MIL = 3
	}
	heir = {
		name = "Sene Soulint'a"
		monarch_name = "Sene Soulint'a"
		dynasty = "Khun Lo"
		birth_date = 1530.1.1
		death_Date = 1582.1.1
		claim = 95
		ADM = 1
		DIP = 1
		MIL = 2
	}
}

1580.1.1 = {
	monarch = {
		name = "Sene Soulint'a" # Restored
		dynasty = "Khun Lo"
		DIP = 1
		ADM = 1
		MIL = 2
	}
	heir = {
		name = "Nakhone Noi"
		monarch_name = "Nakhone Noi"
		dynasty = "Khun Lo"
		birth_Date = 1560.1.1
		death_Date = 1591.1.1
		claim = 95
		ADM = 3
		DIP = 3
		MIL = 2
	}
}

1582.1.1 = {
	monarch = {
		name = "Nakhone Noi"
		dynasty = "Khun Lo"
		DIP = 3
		ADM = 3
		MIL = 2
	}
}

1583.1.1 = {
	monarch = {
		name = "Interregnum"
		dynasty = "Khun Lo"
		DIP = 1
		ADM = 1
		MIL = 1
	}
}

1591.1.1 = {
	monarch = {
		name = "Nokeo Koumone"
		dynasty = "Khun Lo"
		DIP = 3
		ADM = 2
		MIL = 2
	}
	heir = {
		name = "T'ammikarat"
		monarch_name = "T'ammikarat"
		dynasty = "Khun Lo"
		birth_Date = 1590.1.1
		death_Date = 1622.1.1
		claim = 95
		ADM = 4
		DIP = 4
		MIL = 3
	}
}

1596.1.1 = {
	monarch = {
		name = "T'ammikarat"
		dynasty = "Khun Lo"
		DIP = 4
		ADM = 4
		MIL = 3
	}
	heir = {
		name = "Upanyuvarat"
		monarch_name = "Upanyuvarat"
		dynasty = "Khun Lo"
		birth_Date = 1590.1.1
		death_Date = 1623.1.1
		claim = 95
		ADM = 1
		DIP = 1
		MIL = 1
	}
}

1622.1.1 = {
	monarch = {
		name = "Upanyuvarat"
		dynasty = "Khun Lo"
		DIP = 1
		ADM = 1
		MIL = 1
	}
}

1623.1.1 = {
	monarch = {
		name = "Photisarath II "
		dynasty = "Khun Lo"
		DIP = 2
		ADM = 1
		MIL = 1
	}
	heir = {
		name = "MongKeo"
		monarch_name = "MongKeo"
		birth_Date = 1600.1.1
		death_Date = 1629.1.1
		claim = 95
		ADM = 1
		DIP = 1
		MIL = 2
	}
}

1627.1.1 = {
	monarch = {
		name = "MongKeo"
		dynasty = "Khun Lo"
		DIP = 1
		ADM = 1
		MIL = 2
	}
}

1631.1.1 = {
	monarch = {
		name = "Tone Kham"
		dynasty = "Khun Lo"
		DIP = 4
		ADM = 4
		MIL = 4
	}
	heir = {
		name = "Vichai"
		monarch_name = "Vichai"
		dynasty = "Khun Lo"
		birth_date = 1600.1.1
		death_Date = 1637.1.1
		claim = 95
		ADM = 1
		DIP = 1
		MIL = 1
	}
}

1635.1.1 = {
	monarch = {
		name = "Vichai"
		dynasty = "Khun Lo"
		DIP = 1
		ADM = 1
		MIL = 1
	}
	heir = {
		name = "Surinyavongsa"
		monarch_name ="Surinyavongsa"
		dynasty = "Khun Lo"
		birth_Date = 1620.1.1
		death_Date = 1648.1.1
		claim = 95
		ADM = 6
		DIP = 6
		MIL = 6
	}
}

1637.1.1 = {
	monarch = {
		name = "Surinyavongsa"
		dynasty = "Khun Lo"
		DIP = 6
		ADM = 6
		MIL = 6
	}
}
