# MEN - Mentesoglu
# 2010-jan-21 - FB - HT3 changes

government = ottoman_government government_rank = 1
mercantilism = 0.0
primary_culture = yorouk
religion = sunni
technology_group = muslim
#unit_type = muslim #dharper
capital = 1439
historical_rival = BYZ
historical_neutral = MAM

1000.1.1  = {
	add_country_modifier = {
		name = "concubinage"
		duration = -1
	}
	add_country_modifier = { name = turkish_beylik duration = -1 }
	add_country_modifier = { name = obstacle_traditional_military duration = -1 }
	set_variable = { which = "centralization_decentralization" value = 0 }
}

1261.1.1 = {
	monarch = {
		name = "Mentese Bey"
		dynasty = "Mentesoglu"
		ADM = 3
		DIP = 3
		MIL = 3
	}
}

1330.1.1 = {
	monarch = {
		name = "Orhan Bey"
		dynasty = "Mentesoglu"
		ADM = 3
		DIP = 3
		MIL = 3
	}
}

1375.1.1 = {
	monarch = {
		name = "Tacettin Ahmet Gazi"
		dynasty = "Mentesoglu"
		ADM = 3
		DIP = 3
		MIL = 3
	}
}

#1390 - First fall to the Ottoman

1402.1.1 = {
	monarch = {
		name = "Ilyas Bey"
		dynasty = "Mentesoglu"
		ADM = 3
		DIP = 3
		MIL = 3
	}
} # Independance following Ottoman defeat to Tamerlane at the battle of Ankara

# 1414 - Second fall to the Ottomans
