#SPI - Sardinia-Piedmont

government = despotic_monarchy government_rank = 5
mercantilism = 0.0
technology_group = western
religion = catholic
primary_culture = piedmontese
add_accepted_culture = sardinian
capital = 103 # Piedomont

1000.1.1  = {
	set_variable = { which = "centralization_decentralization" value = 4 }
}

1720.1.1 = {
	government = absolute_monarchy government_rank = 5
	monarch = {
		name = "Vittorio Amedeo II"
		dynasty = "di Savoia"
		ADM = 5
		DIP = 6
		MIL = 6
		leader = { name = "Vittorio Amedeo II"	type = general	rank = 0	fire = 4	shock = 4	manuever = 2	siege = 2 }
	}
	heir = {
		name = "Carlo Emanuele"
		monarch_name = "Carlo Emanuele III"
		dynasty = "di Savoia"
		birth_date = 1701.4.27
		death_date = 1773.2.20
		claim = 95
		ADM = 5
		DIP = 6
		MIL = 6
		leader = { name = "Carlo Emanuele III"	type = general	rank = 0	fire = 2	shock = 3	manuever = 3	siege = 0 }
	}
}

1730.9.4 = {
	monarch = {
		name = "Carlo Emanuele III"
		dynasty = "di Savoia"
		ADM = 5
		DIP = 6
		MIL = 6
		leader = { name = "Carlo Emanuele III"	type = general	rank = 0	fire = 2	shock = 3	manuever = 3	siege = 0 }
	}
	heir = {
		name = "Vittorio Amedeo"
		monarch_name = "Vittorio Amedeo III"
		dynasty = "di Savoia"
		birth_date = 1726.6.26
		death_date = 1796.10.16
		claim = 95
		ADM = 2
		DIP = 1
		MIL = 3
		leader = { name = "Vittorio Amedeo III"	type = general	rank = 0	fire = 2	shock = 2	manuever = 3	siege = 0 }
	}
}
		
1743.2.8 = { leader = {	name = "Carlo S. Leutrum"	type = general	rank = 3	fire = 5	shock = 4	manuever = 4	siege = 1	death_date = 1755.5.16 } }

1773.2.21 = {
	monarch = {
		name = "Vittorio Amedeo III"
		dynasty = "di Savoia"
		ADM = 2
		DIP = 1
		MIL = 3
		leader = { name = "Vittorio Amedeo III"	type = general	rank = 0	fire = 2	shock = 2	manuever = 3	siege = 0 }
	}
	heir = {
		name = "Carlo Emanuele"
		monarch_name = "Carlo Emanuele IV"
		dynasty = "di Savoia"
		birth_date = 1751.5.24
		death_date = 1819.10.6
		claim = 95
		ADM = 2
		DIP = 1
		MIL = 2
	}
}

1785.1.1 = { leader = {	name = "Michel Colli"		type = general	rank = 1	fire = 3	shock = 2	manuever = 3	siege = 0	death_date = 1796.4.28 } }

1796.10.14 = { government = enlightened_despotism government_rank = 5 }

1796.10.14 = {
	monarch = {
		name = "Carlo Emanuele IV"
		dynasty = "di Savoia"
		ADM = 2
		DIP = 1
		MIL = 2
	}
	heir = {
		name = "Vittorio Emanuele"
		monarch_name = "Vittorio Emanuele I"
		dynasty = "di Savoia"
		birth_date = 1759.7.24
		death_date = 1824.1.10
		claim = 95
		ADM = 2
		DIP = 2
		MIL = 2
	}
}

1802.6.4 = {
	monarch = {
		name = "Vittorio Emanuele I"
		dynasty = "di Savoia"
		ADM = 2
		DIP = 2
		MIL = 2
	}
	heir = {
		name = "Carlo Felice"
		monarch_name = "Carlo Felice"
		dynasty = "di Savoia"
		birth_date = 1765.4.4
		death_date = 1831.4.27
		claim = 95
		ADM = 3
		DIP = 3
		MIL = 3
	}
}

1821.1.1 = {
	monarch = {
		name = "Carlo Felice"
		dynasty = "di Savoia"
		ADM = 3
		DIP = 3
		MIL = 3
	}
}

1831.1.1 = {
	monarch = {
		name = "Carlo Alberto"
		dynasty = "di Savoia"
		ADM = 5
		DIP = 4
		MIL = 4
	}
}

1849.1.1 = {
	monarch = {
		name = "Vittorio Emanuele II"
		dynasty = "di Savoia"
		ADM = 3
		DIP = 5
		MIL = 2
	}
}
