#SUK - Sukhothai
#10.01.27 FB-HT3 - make HT3 changes

government = eastern_monarchy government_rank = 5
# centralization_decentralization = 0	###3
mercantilism = 0.0		###-4
# land_naval = -4				###0
# quality_quantity = 1			###3
# serfdom_freesubjects = -4		###-2
# isolationist_expansionist = 0		##-4
primary_culture = thai
religion = buddhism
technology_group = chinese
capital = 601	# Sukhothai

1000.1.1 = {
	add_country_modifier = {
		name = "concubinage"
		duration = -1
	}
	set_variable = { which = "centralization_decentralization" value = 0 }
}

1346.1.1 = {
	monarch = {
		name = "Lithai"
		dynasty = "Phra Ruang"
		ADM = 4
		DIP = 2
		MIL = 2
	} #aka Phra Maha Thammaracha I
	heir = {
		name = "Saileuthai"
		monarch_name = "Saileuthai"
		dynasty = "Phra Ruang"
		birth_date = 1340.1.1
		death_date = 1406.1.1
		claim = 95
		ADM = 2
		DIP = 2
		MIL = 2
	}
}

1376.1.1 = {
	monarch = {
		name = "Loethai"
		dynasty = "Phra Ruang"
		ADM = 2
		DIP = 2
		MIL = 2
	} #aka Phra Maha Thammaracha II
	heir = {
		name = "Saileuthai"
		monarch_name = "Saileuthai"
		dynasty = "Phra Ruang"
		birth_date = 1360.1.1
		death_date = 1419.1.1
		claim = 95
		ADM = 4
		DIP = 2
		MIL = 3
	}
}

1406.1.1 = {
	monarch = {
		name = "Saileuthai"
		dynasty = "Phra Ruang"
		ADM = 4
		DIP = 2
		MIL = 3
	} #aka Phra Maha Thammaracha III
	heir = {
		name = "Borom Phaan"
		monarch_name = "Borom Phaan"
		dynasty = "Phra Ruang"
		birth_date = 1399.1.1
		death_date = 1450.1.1
		claim = 95
		ADM = 1
		DIP = 2
		MIL = 1
	}
}

1419.1.1 = {
	monarch = {
		name = "Borom Phaan"
		dynasty = "Phra Ruang"
		ADM = 1
		DIP = 2
		MIL = 1
	} #aka Phra Maha Thammaracha IV
}

# To Ayutthaya, 1438
