# TRV - Travancore

government = indian_monarchy government_rank = 3
mercantilism = 0.0
technology_group = indian
religion = hinduism
primary_culture = malayalam
capital = 535	# PADManabhapuram
fixed_capital = 535 # 

1000.1.1  = {
	add_country_modifier = {
		name = "concubinage"
		duration = -1
	}
	set_variable = { which = "centralization_decentralization" value = 3 }
}

# Travancore/Venad #
#Rulers added from https://en.wikipedia.org/wiki/Venad /Warial
1090.1.1 = {
	monarch = {
		name = "Rama Varma Kulashekhara"
		dynasty = "Cheraman"
		DIP = 4
		ADM = 2
		MIL = 3
	}
}

1102.1.1 = {
	monarch = {
		name = "Kotha Varma Marthandam"
		dynasty = "Cheraman"
		DIP = 4
		ADM = 2
		MIL = 3
	}
}

1125.1.1 = {
	monarch = {
		name = "Vira Kerala Varma I"
		dynasty = "Cheraman"
		DIP = 4
		ADM = 2
		MIL = 3
	}
}

1145.1.1 = {
	monarch = {
		name = "Kodai Kerala Varma"
		dynasty = "Cheraman"
		DIP = 4
		ADM = 2
		MIL = 3
	}
}

1161.1.1 = {
	monarch = {
		name = "Vira Ravi Varma"
		dynasty = "Cheraman"
		DIP = 4
		ADM = 2
		MIL = 3
	}
}

1164.1.1 = {
	monarch = {
		name = "Vira Kerala Varma II"
		dynasty = "Cheraman"
		DIP = 4
		ADM = 2
		MIL = 3
	}
}

1167.1.1 = {
	monarch = {
		name = "Vira Aditya Varma"
		dynasty = "Cheraman"
		DIP = 4
		ADM = 2
		MIL = 3
	}
}

1173.1.1 = {
	monarch = {
		name = "Vira Udaya Martanda Varma"
		dynasty = "Cheraman"
		DIP = 4
		ADM = 2
		MIL = 3
	}
}

1192.1.1 = {
	monarch = {
		name = "Devadaram Vira Kerala Varma III"
		dynasty = "Cheraman"
		DIP = 4
		ADM = 2
		MIL = 3
	}
}

1195.1.1 = {
	monarch = {
		name = "Vira Manikantha Rama Varma Tiruvadi"
		dynasty = "Cheraman"
		DIP = 4
		ADM = 2
		MIL = 3
	}
}

1209.1.1 = {
	monarch = {
		name = "Vira Rama Kerala Varma Tiruvadi"
		dynasty = "Cheraman"
		DIP = 4
		ADM = 2
		MIL = 3
	}
}

1214.1.1 = {
	monarch = {
		name = "Vira Ravi Kerala Varma Tiruvadi"
		dynasty = "Cheraman"
		DIP = 4
		ADM = 2
		MIL = 3
	}
}

1240.1.1 = {
	monarch = {
		name = "Vira Padmanabha Martanda Varma Tiruvadi"
		dynasty = "Cheraman"
		DIP = 4
		ADM = 2
		MIL = 3
	}
}

1266.1.1 = {
	monarch = {
		name = "Jayasimha Deva"
		dynasty = "Cheraman"
		DIP = 4
		ADM = 2
		MIL = 3
	}
}

1299.1.1 = {
	monarch = {
		name = "Ravi Varma"
		dynasty = "Cheraman"
		DIP = 4
		ADM = 2
		MIL = 3
	}
}

1313.1.1 = {
	monarch = {
		name = "Vira Udaya Martanda Varma"
		dynasty = "Cheraman"
		DIP = 4
		ADM = 2
		MIL = 3
	}
}

1333.1.1 = {
	monarch = {
		name = "Aditya Varma Tiruvadi"
		dynasty = "Cheraman"
		DIP = 4
		ADM = 2
		MIL = 3
	}
}

1335.1.1 = {
	monarch = {
		name = "Vira Rama Udaya Martanda Varma Tiruvadi"
		dynasty = "Cheraman"
		DIP = 4
		ADM = 2
		MIL = 3
	}
}

1342.1.1 = {
	monarch = {
		name = "Vira Kerala Varma Tiruvadi"
		dynasty = "Cheraman"
		DIP = 4
		ADM = 2
		MIL = 3
	}
}

1342.1.1 = {
	heir = {
		name = "Vira Martanda Varma"
		monarch_name = "Vira Martanda Varma III"
		dynasty = "Cheraman"
		birth_date = 1342.1.1
		death_date = 1366.1.1
		claim = 95
		ADM = 4
		DIP = 2
		MIL = 3
	}
}

1363.1.1 = {
	monarch = {
		name = "Vira Martanda Varma III"
		dynasty = "Cheraman"
		DIP = 4
		ADM = 2
		MIL = 3
	}
}

1363.1.1 = {
	heir = {
		name = "Vira Rama Martanda Varma"
		monarch_name = "Vira Rama Martanda Varma"
		dynasty = "Cheraman"
		birth_date = 1355.1.1
		death_date = 1383.1.1
		claim = 95
		ADM = 4
		DIP = 2
		MIL = 3
	}
}

1366.1.1 = {
	monarch = {
		name = "Vira Rama Martanda Varma"
		dynasty = "Cheraman"
		DIP = 4
		ADM = 2
		MIL = 3
	}
}

1366.1.1 = {
	heir = {
		name = "Vira Kerala Martanda Varma"
		monarch_name = "Vira Kerala Martanda Varma"
		dynasty = "Cheraman"
		birth_date = 1366.1.1
		death_date = 1383.6.1
		claim = 95
		ADM = 4
		DIP = 2
		MIL = 3
	}
}

1383.1.1 = {
	monarch = {
		name = "Vira Kerala Martanda Varma"
		dynasty = "Cheraman"
		DIP = 4
		ADM = 2
		MIL = 3
	}
}

1383.1.1 = {
	heir = {
		name = "Chera Udaya Varma"
		monarch_name = "Chera Udaya Varma"
		dynasty = "Cheraman"
		birth_date = 1366.1.1
		death_date = 1400.1.1
		claim = 95
		ADM = 4
		DIP = 2
		MIL = 3
	}
}

1383.6.1 = {
	monarch = {
		name = "Chera Udaya Varma"
		dynasty = "Cheraman"
		DIP = 4
		ADM = 2
		MIL = 3
	}
}

1400.1.1 = {
	heir = {
		name = "Mootha"
		monarch_name = "Mootha"
		dynasty = "Cheraman"
		birth_date = 1400.1.1
		death_date = 1458.1.1
		claim = 95
		ADM = 4
		DIP = 4
		MIL = 1
	}
}

1444.1.1 = {
	monarch = {
		name = "Mootha"
		dynasty = "Cheraman"
		DIP = 4
		ADM = 4
		MIL = 1
	}
}

1444.1.1 = {
	heir = {
		name = "Sri Vira Martanda Varma"
		monarch_name = "Sri Vira Martanda Varma"
		dynasty = "Cheraman"
		birth_date = 1440.1.1
		death_date = 1471.1.1
		claim = 95
		ADM = 3
		DIP = 2
		MIL = 2
	}
}

1458.1.1 = {
	monarch = {
		name = "Sri Vira Martanda Varma"
		dynasty = "Cheraman"
		DIP = 2
		ADM = 3
		MIL = 2
	}
}

1458.1.1 = {
	heir = {
		name = "Aditya Varma"
		monarch_name = "Aditya Varma"
		dynasty = "Cheraman"
		birth_date = 1450.1.1
		death_date = 1478.1.1
		claim = 95
		ADM = 1
		DIP = 5
		MIL = 3
	}
}

1471.1.1 = {
	monarch = {
		name = "Aditya Varma" 
		dynasty = "Cheraman"
		DIP = 5
		ADM = 1
		MIL = 3
	}
}

1471.1.1 = {
	heir = {
		name = "Aditya Varma"
		monarch_name = "Aditya Varma"
		dynasty = "Cheraman"
		birth_date = 1460.1.1
		death_date = 1504.1.1
		claim = 95
		ADM = 4
		DIP = 1
		MIL = 1
	}
}

1478.1.1 = {
	monarch = {
		name = "Ravi Varma"
		dynasty = "Cheraman"
		DIP = 1
		ADM = 4
		MIL = 1
	}
}

1478.1.1 = {
	heir = {
		name = "Sri Vira Ravi Varma"
		monarch_name = "Sri Vira Ravi Varma"
		dynasty = "Cheraman"
		birth_date = 1478.1.1
		death_date = 1528.1.1
		claim = 95
		ADM = 1
		DIP = 4
		MIL = 2
	}
}

1504.1.1 = {
	monarch = {
		name = "Sri Vira Ravi Varma"
		dynasty = "Cheraman"
		DIP = 4
		ADM = 1
		MIL = 2
	}
}

1504.1.1 = {
	heir = {
		name = "Martanda Varma"
		monarch_name = "Martanda Varma"
		dynasty = "Cheraman"
		birth_date = 1504.1.1
		death_date = 1537.1.1
		claim = 95
		ADM = 2
		DIP = 3
		MIL = 1
	}
}

1528.1.1 = {
	monarch = {
		name = "Martanda Varma"
		dynasty = "Cheraman"
		DIP = 3
		ADM = 2
		MIL = 1
	}
}

1528.1.1 = {
	heir = {
		name = "Udaya Martanda Varma"
		monarch_name = "Udaya Martanda Varma"
		dynasty = "Cheraman"
		birth_date = 1515.1.1
		death_date = 1550.1.1
		claim = 95
		ADM = 4
		DIP = 4
		MIL = 2
	}
}

1537.1.1 = {
	monarch = {
		name = "Udaya Martanda Varma"
		dynasty = "Cheraman"
		DIP = 4
		ADM = 4
		MIL = 2
	}
}

1537.1.1 = {
	heir = {
		name = "Kerala Varma"
		monarch_name = "Kerala Varma"
		dynasty = "Cheraman"
		birth_date = 1530.1.1
		death_date = 1552.1.1
		claim = 95
		ADM = 2
		DIP = 6
		MIL = 2
	}
}

1550.1.1 = {
	monarch = {
		name = "Kerala Varma"
		dynasty = "Cheraman"
		DIP = 6
		ADM = 2
		MIL = 2
	}
}

1550.1.1 = {
	heir = {
		name = "Aditya Varma"
		monarch_name = "Aditya Varma"
		dynasty = "Cheraman"
		birth_Date = 1540.1.1
		death_Date = 1567.1.1
		claim = 95
		ADM = 4
		DIP = 1
		MIL = 3
	}
}

1553.1.1 = {
	monarch = {
		name = "Aditya Varma"
		dynasty = "Cheraman"
		DIP = 1
		ADM = 4
		MIL = 3
	}
}

1553.1.1 = {
	heir = {
		name = "Udaya Martanda Varma"
		monarch_name = "Udaya Martanda Varma"
		dynasty = "Cheraman"
		birth_date = 1530.1.1
		death_date = 1594.1.1
		claim = 95
		ADM = 3
		DIP = 3
		MIL = 1
	}
}

1567.1.1 = {
	monarch = {
		name = "Udaya Martanda Varma"
		dynasty = "Cheraman"
		DIP = 3
		ADM = 3
		MIL = 1
	}
}

1570.1.1 = {
	heir = {
		name = "Sri Vira Kulasekhara"
		monarch_name = "Sri Vira Kulasekhara"
		dynasty = "Cheraman"
		birth_date = 1570.1.1
		death_date = 1604.1.1
		claim = 95
		ADM = 3
		DIP = 2
		MIL = 3
	}
}

1594.1.1 = {
	monarch = {
		name = "Sri Vira Kulasekhara"
		dynasty = "Cheraman"
		DIP = 2
		ADM = 3
		MIL = 3
	}
}

1594.1.1 = {
	heir = {
		name = "Sri Vira Varma"
		monarch_name = "Sri Vira Varma"
		dynasty = "Cheraman"
		birth_date = 1580.1.1
		death_date = 1606.1.1
		claim = 95
		ADM = 5
		DIP = 2
		MIL = 1
	}
}

1604.1.1 = {
	monarch = {
		name = "Sri Vira Varma"
		dynasty = "Cheraman"
		DIP = 2
		ADM = 5
		MIL = 1
	}
}

1604.1.1 = {
	heir = {
		name = "Ravi Varma"
		monarch_name = "Ravi Varma"
		dynasty = "Cheraman"
		birth_Date = 1580.1.1
		death_date = 1619.1.1
		claim = 95
		ADM = 1
		DIP = 1
		MIL = 1
	}
}

1606.1.1 = {
	monarch = {
		name = "Ravi Varma"
		dynasty = "Cheraman"
		DIP = 1
		ADM = 1
		MIL = 1
	}
}

1606.1.1 = {
	heir = {
		name = "Unni Kerala Varma"
		monarch_name = "Unni Kerala Varma"
		dynasty = "Cheraman"
		birth_date = 1600.1.1
		death_date = 1625.1.1
		claim = 95
		ADM = 4
		DIP = 2
		MIL = 4
	}
}

1619.1.1 = {
	monarch = {
		name = "Unni Kerala Varma"
		dynasty = "Cheraman"
		DIP = 2
		ADM = 4
		MIL = 4
	}
}

1619.1.1 = {
	heir = {
		name = "Ravi Varma"
		monarch_name = "Ravi Varma"
		dynasty = "Cheraman"
		birth_date = 1600.1.1
		death_date = 1631.1.1
		claim = 95
		ADM = 5
		DIP = 1
		MIL = 3
	}
}

1625.1.1 = {
	monarch = {
		name = "Ravi Varma"
		dynasty = "Cheraman"
		DIP = 1
		ADM = 5
		MIL = 3
	}
}

1625.1.1 = {
	heir = {
		name = "Unni Kerala Varma"
		monarch_name = "Unni Kerala Varma II"
		dynasty = "Cheraman"
		birth_Date = 1615.1.1
		death_date = 1661.1.1
		claim = 95
		ADM = 2
		DIP = 5
		MIL = 2
	}
}

1631.1.1 = {
	monarch = {
		name = "Unni Kerala Varma II"
		dynasty = "Cheraman"
		DIP = 5
		ADM = 2
		MIL = 2
	}
}

1640.1.1 = {
	heir = {
		name = "Aditya Varma"
		monarch_name = "Aditya Varma"
		dynasty = "Cheraman"
		birth_Date = 1640.1.1
		death_date = 1678.1.1
		claim = 95
		ADM = 1
		DIP = 1
		MIL = 4
	}
}

1661.1.1 = {
	monarch = {
		name = "Aditya Varma"
		dynasty = "Cheraman"
		DIP = 1
		ADM = 1
		MIL = 4
	}
}

1661.1.1 = {
	heir = {
		name = "Ravi Varma"
		monarch_name = "Ravi Varma"
		dynasty = "Cheraman"
		birth_Date = 1660.1.1
		death_date = 1704.1.1
		claim = 95
		ADM = 4
		DIP = 3
		MIL = 3
	}
}
		
1678.1.1 = {
	monarch = {
		name = "Ravi Varma"
		dynasty = "Cheraman"
		DIP = 3
		ADM = 4
		MIL = 3
	}
}

1678.1.1 = {
	heir = {
		name = "Unni Kerala Varma"
		monarch_name = "Unni Kerala Varma III"
		dynasty = "Cheraman"
		birth_Date = 1678.1.1
		death_Date = 1718.1.1
		claim = 95
		ADM = 3
		DIP = 5
		MIL = 3
	}
}

1704.1.1 = {
	monarch = {
		name = "Unni Kerala Varma III"
		dynasty = "Cheraman"
		DIP = 5
		ADM = 3
		MIL = 3
	}
}

1704.1.1 = {
	heir = {
		name = "Aditya Varma"
		monarch_name = "Aditya Varma"
		dynasty = "Cheraman"
		birth_date = 1704.1.1
		death_date = 1721.1.1
		claim = 95
		ADM = 4
		DIP = 4
		MIL = 1
	}
}

1718.1.1 = {
	monarch = {
		name = "Aditya Varma"
		dynasty = "Cheraman"
		DIP = 4
		ADM = 4
		MIL = 1
	}
}

1718.1.1 = {
	heir = {
		name = "Rama Varma"
		monarch_name = "Rama Varma"
		dynasty = "Cheraman"
		birth_date = 1700.1.1
		death_date = 1729.1.27
		claim = 95
		ADM = 1
		DIP = 2
		MIL = 2
	}
}

1721.1.1 = {
	monarch = {
		name = "Rama Varma"
		dynasty = "Cheraman"
		DIP = 2
		ADM = 1
		MIL = 2
	}
}

1721.1.1 = {
	heir = {
		name = "Martanda Varma"
		monarch_name = "Martanda Varma I"
		dynasty = "Cheraman"
		birth_date = 1700.1.1
		death_date = 1758.7.7
		claim = 95
		ADM = 5
		DIP = 6
		MIL = 6
	}
}

1729.1.27 = {
	monarch = {
		name = "Martanda Varma I"
		dynasty = "Cheraman"
		DIP = 6
		ADM = 5
		MIL = 6
	}
}

1729.1.27 = {
	heir = {
		name = "Rama Varma"
		monarch_name = "Rama Varma II"
		dynasty = "Cheraman"
		birth_date = 1729.1.1
		death_date = 1798.2.17
		claim = 95
		ADM = 3
		DIP = 5
		MIL = 4
	}
}

1758.7.7 = {
	monarch = {
		name = "Rama Varma II"
		dynasty = "Cheraman"
		DIP = 5
		ADM = 3
		MIL = 4
	}
}

1758.7.7 = {
	heir = {
		name = "Bala Rama Varma"
		monarch_name = "Bala Rama Varma I"
		dynasty = "Cheraman"
		birth_date = 1750.1.1
		death_date = 1810.1.1
		claim = 95
		ADM = 2
		DIP = 1
		MIL = 1
	}
}

1798.2.17 = {
	monarch = {
		name = "Bala Rama Varma I"
		dynasty = "Cheraman"
		DIP = 1
		ADM = 2
		MIL = 1
	}
}

1798.2.17 = {
	heir = {
		name = "Gouri Laksmi Bai"
		monarch_name = "Gouri Laksmi Bai"
		dynasty = "Cheraman"
		female = yes
		birth_date = 1780.1.1
		death_date = 1815.1.1
		claim = 95
		ADM = 2
		DIP = 3
		MIL = 3
	}
}

1810.1.1 = {
	monarch = {
		name = "Gouri Laksmi Bai"
		dynasty = "Cheraman"
		DIP = 3
		ADM = 2
		MIL = 3
		female = yes
	}
}

1810.1.1 = {
	heir = {
		name = "Gouri Parvati Bai"
		monarch_name = "Gouri Parvati Bai"
		dynasty = "Cheraman"
		birth_date = 1800.1.1
		death_Date = 1829.1.1
		female = yes
		claim = 95
		ADM = 3
		DIP = 3
		MIL = 3
	}
}
		

1815.1.1 = {
	monarch = {
		name = "Gouri Parvati Bai"
		dynasty = "Cheraman"
		DIP = 3
		ADM = 3
		MIL = 3
		female = yes
	}
}
