government = tribal_monarchy government_rank = 2
primary_culture = rwandan
religion = animism #Fetishism
technology_group = central_african
unit_type = sub_saharan
capital = 4273 # Ndorwe & Nkore Province

1000.1.1 = {
	add_country_modifier = {
		name = "concubinage"
		duration = -1
	}
	set_variable = { which = "centralization_decentralization" value = 5 }
}

1444.1.1 = {
	monarch = {
		name = "Ruhaga"
		dynasty = "Buhaya"
		birth_date = 1420.1.1
		adm = 2
		dip = 1
		mil = 1
	}
}

1490.1.1 = {
	monarch = {
		name = "Ruhaga II"
		dynasty = "Buhaya"
		birth_date = 1470.1.1
		adm = 2
		dip = 2
		mil = 3
	}
}

1560.1.1 = {
	monarch = {
		name = "Ruhaga II"
		dynasty = "Buhaya"
		birth_date = 1530.1.1
		adm = 2
		dip = 2
		mil = 3
	}
}

1600.1.1 = {
	monarch = {
		name = "Kmenyi"
		dynasty = "Buhaya"
		birth_date = 1560.1.1
		adm = 2
		dip = 2
		mil = 2
	}
}

1630.1.1 = {
	monarch = {
		name = "Ntare I"
		dynasty = "Buhaya"
		birth_date = 1590.1.1
		adm = 2
		dip = 2
		mil = 2
	}
}

1670.1.1 = {
	monarch = {
		name = "Buhinda"
		dynasty = "Buhaya"
		birth_date = 1650.1.1
		adm = 2
		dip = 3
		mil = 2
	}
}

1700.1.1 = {
	monarch = {
		name = "Maziga"
		dynasty = "Buhaya"
		birth_date = 1680.1.1
		adm = 2
		dip = 2
		mil = 1
	}
}

1730.1.1 = {
	monarch = {
		name = "Masimba"
		dynasty = "Buhaya"
		birth_date = 1680.1.1
		adm = 2
		dip = 2
		mil = 1
	}
}

1750.1.1 = {
	monarch = {
		name = "Kivunangoma"
		dynasty = "Buhaya"
		birth_date = 1730.1.1
		adm = 1
		dip = 2
		mil = 1
	}
}

1760.1.1 = {
	monarch = {
		name = "Ntare II"
		dynasty = "Buhaya"
		birth_date = 1730.1.1
		adm = 1
		dip = 2
		mil = 1
	}
}


1780.1.1 = {
	monarch = {
		name = "Kanyoni"
		dynasty = "Buhaya"
		birth_date = 1750.1.1
		adm = 1
		dip = 2
		mil = 2
	}
}

1800.1.1 = {
	monarch = {
		name = "Rwasa"
		dynasty = "Buhaya"
		birth_date = 1781.1.1
		adm = 2
		dip = 2
		mil = 2
	}
}

1815.1.1 = {
	monarch = {
		name = "Ntare"
		dynasty = "Buhaya"
		birth_date = 1786.1.1
		adm = 2
		dip = 3
		mil = 3
	}
}
